Q1  0 e_max 1.00e+00( 0.0) e_L2 1.00e+00( 0.0) r_2 0.00e+00( 0.0) G[    1    1    1] L[   1   1   1] P[  1  1  1]
Q1  1 e_max 1.00e+00( 0.0) e_L2 1.00e+00( 0.0) r_2 1.19e-21( 0.0) G[    2    2    2] L[   2   2   2] P[  1  1  1]
Q1  2 e_max 4.43e-01( 1.2) e_L2 5.28e-01( 0.9) r_2 5.51e-03( 0.0) G[    4    4    4] L[   4   4   4] P[  1  1  1]
Q1  3 e_max 1.34e-01( 1.7) e_L2 1.38e-01( 1.9) r_2 6.08e-03(-0.1) G[    8    8    8] L[   4   4   4] P[  2  2  2]
Q1  4 e_max 3.59e-02( 1.9) e_L2 3.45e-02( 2.0) r_2 1.15e-02(-0.9) G[   16   16   16] L[   4   4   4] P[  4  4  4]
Q1  5 e_max 9.53e-03( 1.9) e_L2 8.06e-03( 2.1) r_2 3.90e-02(-1.8) G[   32   32   32] L[   8   8   8] P[  4  4  4]
Q1  6 e_max 2.49e-03( 1.9) e_L2 1.81e-03( 2.2) r_2 6.31e-02(-0.7) G[   64   64   64] L[  16  16  16] P[  4  4  4]
Q1  7 e_max 6.35e-04( 2.0) e_L2 4.06e-04( 2.2) r_2 7.62e-02(-0.3) G[  128  128  128] L[  32  32  32] P[  4  4  4] [SR], buf=4
Q1  8 e_max 1.60e-04( 2.0) e_L2 1.01e-04( 2.0) r_2 8.28e-02(-0.1) G[  256  256  256] L[  64  64  64] P[  4  4  4] [SR], buf=8
Q1  9 e_max 7.26e-04(-2.2) e_L2 6.87e-04(-2.8) r_2 8.64e-02(-0.1) G[  512  512  512] L[ 128 128 128] P[  4  4  4] [SR], buf=16
[36]PETSC ERROR: --------------------- Error Message --------------------------------------------------------------
[36]PETSC ERROR: Out of memory. This could be due to allocating
[36]PETSC ERROR: too large an object or bleeding by not properly
[36]PETSC ERROR: destroying unneeded objects.
[36]PETSC ERROR: Memory allocated 0 Memory used by process 3524544
[36]PETSC ERROR: Try running with -malloc_dump or -malloc_log for info.
[36]PETSC ERROR: Memory requested 193100552
[36]PETSC ERROR: See http://www.mcs.anl.gov/petsc/documentation/faq.html for trouble shooting.
[36]PETSC ERROR: Petsc Release Version 3.6.1, Jul, 22, 2015 
[36]PETSC ERROR: /global/u1/s/shenneki/hpgmg-fe-sr/./build/bin/hpgmg-fe on a haswell named nid00043 by shenneki Thu Mar 10 13:03:03 2016
[36]PETSC ERROR: Configure options --known-mpi-int64_t=0 --known-bits-per-byte=8 --known-sdot-returns-double=0 --known-snrm2-returns-double=0 --known-level1-dcache-assoc=0 --known-level1-dcache-linesize=32 --known-level1-dcache-size=32768 --known-memcmp-ok=[18]PETSC ERROR: --------------------- Error Message --------------------------------------------------------------
[18]PETSC ERROR: Out of memory. This could be due to allocating
[18]PETSC ERROR: too large an object or bleeding by not properly
[18]PETSC ERROR: destroying unneeded objects.
[18]PETSC ERROR: Memory allocated 0 Memory used by process 3524816
[18]PETSC ERROR: Try running with -malloc_dump or -malloc_log for info.
[18]PETSC ERROR: Memory requested 193100552
[18]PETSC ERROR: See http://www.mcs.anl.gov/petsc/documentation/faq.html for trouble shooting.
[18]PETSC ERROR: Petsc Release Version 3.6.1, Jul, 22, 2015 
[18]PETSC ERROR: /global/u1/s/shenneki/hpgmg-fe-sr/./build/bin/hpgmg-fe on a haswell named nid00042 by shenneki Thu Mar 10 13:03:03 2016
[18]PETSC ERROR: Configure options --known-mpi-int64_t=0 --known-bits-per-byte=8 --known-sdot-returns-double=0 --known-snrm2-returns-double=0 --known-level1-dcache-assoc=0 --known-level1-dcache-linesize=32 --known-level1-dcache-size=32768 --known-memcmp-ok=1 --known-mpi-c-double-complex=1 --known-mpi-long-double=1 --known-mpi-shared-libraries=0 --known-sizeof-MPI_Comm=4 --known-sizeof-MPI_Fint=4 --known-sizeof-char=1 --known-sizeof-double=8 --known-sizeof-float=4 --known-sizeof-int=4 --known-sizeof-long-long=8 --known-sizeof-long=8 --known-sizeof-short=2 --known-sizeof-size_t=8 --known-sizeof-void-p=8 --with-ar=ar --with-batch=1 --with-cc=cc --with-clib-autodetect=0 --with-cxx=CC --with-cxxlib-autodetect=0 --with-debugging=0 --with-dependencies=0 --with-fc=ftn --with-fortran-datatypes=0 --with-fortran-interfaces=0 --with-fortranlib-autodetect=0 --with-ranlib=ranlib --with-scalar-type=real --with-shared-ld=ar --with-etags=0 --with-dependencies=0 --with-ssl=0 --with-dependencies=0 --with-mpi-dir=/opt/cray/mpt/7.2.5.1/gni/mpich2-intel/14.0 --with-blas-lapack-lib="-L/opt/cray/libsci/13.2.0/INTEL/14.0/x86_64/lib -lsci_intel_mp" --with-superlu=1 --with-superlu-include=/opt/cray/tpsl/1.5.2/INTEL/14.0/haswell/include --with-superlu-lib="-L/opt/cray/tpsl/1.5.2/INTEL/14.0/haswell/lib -lsuperlu" --with-superlu_dist=1 --with-superlu_dist-include=/opt/cray/tpsl/1.5.2/INTEL/14.0/haswell/include --with-superlu_dist-lib="-L/opt/cray/tpsl/1.5.2/INTEL/14.0/haswell/lib -lsuperlu_dist" --with-parmetis=1 --with-parmetis-include=/opt/cray/tpsl/1.5.2/INTEL/14.0/haswell/include --with-parmetis-lib="-L/opt/cray/tpsl/1.5.2/INTEL/14.0/haswell/lib -lparmetis" --with-metis=1 --with-metis-include=/opt/cray/tpsl/1.5.2/INTEL/14.0/haswell/include --with-metis-lib="-L/opt/cray/tpsl/1.5.2/INTEL/14.0/haswell/lib -lmetis" --with-ptscotch=1 --with-ptscotch-include=/opt/cray/tpsl/1.5.2/INTEL/14.0/haswell/include --with-ptscotch-lib="-L/opt/cray/tpsl/1.5.2/INTEL/14.0/haswell/lib -lptscotch -lscotch -lptscotcherr -lscotcherr" --with-scalapack=1 --with-scalapack-include=/opt/cray/libsci/13.2.0/INTEL/14.0/x86_64/include --with-scalapack-lib="-L/opt/cray/libsci/13.2.0/INTEL/14.0/x86_64/lib -lsci_intel_mpi_mp -lsci_intel_mp" --with-mumps=1 --with-mumps-include=/opt/cray/tpsl/1.5.2/INTEL/14.0/haswell/include --with-mumps-lib="-L/opt/cray/tpsl/1.5.2/INTEL/14.0/haswell/lib -lcmumps -ldmumps -lesmumps -lsmumps -lzmumps -lmumps_common -lptesmumps -lpord" --CFLAGS="-xcore-avx2 -openmp -O3 " --CXXFLAGS="-xcore-avx2 -openmp -O3  " --FFLAGS="-xcore-avx2 -openmp -O3  " --LIBS=-lstdc++ --CXX_LINKER_FLAGS= --PETSC_ARCH=haswell --prefix=/opt/cray/pe/petsc/3.6.1.0/real/INTEL/14.0/haswell --with-hypre=1 --with-hypre-include=/opt/cray/tpsl/1.5.2/INTEL/14.0/haswell/include --with-hypre-lib="-L/opt/cray/tpsl/1.5.2/INTEL/14.0/haswell/lib -lHYPRE" --with-sundials=1 --with-sundials-include=/opt/cray/tpsl/1.5.2/INTEL/14.0/haswell/include --with-sundials-lib="-L/opt/cray/tpsl/1.5.2/INTEL/14.0/haswell/lib -lsundials_cvode -lsundials_cvodes -lsundials_ida -lsundials_idas -lsundials_kinsol -lsundials_nvecparallel -lsundials_nvecserial"
[18]PETSC ERROR: #1 VecCreate_Seq() line 37 in src/vec/vec/impls/seq/bvec3.c
[18]PETSC ERROR: #2 VecCreate_Seq() line 37 in src/vec/vec/impls/seq/bvec3.c
[18]PETSC ERROR: #3 VecSetType() line 53 in src/vec/vec/interface/vecreg.c
[18]PETSC ERROR: #4 VecDuplicate_Seq() line 786 in src/vec/vec/impls/seq/bvec2.c
[18]PETSC ERROR: #5 VecDuplicate() line 399 in src/vec/vec/interface/vector.c
[18]PETSC ERROR: #6 VecDuplicateVecs_Default() line 840 in src/vec/vec/interface/vector.c
[18]PETSC ERROR: #7 VecDuplicateVecs() line 473 in src/vec/vec/interface/vector.c
[18]PETSC ERROR: #8 KSPCreateVecs() line 993 in src/ksp/ksp/interface/iterativ.c
[18]PETSC ERROR: #9 KSPSetWorkVecs() line 1053 in src/ksp/ksp/interface/iterativ.c
[18]PETSC ERROR: #10 KSPSetUp_Chebyshev() line 25 in src/ksp/ksp/impls/cheby/cheby.c
[18]PETSC ERROR: #11 KSPSetUp() line 294 in src/ksp/ksp/interface/itfunc.c
[18]PETSC ERROR: #12 KSPSolve() line 546 in src/ksp/ksp/interface/itfunc.c
[18]PETSC ERROR: #13 MGVCycleSR() line 468 in /global/u1/s/shenneki/hpgmg-fe-sr/finite-element/fmg.c
[18]PETSC ERROR: #14 MGFCycleSR() line 627 in /global/u1/s/shenneki/hpgmg-fe-sr/finite-element/fmg.c
[18]PETSC ERROR: #15 RunFMG() line 710 in /global/u1/s/shenneki/hpgmg-fe-sr/finite-element/fmg.c
[18]PETSC ERROR: #16 main() line 67 in /global/u1/s/shenneki/hpgmg-fe-sr/finite-element/fefas.c
[18]PETSC ERROR: PETSc Option Table entries:
[18]PETSC ERROR: -M 1024,1024,1024
[18]PETSC ERROR: -mg_monitor
[18]PETSC ERROR: -op_type poisson1
[18]PETSC ERROR: -p 4,4,4
[18]PETSC ERROR: -smooth 3,1
[18]PETSC ERROR: -sr_levels 4
[18]PETSC ERROR: -sr_max_buf 2
[18]PETSC ERROR: ----------------End of Error Message -------send entire error message to petsc-maint@mcs.anl.gov----------
Rank 18 [Thu Mar 10 13:03:52 2016] [c0-0c0s10n2] application called MPI_Abort(MPI_COMM_WORLD, 55) - process 18
[0]PETSC ERROR: --------------------- Error Message --------------------------------------------------------------
[0]PETSC ERROR: Out of memory. This could be due to allocating
[0]PETSC ERROR: too large an object or bleeding by not properly
[0]PETSC ERROR: destroying unneeded objects.
[0]PETSC ERROR: Memory allocated 0 Memory used by process 3523596
[0]PETSC ERROR: Try running with -malloc_dump or -malloc_log for info.
[0]PETSC ERROR: Memory requested 193100552
[0]PETSC ERROR: See http://www.mcs.anl.gov/petsc/documentation/faq.html for trouble shooting.
[0]PETSC ERROR: Petsc Release Version 3.6.1, Jul, 22, 2015 
[0]PETSC ERROR: /global/u1/s/shenneki/hpgmg-fe-sr/./build/bin/hpgmg-fe on a haswell named nid00042 by shenneki Thu Mar 10 13:03:03 2016
[0]PETSC ERROR: Configure options --known-mpi-int64_t=0 --known-bits-per-byte=8 --known-sdot-returns-double=0 --known-snrm2-returns-double=0 --known-level1-dcache-assoc=0 --known-level1-dcache-linesize=32 --known-level1-dcache-size=32768 --known-memcmp-ok=1 --known-mpi-c-double-complex=1 --known-mpi-long-double=1 --known-mpi-shared-libraries=0 --known-sizeof-MPI_Comm=4 --known-sizeof-MPI_Fint=4 --known-sizeof-char=1 --known-sizeof-double=8 --known-sizeof-float=4 --known-sizeof-int=4 --known-sizeof-long-long=8 --known-sizeof-long=8 --known-sizeof-short=2 --known-sizeof-size_t=8 --known-sizeof-void-p=8 --with-ar=ar --with-batch=1 --with-cc=cc --with-clib-autodetect=0 --with-cxx=CC --with-cxxlib-autodetect=0 --with-debugging=0 --with-dependencies=0 --with-fc=ftn --with-fortran-datatypes=0 --with-fortran-interfaces=0 --with-fortranlib-autodetect=0 --with-ranlib=ranlib --with-scalar-type=real --with-shared-ld=ar --with-etags=0 --with-dependencies=0 --with-ssl=0 --with-dependencies=0 --with-mpi-dir=/opt/cray/mpt/7.2.5.1/gni/mpich2-intel/14.0 --with-blas-lapack-lib="-L/opt/cray/libsci/13.2.0/INTEL/14.0/x86_64/lib -lsci_intel_mp" --with-superlu=1 --with-superlu-include=/opt/cray/tpsl/1.5.2/INTEL/14.0/haswell/include --with-superlu-lib="-L/opt/cray/tpsl/1.5.2/INTEL/14.0/haswell/lib -lsuperlu" --with-superlu_dist=1 --with-superlu_dist-include=/opt/cray/tpsl/1.5.2/INTEL/14.0/haswell/include --with-superlu_dist-lib="-L/opt/cray/tpsl/1.5.2/INTEL/14.0/haswell/lib -lsuperlu_dist" --with-parmetis=1 --with-parmetis-include=/opt/cray/tpsl/1.5.2/INTEL/14.0/haswell/include --with-parmetis-lib="-L/opt/cray/tpsl/1.5.2/INTEL/14.0/haswell/lib -lparmetis" --with-metis=1 --with-metis-include=/opt/cray/tpsl/1.5.2/INTEL/14.0/haswell/include --with-metis-lib="-L/opt/cray/tpsl/1.5.2/INTEL/14.0/haswell/lib -lmetis" --with-ptscotch=1 --with-ptscotch-include=/opt/cray/tpsl/1.5.2/INTEL/14.0/haswell/include --with-ptscotch-lib="-L/opt/cray/tpsl/1.5.2/INTEL/14.0/haswell/lib -lptscotch -lscotch -lptscotcherr -lscotcherr" --with-scalapack=1 --with-scalapack-include=/opt/cray/libsci/13.2.0/INTEL/14.0/x86_64/include --with-scalapack-lib="-L/opt/cray/libsci/13.2.0/INTEL/14.0/x86_64/lib -lsci_intel_mpi_mp -lsci_intel_mp" --with-mumps=1 --with-mumps-include=/opt/cray/tpsl/1.5.2/INTEL/14.0/haswell/include --with-mumps-lib="-L/opt/cray/tpsl/1.5.2/INTEL/14.0/haswell/lib -lcmumps -ldmumps -lesmumps -lsmumps -lzmumps -lmumps_common -lptesmumps -lpord" --CFLAGS="-xcore-avx2 -openmp -O3 " --CXXFLAGS="-xcore-avx2 -openmp -O3  " --FFLAGS="-xcore-avx2 -openmp -O3  " --LIBS=-lstdc++ --CXX_LINKER_FLAGS= --PETSC_ARCH=haswell --prefix=/opt/cray/pe/petsc/3.6.1.0/real/INTEL/14.0/haswell --with-hypre=1 --with-hypre-include=/opt/cray/tpsl/1.5.2/INTEL/14.0/haswell/include --with-hypre-lib="-L/opt/cray/tpsl/1.5.2/INTEL/14.0/haswell/lib -lHYPRE" --with-sundials=1 --with-sundials-include=/opt/cray/tpsl/1.5.2/INTEL/14.0/haswell/include --with-sundials-lib="-L/opt/cray/tpsl/1.5.2/INTEL/14.0/haswell/lib -lsundials_cvode -lsundials_cvodes -lsundials_ida -lsundials_idas -lsundials_kinsol -lsundials_nvecparallel -lsundials_nvecserial"
[0]PETSC ERROR: #1 VecCreate_Seq() line 37 in src/vec/vec/impls/seq/bvec3.c
[0]PETSC ERROR: #2 VecCreate_Seq() line 37 in src/vec/vec/impls/seq/bvec3.c
[0]PETSC ERROR: #3 VecSetType() line 53 in src/vec/vec/interface/vecreg.c
[0]PETSC ERROR: #4 VecDuplicate_Seq() line 786 in src/vec/vec/impls/seq/bvec2.c
[0]PETSC ERROR: #5 VecDuplicate() line 399 in src/vec/vec/interface/vector.c
[0]PETSC ERROR: #6 VecDuplicateVecs_Default() line 840 in src/vec/vec/interface/vector.c
[0]PETSC ERROR: #7 VecDuplicateVecs() line 473 in src/vec/vec/interface/vector.c
[0]PETSC ERROR: #8 KSPCreateVecs() line 993 in src/ksp/ksp/interface/iterativ.c
[0]PETSC ERROR: #9 KSPSetWorkVecs() line 1053 in src/ksp/ksp/interface/iterativ.c
[0]PETSC ERROR: #10 KSPSetUp_Chebyshev() line 25 in src/ksp/ksp/impls/cheby/cheby.c
[0]PETSC ERROR: #11 KSPSetUp() line 294 in src/ksp/ksp/interface/itfunc.c
[0]PETSC ERROR: #12 KSPSolve() line 546 in src/ksp/ksp/interface/itfunc.c
[0]PETSC ERROR: #13 MGVCycleSR() line 468 in /global/u1/s/shenneki/hpgmg-fe-sr/finite-element/fmg.c
[0]PETSC ERROR: #14 MGFCycleSR() line 627 in /global/u1/s/shenneki/hpgmg-fe-sr/finite-element/fmg.c
[0]PETSC ERROR: #15 RunFMG() line 710 in /global/u1/s/shenneki/hpgmg-fe-sr/finite-element/fmg.c
[0]PETSC ERROR: #16 main() line 67 in /global/u1/s/shenneki/hpgmg-fe-sr/finite-element/fefas.c
[0]PETSC ERROR: PETSc Option Table entries:
[0]PETSC ERROR: -M 1024,1024,1024
[0]PETSC ERROR: -mg_monitor
[0]PETSC ERROR: -op_type poisson1
[0]PETSC ERROR: -p 4,4,4
[0]PETSC ERROR: -smooth 3,1
[0]PETSC ERROR: -sr_levels 4
[0]PETSC ERROR: -sr_max_buf 2
[0]PETSC ERROR: ----------------End of Error Message -------send entire error message to petsc-maint@mcs.anl.gov----------
Rank 0 [Thu Mar 10 13:03:52 2016] [c0-0c0s10n2] application called MPI_Abort(MPI_COMM_WORLD, 55) - process 0
1 --known-mpi-c-double-complex=1 --known-mpi-long-double=1 --known-mpi-shared-libraries=0 --known-sizeof-MPI_Comm=4 --known-sizeof-MPI_Fint=4 --known-sizeof-char=1 --known-sizeof-double=8 --known-sizeof-float=4 --known-sizeof-int=4 --known-sizeof-long-long=8 --known-sizeof-long=8 --known-sizeof-short=2 --known-sizeof-size_t=8 --known-sizeof-void-p=8 --with-ar=ar --with-batch=1 --with-cc=cc --with-clib-autodetect=0 --with-cxx=CC --with-cxxlib-autodetect=0 --with-debugging=0 --with-dependencies=0 --with-fc=ftn --with-fortran-datatypes=0 --with-fortran-interfaces=0 --with-fortranlib-autodetect=0 --with-ranlib=ranlib --with-scalar-type=real --with-shared-ld=ar --with-etags=0 --with-dependencies=0 --with-ssl=0 --with-dependencies=0 --with-mpi-dir=/opt/cray/mpt/7.2.5.1/gni/mpich2-intel/14.0 --with-blas-lapack-lib="-L/opt/cray/libsci/13.2.0/INTEL/14.0/x86_64/lib -lsci_intel_mp" --with-superlu=1 --with-superlu-include=/opt/cray/tpsl/1.5.2/INTEL/14.0/haswell/include --with-superlu-lib="-L/opt/cray/tpsl/1.5.2/INTEL/14.0/haswell/lib -lsuperlu" --with-superlu_dist=1 --with-superlu_dist-include=/opt/cray/tpsl/1.5.2/INTEL/14.0/haswell/include --with-superlu_dist-lib="-L/opt/cray/tpsl/1.5.2/INTEL/14.0/haswell/lib -lsuperlu_dist" --with-parmetis=1 --with-parmetis-include=/opt/cray/tpsl/1.5.2/INTEL/14.0/haswell/include --with-parmetis-lib="-L/opt/cray/tpsl/1.5.2/INTEL/14.0/haswell/lib -lparmetis" --with-metis=1 --with-metis-include=/opt/cray/tpsl/1.5.2/INTEL/14.0/haswell/include --with-metis-lib="-L/opt/cray/tpsl/1.5.2/INTEL/14.0/haswell/lib -lmetis" --with-ptscotch=1 --with-ptscotch-include=/opt/cray/tpsl/1.5.2/INTEL/14.0/haswell/include --with-ptscotch-lib="-L/opt/cray/tpsl/1.5.2/INTEL/14.0/haswell/lib -lptscotch -lscotch -lptscotcherr -lscotcherr" --with-scalapack=1 --with-scalapack-include=/opt/cray/libsci/13.2.0/INTEL/14.0/x86_64/include --with-scalapack-lib="-L/opt/cray/libsci/13.2.0/INTEL/14.0/x86_64/lib -lsci_intel_mpi_mp -lsci_intel_mp" --with-mumps=1 --with-mumps-include=/opt/cray/tpsl/1.5.2/INTEL/14.0/haswell/include --with-mumps-lib="-L/opt/cray/tpsl/1.5.2/INTEL/14.0/haswell/lib -lcmumps -ldmumps -lesmumps -lsmumps -lzmumps -lmumps_common -lptesmumps -lpord" --CFLAGS="-xcore-avx2 -openmp -O3 " --CXXFLAGS="-xcore-avx2 -openmp -O3  " --FFLAGS="-xcore-avx2 -openmp -O3  " --LIBS=-lstdc++ --CXX_LINKER_FLAGS= --PETSC_ARCH=haswell --prefix=/opt/cray/pe/petsc/3.6.1.0/real/INTEL/14.0/haswell --with-hypre=1 --with-hypre-include=/opt/cray/tpsl/1.5.2/INTEL/14.0/haswell/include --with-hypre-lib="-L/opt/cray/tpsl/1.5.2/INTEL/14.0/haswell/lib -lHYPRE" --with-sundials=1 --with-sundials-include=/opt/cray/tpsl/1.5.2/INTEL/14.0/haswell/include --with-sundials-lib="-L/opt/cray/tpsl/1.5.2/INTEL/14.0/haswell/lib -lsundials_cvode -lsundials_cvodes -lsundials_ida -lsundials_idas -lsundials_kinsol -lsundials_nvecparallel -lsundials_nvecserial"
[36]PETSC ERROR: #1 VecCreate_Seq() line 37 in src/vec/vec/impls/seq/bvec3.c
[36]PETSC ERROR: #2 VecCreate_Seq() line 37 in src/vec/vec/impls/seq/bvec3.c
[36]PETSC ERROR: #3 VecSetType() line 53 in src/vec/vec/interface/vecreg.c
[36]PETSC ERROR: #4 VecDuplicate_Seq() line 786 in src/vec/vec/impls/seq/bvec2.c
[36]PETSC ERROR: #5 VecDuplicate() line 399 in src/vec/vec/interface/vector.c
[36]PETSC ERROR: #6 VecDuplicateVecs_Default() line 840 in src/vec/vec/interface/vector.c
[36]PETSC ERROR: #7 VecDuplicateVecs() line 473 in src/vec/vec/interface/vector.c
[36]PETSC ERROR: #8 KSPCreateVecs() line 993 in src/ksp/ksp/interface/iterativ.c
[36]PETSC ERROR: #9 KSPSetWorkVecs() line 1053 in src/ksp/ksp/interface/iterativ.c
[36]PETSC ERROR: #10 KSPSetUp_Chebyshev() line 25 in src/ksp/ksp/impls/cheby/cheby.c
[36]PETSC ERROR: #11 KSPSetUp() line 294 in src/ksp/ksp/interface/itfunc.c
[36]PETSC ERROR: #12 KSPSolve() line 546 in src/ksp/ksp/interface/itfunc.c
[36]PETSC ERROR: #13 MGVCycleSR() line 468 in /global/u1/s/shenneki/hpgmg-fe-sr/finite-element/fmg.c
[36]PETSC ERROR: #14 MGFCycleSR() line 627 in /global/u1/s/shenneki/hpgmg-fe-sr/finite-element/fmg.c
[36]PETSC ERROR: #15 RunFMG() line 710 in /global/u1/s/shenneki/hpgmg-fe-sr/finite-element/fmg.c
[36]PETSC ERROR: #16 main() line 67 in /global/u1/s/shenneki/hpgmg-fe-sr/finite-element/fefas.c
[36]PETSC ERROR: PETSc Option Table entries:
[36]PETSC ERROR: -M 1024,1024,1024
[36]PETSC ERROR: -mg_monitor
[36]PETSC ERROR: -op_type poisson1
[36]PETSC ERROR: -p 4,4,4
[36]PETSC ERROR: -smooth 3,1
[36]PETSC ERROR: -sr_levels 4
[36]PETSC ERROR: -sr_max_buf 2
[36]PETSC ERROR: ----------------End of Error Message -------send entire error message to petsc-maint@mcs.anl.gov----------
Rank 36 [Thu Mar 10 13:03:52 2016] [c0-0c0s10n3] application called MPI_Abort(MPI_COMM_WORLD, 55) - process 36
[54]PETSC ERROR: --------------------- Error Message --------------------------------------------------------------
[54]PETSC ERROR: Out of memory. This could be due to allocating
[54]PETSC ERROR: too large an object or bleeding by not properly
[54]PETSC ERROR: destroying unneeded objects.
[54]PETSC ERROR: Memory allocated 0 Memory used by process 3527196
[54]PETSC ERROR: Try running with -malloc_dump or -malloc_log for info.
[54]PETSC ERROR: Memory requested 193100552
[54]PETSC ERROR: See http://www.mcs.anl.gov/petsc/documentation/faq.html for trouble shooting.
[54]PETSC ERROR: Petsc Release Version 3.6.1, Jul, 22, 2015 
[54]PETSC ERROR: /global/u1/s/shenneki/hpgmg-fe-sr/./build/bin/hpgmg-fe on a haswell named nid00043 by shenneki Thu Mar 10 13:03:03 2016
[54]PETSC ERROR: Configure options --known-mpi-int64_t=0 --known-bits-per-byte=8 --known-sdot-returns-double=0 --known-snrm2-returns-double=0 --known-level1-dcache-assoc=0 --known-level1-dcache-linesize=32 --known-level1-dcache-size=32768 --known-memcmp-ok=1 --known-mpi-c-double-complex=1 --known-mpi-long-double=1 --known-mpi-shared-libraries=0 --known-sizeof-MPI_Comm=4 --known-sizeof-MPI_Fint=4 --known-sizeof-char=1 --known-sizeof-double=8 --known-sizeof-float=4 --known-sizeof-int=4 --known-sizeof-long-long=8 --known-sizeof-long=8 --known-sizeof-short=2 --known-sizeof-size_t=8 --known-sizeof-void-p=8 --with-ar=ar --with-batch=1 --with-cc=cc --with-clib-autodetect=0 --with-cxx=CC --with-cxxlib-autodetect=0 --with-debugging=0 --with-dependencies=0 --with-fc=ftn --with-fortran-datatypes=0 --with-fortran-interfaces=0 --with-fortranlib-autodetect=0 --with-ranlib=ranlib --with-scalar-type=real --with-shared-ld=ar --with-etags=0 --with-dependencies=0 --with-ssl=0 --with-dependencies=0 --with-mpi-dir=/opt/cray/mpt/7.2.5.1/gni/mpich2-intel/14.0 --with-blas-lapack-lib="-L/opt/cray/libsci/13.2.0/INTEL/14.0/x86_64/lib -lsci_intel_mp" --with-superlu=1 --with-superlu-include=/opt/cray/tpsl/1.5.2/INTEL/14.0/haswell/include --with-superlu-lib="-L/opt/cray/tpsl/1.5.2/INTEL/14.0/haswell/lib -lsuperlu" --with-superlu_dist=1 --with-superlu_dist-include=/opt/cray/tpsl/1.5.2/INTEL/14.0/haswell/include --with-superlu_dist-lib="-L/opt/cray/tpsl/1.5.2/INTEL/14.0/haswell/lib -lsuperlu_dist" --with-parmetis=1 --with-parmetis-include=/opt/cray/tpsl/1.5.2/INTEL/14.0/haswell/include --with-parmetis-lib="-L/opt/cray/tpsl/1.5.2/INTEL/14.0/haswell/lib -lparmetis" --with-metis=1 --with-metis-include=/opt/cray/tpsl/1.5.2/INTEL/14.0/haswell/include --with-metis-lib="-L/opt/cray/tpsl/1.5.2/INTEL/14.0/haswell/lib -lmetis" --with-ptscotch=1 --with-ptscotch-include=/opt/cray/tpsl/1.5.2/INTEL/14.0/haswell/include --with-ptscotch-lib="-L/opt/cray/tpsl/1.5.2/INTEL/14.0/haswell/lib -lptscotch -lscotch -lptscotcherr -lscotcherr" --with-scalapack=1 --with-scalapack-include=/opt/cray/libsci/13.2.0/INTEL/14.0/x86_64/include --with-scalapack-lib="-L/opt/cray/libsci/13.2.0/INTEL/14.0/x86_64/lib -lsci_intel_mpi_mp -lsci_intel_mp" --with-mumps=1 --with-mumps-include=/opt/cray/tpsl/1.5.2/INTEL/14.0/haswell/include --with-mumps-lib="-L/opt/cray/tpsl/1.5.2/INTEL/14.0/haswell/lib -lcmumps -ldmumps -lesmumps -lsmumps -lzmumps -lmumps_common -lptesmumps -lpord" --CFLAGS="-xcore-avx2 -openmp -O3 " --CXXFLAGS="-xcore-avx2 -openmp -O3  " --FFLAGS="-xcore-avx2 -openmp -O3  " --LIBS=-lstdc++ --CXX_LINKER_FLAGS= --PETSC_ARCH=haswell --prefix=/opt/cray/pe/petsc/3.6.1.0/real/INTEL/14.0/haswell --with-hypre=1 --with-hypre-include=/opt/cray/tpsl/1.5.2/INTEL/14.0/haswell/include --with-hypre-lib="-L/opt/cray/tpsl/1.5.2/INTEL/14.0/haswell/lib -lHYPRE" --with-sundials=1 --with-sundials-include=/opt/cray/tpsl/1.5.2/INTEL/14.0/haswell/include --with-sundials-lib="-L/opt/cray/tpsl/1.5.2/INTEL/14.0/haswell/lib -lsundials_cvode -lsundials_cvodes -lsundials_ida -lsundials_idas -lsundials_kinsol -lsundials_nvecparallel -lsundials_nvecserial"
[54]PETSC ERROR: #1 VecCreate_Seq() line 37 in src/vec/vec/impls/seq/bvec3.c
[54]PETSC ERROR: #2 VecCreate_Seq() line 37 in src/vec/vec/impls/seq/bvec3.c
[54]PETSC ERROR: #3 VecSetType() line 53 in src/vec/vec/interface/vecreg.c
[54]PETSC ERROR: #4 VecDuplicate_Seq() line 786 in src/vec/vec/impls/seq/bvec2.c
[54]PETSC ERROR: #5 VecDuplicate() line 399 in src/vec/vec/interface/vector.c
[54]PETSC ERROR: #6 VecDuplicateVecs_Default() line 840 in src/vec/vec/interface/vector.c
[54]PETSC ERROR: #7 VecDuplicateVecs() line 473 in src/vec/vec/interface/vector.c
[54]PETSC ERROR: #8 KSPCreateVecs() line 993 in src/ksp/ksp/interface/iterativ.c
[54]PETSC ERROR: #9 KSPSetWorkVecs() line 1053 in src/ksp/ksp/interface/iterativ.c
[54]PETSC ERROR: #10 KSPSetUp_Chebyshev() line 25 in src/ksp/ksp/impls/cheby/cheby.c
[54]PETSC ERROR: #11 KSPSetUp() line 294 in src/ksp/ksp/interface/itfunc.c
[54]PETSC ERROR: #12 KSPSolve() line 546 in src/ksp/ksp/interface/itfunc.c
[54]PETSC ERROR: #13 MGVCycleSR() line 468 in /global/u1/s/shenneki/hpgmg-fe-sr/finite-element/fmg.c
[54]PETSC ERROR: #14 MGFCycleSR() line 627 in /global/u1/s/shenneki/hpgmg-fe-sr/finite-element/fmg.c
[54]PETSC ERROR: #15 RunFMG() line 710 in /global/u1/s/shenneki/hpgmg-fe-sr/finite-element/fmg.c
[54]PETSC ERROR: #16 main() line 67 in /global/u1/s/shenneki/hpgmg-fe-sr/finite-element/fefas.c
[54]PETSC ERROR: PETSc Option Table entries:
[54]PETSC ERROR: -M 1024,1024,1024
[54]PETSC ERROR: -mg_monitor
[54]PETSC ERROR: -op_type poisson1
[54]PETSC ERROR: -p 4,4,4
[54]PETSC ERROR: -smooth 3,1
[54]PETSC ERROR: -sr_levels 4
[54]PETSC ERROR: -sr_max_buf 2
[54]PETSC ERROR: ----------------End of Error Message -------send entire error message to petsc-maint@mcs.anl.gov----------
Rank 54 [Thu Mar 10 13:03:52 2016] [c0-0c0s10n3] application called MPI_Abort(MPI_COMM_WORLD, 55) - process 54
slurmstepd: Exceeded step memory limit at some point.
slurmstepd: Exceeded job memory limit at some point.
srun: error: nid00043: tasks 36,54: Aborted
srun: Terminating job step 1307068.2
srun: error: nid00042: tasks 0,18: Aborted
slurmstepd: *** STEP 1307068.2 ON nid00042 CANCELLED AT 2016-03-10T13:03:54 ***
srun: Job step aborted: Waiting up to 32 seconds for job step to finish.
srun: error: nid00043: tasks 38,62: Killed
srun: error: nid00042: tasks 2,16: Killed
srun: error: nid00043: tasks 32,44,52: Killed
srun: error: nid00042: tasks 4,8,10,26: Killed
srun: error: nid00042: tasks 1,3,5-6,9,11-15,17,19-25,27-31: Killed
srun: error: nid00042: task 7: Killed
srun: error: nid00043: tasks 33-35,37,39-43,45-51,53,55-61,63: Killed
