srun: Warning: can't run 64 processes on 171 nodes, setting nnodes to 64
Finite Element FAS Performance Sampler on process grid [4 4 4] = 64
Max memory per MPI rank: 0.000009 GB
Small Test G[  128  128  128]
Q1 G[  128  128  128] P[  4  4  4] SR[0]  2.524e-01 s  113.504846 GF    8.405339 MEq/s
Large Test G[  128  128  128]
Q1  0 e_max 1.00e+00( 0.0) e_L2 1.00e+00( 0.0) r_2 0.00e+00( 0.0) G[    1    1    1] L[   1   1   1] P[  1  1  1]
Q1  1 e_max 1.00e+00( 0.0) e_L2 1.00e+00( 0.0) r_2 3.52e-03( 0.0) G[    2    2    2] L[   2   2   2] P[  1  1  1]
Q1  2 e_max 4.48e-01( 1.2) e_L2 5.28e-01( 0.9) r_2 5.56e-03(-0.7) G[    4    4    4] L[   4   4   4] P[  1  1  1]
Q1  3 e_max 1.34e-01( 1.7) e_L2 1.38e-01( 1.9) r_2 6.26e-03(-0.2) G[    8    8    8] L[   4   4   4] P[  2  2  2]
Q1  4 e_max 3.60e-02( 1.9) e_L2 3.45e-02( 2.0) r_2 1.55e-02(-1.3) G[   16   16   16] L[   4   4   4] P[  4  4  4]
Q1  5 e_max 9.53e-03( 1.9) e_L2 8.08e-03( 2.1) r_2 4.34e-02(-1.5) G[   32   32   32] L[   8   8   8] P[  4  4  4]
Q1  6 e_max 2.50e-03( 1.9) e_L2 1.82e-03( 2.1) r_2 6.65e-02(-0.6) G[   64   64   64] L[  16  16  16] P[  4  4  4]
Q1  7 e_max 6.36e-04( 2.0) e_L2 4.08e-04( 2.2) r_2 7.90e-02(-0.2) G[  128  128  128] L[  32  32  32] P[  4  4  4]
Q1 G[  128  128  128] P[  4  4  4] SR[0]  3.427e-01 s  110.137612 GF    6.263611 MEq/s
Max memory per MPI rank: 0.000018 GB
Starting performance sampling
Q1 G[  128  128  128] P[  4  4  4] SR[0]  2.415e-01 s  119.053950 GF    8.816265 MEq/s
Q1 G[  128  128  128] P[  4  4  4] SR[0]  2.432e-01 s  118.063230 GF    8.742899 MEq/s
Q1 G[  128  128  128] P[  4  4  4] SR[0]  2.444e-01 s  117.325113 GF    8.688240 MEq/s
Q1 G[  128  128  128] P[  4  4  4] SR[0]  2.460e-01 s  116.733968 GF    8.644464 MEq/s
Q1 G[  128  128  128] P[  4  4  4] SR[0]  2.430e-01 s  117.937374 GF    8.733579 MEq/s
Q1 G[  128  128  128] P[  4  4  4] SR[0]  2.472e-01 s  115.949156 GF    8.586347 MEq/s
Q1 G[  128  128  128] P[  4  4  4] SR[0]  2.454e-01 s  116.786667 GF    8.648367 MEq/s
Q1 G[  128  128  128] P[  4  4  4] SR[0]  2.407e-01 s  119.803190 GF    8.871748 MEq/s
************************************************************************************************************************
***             WIDEN YOUR WINDOW TO 120 CHARACTERS.  Use 'enscript -r -fCourier9' to print this document            ***
************************************************************************************************************************

---------------------------------------------- PETSc Performance Summary: ----------------------------------------------

/global/u1/s/shenneki/hpgmg-fe-sr/./build/bin/hpgmg-fe on a sandybridge named nid00008 with 64 processors, by shenneki Fri Apr  8 18:34:35 2016
Using Petsc Release Version 3.6.1, Jul, 22, 2015 

                         Max       Max/Min        Avg      Total 
Time (sec):           3.209e+00      1.00003   3.209e+00
Objects:              7.620e+02      2.18338   3.650e+02
Flops:                5.806e+09      1.01692   5.716e+09  3.658e+11
Flops/sec:            1.809e+09      1.01692   1.781e+09  1.140e+11
MPI Messages:         1.388e+04      4.45880   6.774e+03  4.335e+05
MPI Message Lengths:  8.573e+06      1.54490   1.035e+03  4.489e+08
MPI Reductions:       2.880e+02      1.22034

Flop counting convention: 1 flop = 1 real number operation of type (multiply/divide/add/subtract)
                            e.g., VecAXPY() for real vectors of length N --> 2N flops
                            and VecAXPY() for complex vectors of length N --> 8N flops

Summary of Stages:   ----- Time ------  ----- Flops -----  --- Messages ---  -- Message Lengths --  -- Reductions --
                        Avg     %Total     Avg     %Total   counts   %Total     Avg         %Total   counts   %Total 
 0:      Main Stage: 3.2090e+00 100.0%  3.6579e+11 100.0%  4.335e+05 100.0%  1.035e+03      100.0%  2.415e+02  83.9% 

------------------------------------------------------------------------------------------------------------------------
See the 'Profiling' chapter of the users' manual for details on interpreting output.
Phase summary info:
   Count: number of times phase was executed
   Time and Flops: Max - maximum over all processors
                   Ratio - ratio of maximum to minimum over all processors
   Mess: number of messages sent
   Avg. len: average message length (bytes)
   Reduct: number of global reductions
   Global: entire computation
   Stage: stages of a computation. Set stages with PetscLogStagePush() and PetscLogStagePop().
      %T - percent time in this phase         %F - percent flops in this phase
      %M - percent messages in this phase     %L - percent message lengths in this phase
      %R - percent reductions in this phase
   Total Mflop/s: 10e-6 * (sum of flops over all processors)/(max time over all processors)
------------------------------------------------------------------------------------------------------------------------
Event                Count      Time (sec)     Flops                             --- Global ---  --- Stage ---   Total
                   Max Ratio  Max     Ratio   Max  Ratio  Mess   Avg len Reduct  %T %F %M %L %R  %T %F %M %L %R Mflop/s
------------------------------------------------------------------------------------------------------------------------

--- Event Stage 0: Main Stage

                      55 0.0 2.4717e+00 0.0 4.64e+09 0.0 3.8e+05 8.9e+02 3.7e+01 75 79 87 75 13  75 79 87 75 15 117306
OpRestrictState      280 2.8 1.5506e-02 3.8 0.00e+00 0.0 8.1e+03 4.1e+03 0.0e+00  0  0  2  7  0   0  0  2  7  0     0
OpRestrictResid      350 2.5 3.2476e-02 1.4 3.22e+06 1.0 4.3e+04 1.6e+03 0.0e+00  1  0 10 15  0   1  0 10 15  0  6225
OpInterpolate        350 2.5 9.8355e-02 3.9 3.22e+06 1.0 3.8e+04 1.7e+03 0.0e+00  3  0  9 14  0   3  0  9 14  0  2056
OpForcing              3 1.0 1.2556e-01 1.0 1.57e+08 1.0 2.1e+03 2.6e+03 0.0e+00  4  3  0  1  0   4  3  0  1  0 80224
OpIntegNorms           8 2.0 4.9940e-02 1.0 5.98e+07 1.0 1.1e+03 1.5e+03 8.2e+00  2  1  0  0  3   2  1  0  0  3 76405
OpGetDiagonal         24 2.0 3.2102e-01 1.1 8.95e+08 1.0 1.4e+04 7.4e+02 0.0e+00 10 16  3  2  0  10 16  3  2  0 177774
SFSetGraph           132 1.8 2.9829e-03 1.6 0.00e+00 0.0 0.0e+00 0.0e+00 0.0e+00  0  0  0  0  0   0  0  0  0  0     0
SFBcastBegin        2147 3.0 1.2837e-02 3.3 0.00e+00 0.0 2.1e+05 9.1e+02 0.0e+00  0  0 48 42  0   0  0 48 42  0     0
SFBcastEnd          2147 3.0 1.9494e-01 2.0 0.00e+00 0.0 0.0e+00 0.0e+00 0.0e+00  5  0  0  0  0   5  0  0  0  0     0
SFReduceBegin       2446 2.9 4.0870e-02 1.8 0.00e+00 0.0 2.3e+05 1.1e+03 0.0e+00  1  0 52 58  0   1  0 52 58  0     0
SFReduceEnd         2446 2.9 1.3701e-01 6.4 0.00e+00 0.0 0.0e+00 0.0e+00 0.0e+00  2  0  0  0  0   2  0  0  0  0     0
VecDot                80 0.0 4.3392e-05 0.0 1.20e+03 0.0 0.0e+00 0.0e+00 0.0e+00  0  0  0  0  0   0  0  0  0  0    28
VecTDot               80 0.0 9.7036e-05 0.0 1.20e+03 0.0 0.0e+00 0.0e+00 0.0e+00  0  0  0  0  0   0  0  0  0  0    12
VecNorm               16 2.0 5.6388e-03 5.4 1.67e+05 1.1 0.0e+00 0.0e+00 8.2e+00  0  0  0  0  3   0  0  0  0  3  1747
VecCopy              560 3.5 3.8648e-04 1.5 0.00e+00 0.0 0.0e+00 0.0e+00 0.0e+00  0  0  0  0  0   0  0  0  0  0     0
VecSet              4624 3.0 5.6059e-03 1.2 0.00e+00 0.0 0.0e+00 0.0e+00 0.0e+00  0  0  0  0  0   0  0  0  0  0     0
VecAXPY              560 3.5 1.7862e-03 2.3 1.10e+06 1.1 0.0e+00 0.0e+00 0.0e+00  0  0  0  0  0   0  0  0  0  0 35751
VecAYPX             2048 2.9 5.2207e-03 1.2 4.40e+06 1.1 0.0e+00 0.0e+00 0.0e+00  0  0  0  0  0   0  0  0  0  0 49224
VecAXPBYCZ           560 2.8 2.5203e-03 1.2 4.84e+06 1.1 0.0e+00 0.0e+00 0.0e+00  0  0  0  0  0   0  0  0  0  0 112207
VecPointwiseMult    1304 3.2 3.7174e-03 1.2 2.06e+06 1.1 0.0e+00 0.0e+00 0.0e+00  0  0  0  0  0   0  0  0  0  0 32418
MatMult             1200 3.0 1.8145e+00 1.0 3.58e+09 1.0 2.3e+05 7.7e+02 0.0e+00 56 62 53 40  0  56 62 53 40  0 124211
KSPSetUp              24 2.0 1.9441e-03 1.6 0.00e+00 0.0 0.0e+00 0.0e+00 0.0e+00  0  0  0  0  0   0  0  0  0  0     0
KSPSolve             640 3.2 1.8299e+00 1.0 3.59e+09 1.0 2.3e+05 7.7e+02 0.0e+00 56 62 53 40  0  56 62 53 40  0 123506
PCSetUp               24 2.0 9.0599e-06 0.0 0.00e+00 0.0 0.0e+00 0.0e+00 0.0e+00  0  0  0  0  0   0  0  0  0  0     0
PCApply             1304 3.2 3.2677e-01 1.1 8.97e+08 1.0 1.4e+04 7.4e+02 2.5e+01 10 16  3  2  9  10 16  3  2 10 175013
------------------------------------------------------------------------------------------------------------------------

Memory usage is given in bytes:

Object Type          Creations   Destructions     Memory  Descendants' Mem.
Reports information only for process 0.

--- Event Stage 0: Main Stage

Star Forest Bipartite Graph   228            228       184800     0
              Vector   365            365     15552624     0
              Matrix    24             24        58560     0
    Distributed Mesh    48             48       215424     0
     Discrete System    48             48        40320     0
       Krylov Solver    24             24        29664     0
      Preconditioner    24             24        20160     0
              Viewer     1              0            0     0
========================================================================================================================
Average time to get PetscTime(): 9.53674e-08
Average time for MPI_Barrier(): 2.11716e-05
Average time for zero size MPI_Send(): 4.32879e-06
#PETSc Option Table entries:
-local 32768,32769
-log_summary
-op_type poisson1
-repeat 8
-smooth 3,1
-sr_levels 0
-sr_max_buf 0
#End of PETSc Option Table entries
Compiled without FORTRAN kernels
Compiled with full precision matrices (default)
sizeof(short) 2 sizeof(int) 4 sizeof(long) 8 sizeof(void*) 8 sizeof(PetscScalar) 8 sizeof(PetscInt) 4
Configure options: --known-mpi-int64_t=0 --known-bits-per-byte=8 --known-sdot-returns-double=0 --known-snrm2-returns-double=0 --known-level1-dcache-assoc=0 --known-level1-dcache-linesize=32 --known-level1-dcache-size=32768 --known-memcmp-ok=1 --known-mpi-c-double-complex=1 --known-mpi-long-double=1 --known-mpi-shared-libraries=0 --known-sizeof-MPI_Comm=4 --known-sizeof-MPI_Fint=4 --known-sizeof-char=1 --known-sizeof-double=8 --known-sizeof-float=4 --known-sizeof-int=4 --known-sizeof-long-long=8 --known-sizeof-long=8 --known-sizeof-short=2 --known-sizeof-size_t=8 --known-sizeof-void-p=8 --with-ar=ar --with-batch=1 --with-cc=cc --with-clib-autodetect=0 --with-cxx=CC --with-cxxlib-autodetect=0 --with-debugging=0 --with-dependencies=0 --with-fc=ftn --with-fortran-datatypes=0 --with-fortran-interfaces=0 --with-fortranlib-autodetect=0 --with-ranlib=ranlib --with-scalar-type=real --with-shared-ld=ar --with-etags=0 --with-dependencies=0 --with-ssl=0 --with-dependencies=0 --with-mpi-dir=/opt/cray/mpt/7.2.5.1/gni/mpich2-intel/14.0 --with-blas-lapack-lib="-L/opt/cray/libsci/13.2.0/INTEL/14.0/x86_64/lib -lsci_intel_mp" --with-superlu=1 --with-superlu-include=/opt/cray/tpsl/1.5.2/INTEL/14.0/sandybridge/include --with-superlu-lib="-L/opt/cray/tpsl/1.5.2/INTEL/14.0/sandybridge/lib -lsuperlu" --with-superlu_dist=1 --with-superlu_dist-include=/opt/cray/tpsl/1.5.2/INTEL/14.0/sandybridge/include --with-superlu_dist-lib="-L/opt/cray/tpsl/1.5.2/INTEL/14.0/sandybridge/lib -lsuperlu_dist" --with-parmetis=1 --with-parmetis-include=/opt/cray/tpsl/1.5.2/INTEL/14.0/sandybridge/include --with-parmetis-lib="-L/opt/cray/tpsl/1.5.2/INTEL/14.0/sandybridge/lib -lparmetis" --with-metis=1 --with-metis-include=/opt/cray/tpsl/1.5.2/INTEL/14.0/sandybridge/include --with-metis-lib="-L/opt/cray/tpsl/1.5.2/INTEL/14.0/sandybridge/lib -lmetis" --with-ptscotch=1 --with-ptscotch-include=/opt/cray/tpsl/1.5.2/INTEL/14.0/sandybridge/include --with-ptscotch-lib="-L/opt/cray/tpsl/1.5.2/INTEL/14.0/sandybridge/lib -lptscotch -lscotch -lptscotcherr -lscotcherr" --with-scalapack=1 --with-scalapack-include=/opt/cray/libsci/13.2.0/INTEL/14.0/x86_64/include --with-scalapack-lib="-L/opt/cray/libsci/13.2.0/INTEL/14.0/x86_64/lib -lsci_intel_mpi_mp -lsci_intel_mp" --with-mumps=1 --with-mumps-include=/opt/cray/tpsl/1.5.2/INTEL/14.0/sandybridge/include --with-mumps-lib="-L/opt/cray/tpsl/1.5.2/INTEL/14.0/sandybridge/lib -lcmumps -ldmumps -lesmumps -lsmumps -lzmumps -lmumps_common -lptesmumps -lpord" --CFLAGS="-xavx -openmp -O3 " --CXXFLAGS="-xavx -openmp -O3  " --FFLAGS="-xavx -openmp -O3  " --LIBS=-lstdc++ --CXX_LINKER_FLAGS= --PETSC_ARCH=sandybridge --prefix=/opt/cray/pe/petsc/3.6.1.0/real/INTEL/14.0/sandybridge --with-hypre=1 --with-hypre-include=/opt/cray/tpsl/1.5.2/INTEL/14.0/sandybridge/include --with-hypre-lib="-L/opt/cray/tpsl/1.5.2/INTEL/14.0/sandybridge/lib -lHYPRE" --with-sundials=1 --with-sundials-include=/opt/cray/tpsl/1.5.2/INTEL/14.0/sandybridge/include --with-sundials-lib="-L/opt/cray/tpsl/1.5.2/INTEL/14.0/sandybridge/lib -lsundials_cvode -lsundials_cvodes -lsundials_ida -lsundials_idas -lsundials_kinsol -lsundials_nvecparallel -lsundials_nvecserial"
