srun: Warning: can't run 2 processes on 171 nodes, setting nnodes to 2
Finite Element FAS Performance Sampler on process grid [1 1 2] = 2
Max memory per MPI rank: 0.000008 GB
Small Test G[   32   32   64]
Q1 G[   32   32   64] P[  1  1  2] SR[0]  2.275e-01 s    3.982633 GF    0.311151 MEq/s
Large Test G[   32   32   64]
Q1  0 e_max 1.00e+00( 0.0) e_L2 1.00e+00( 0.0) r_2 0.00e+00( 0.0) G[    1    1    2] L[   1   1   2] P[  1  1  1]
Q1  1 e_max 9.99e-01( 0.0) e_L2 9.99e-01( 0.0) r_2 3.52e-03( 0.0) G[    2    2    4] L[   2   2   4] P[  1  1  1]
Q1  2 e_max 4.20e-01( 1.2) e_L2 4.56e-01( 1.1) r_2 8.24e-03(-1.2) G[    4    4    8] L[   4   4   8] P[  1  1  1]
Q1  3 e_max 1.28e-01( 1.7) e_L2 1.19e-01( 1.9) r_2 8.69e-03(-0.1) G[    8    8   16] L[   8   8   8] P[  1  1  2]
Q1  4 e_max 3.61e-02( 1.8) e_L2 3.00e-02( 2.0) r_2 2.14e-02(-1.3) G[   16   16   32] L[  16  16  16] P[  1  1  2]
Q1  5 e_max 9.62e-03( 1.9) e_L2 7.01e-03( 2.1) r_2 5.16e-02(-1.3) G[   32   32   64] L[  32  32  32] P[  1  1  2]
Q1 G[   32   32   64] P[  1  1  2] SR[0]  3.090e-01 s    3.818463 GF    0.229107 MEq/s
Max memory per MPI rank: 0.000017 GB
Starting performance sampling
Q1 G[   32   32   64] P[  1  1  2] SR[0]  2.251e-01 s    4.023650 GF    0.314356 MEq/s
Q1 G[   32   32   64] P[  1  1  2] SR[0]  2.241e-01 s    4.042174 GF    0.315803 MEq/s
Q1 G[   32   32   64] P[  1  1  2] SR[0]  2.243e-01 s    4.038767 GF    0.315537 MEq/s
Q1 G[   32   32   64] P[  1  1  2] SR[0]  2.241e-01 s    4.042088 GF    0.315796 MEq/s
Q1 G[   32   32   64] P[  1  1  2] SR[0]  2.241e-01 s    4.043077 GF    0.315873 MEq/s
Q1 G[   32   32   64] P[  1  1  2] SR[0]  2.238e-01 s    4.047823 GF    0.316244 MEq/s
Q1 G[   32   32   64] P[  1  1  2] SR[0]  2.235e-01 s    4.054439 GF    0.316761 MEq/s
Q1 G[   32   32   64] P[  1  1  2] SR[0]  2.251e-01 s    4.025863 GF    0.314528 MEq/s
************************************************************************************************************************
***             WIDEN YOUR WINDOW TO 120 CHARACTERS.  Use 'enscript -r -fCourier9' to print this document            ***
************************************************************************************************************************

---------------------------------------------- PETSc Performance Summary: ----------------------------------------------

/global/u1/s/shenneki/hpgmg-fe-sr/./build/bin/hpgmg-fe on a sandybridge named nid00009 with 2 processors, by shenneki Fri Apr  8 18:33:57 2016
Using Petsc Release Version 3.6.1, Jul, 22, 2015 

                         Max       Max/Min        Avg      Total 
Time (sec):           2.794e+00      1.00000   2.794e+00
Objects:              5.680e+02      2.16794   4.150e+02
Flops:                5.754e+09      1.01319   5.716e+09  1.143e+10
Flops/sec:            2.059e+09      1.01319   2.046e+09  4.092e+09
MPI Messages:         1.102e+03      1.72592   8.702e+02  1.740e+03
MPI Message Lengths:  4.043e+06      1.00482   4.635e+03  8.067e+06
MPI Reductions:       1.840e+02      1.00000

Flop counting convention: 1 flop = 1 real number operation of type (multiply/divide/add/subtract)
                            e.g., VecAXPY() for real vectors of length N --> 2N flops
                            and VecAXPY() for complex vectors of length N --> 8N flops

Summary of Stages:   ----- Time ------  ----- Flops -----  --- Messages ---  -- Message Lengths --  -- Reductions --
                        Avg     %Total     Avg     %Total   counts   %Total     Avg         %Total   counts   %Total 
 0:      Main Stage: 2.7941e+00 100.0%  1.1432e+10 100.0%  1.740e+03 100.0%  4.635e+03      100.0%  1.830e+02  99.5% 

------------------------------------------------------------------------------------------------------------------------
See the 'Profiling' chapter of the users' manual for details on interpreting output.
Phase summary info:
   Count: number of times phase was executed
   Time and Flops: Max - maximum over all processors
                   Ratio - ratio of maximum to minimum over all processors
   Mess: number of messages sent
   Avg. len: average message length (bytes)
   Reduct: number of global reductions
   Global: entire computation
   Stage: stages of a computation. Set stages with PetscLogStagePush() and PetscLogStagePop().
      %T - percent time in this phase         %F - percent flops in this phase
      %M - percent messages in this phase     %L - percent message lengths in this phase
      %R - percent reductions in this phase
   Total Mflop/s: 10e-6 * (sum of flops over all processors)/(max time over all processors)
------------------------------------------------------------------------------------------------------------------------
Event                Count      Time (sec)     Flops                             --- Global ---  --- Stage ---   Total
                   Max Ratio  Max     Ratio   Max  Ratio  Mess   Avg len Reduct  %T %F %M %L %R  %T %F %M %L %R Mflop/s
------------------------------------------------------------------------------------------------------------------------

--- Event Stage 0: Main Stage

                      33 0.0 2.2532e+00 0.0 4.57e+09 0.0 5.1e+02 4.9e+03 1.2e+01 40 40 29 31  7  40 40 29 31  7  2028
OpRestrictState      150 2.5 1.5442e-03 1.5 0.00e+00 0.0 2.5e+02 4.8e+03 0.0e+00  0  0 14 15  0   0  0 14 15  0     0
OpRestrictResid      200 2.2 2.1018e-02 1.0 3.18e+06 1.0 3.8e+02 5.6e+03 0.0e+00  1  0 22 27  0   1  0 22 27  0   300
OpInterpolate        200 2.2 6.2806e-02 3.2 3.18e+06 1.0 3.4e+02 6.0e+03 0.0e+00  1  0 20 25  0   1  0 20 25  0   101
OpForcing              3 1.0 1.1367e-01 1.0 1.57e+08 1.0 7.5e+00 5.2e+03 0.0e+00  4  3  0  0  0   4  3  0  0  0  2769
OpIntegNorms           6 2.0 4.5870e-02 1.0 5.97e+07 1.0 3.0e+00 3.9e+03 6.0e+00  2  1  0  0  3   2  1  0  0  3  2600
OpGetDiagonal         18 2.0 3.0387e-01 1.0 8.93e+08 1.0 3.3e+01 2.1e+03 0.0e+00 11 16  2  1  0  11 16  2  1  0  5869
SFSetGraph            96 1.8 2.1169e-03 1.2 0.00e+00 0.0 0.0e+00 0.0e+00 0.0e+00  0  0  0  0  0   0  0  0  0  0     0
SFBcastBegin        1187 2.7 2.4800e-03 1.4 0.00e+00 0.0 6.9e+02 4.2e+03 0.0e+00  0  0 40 36  0   0  0 40 36  0     0
SFBcastEnd          1187 2.7 4.5665e-02 8.7 0.00e+00 0.0 0.0e+00 0.0e+00 0.0e+00  1  0  0  0  0   1  0  0  0  0     0
SFReduceBegin       1352 2.7 8.3339e-03 2.0 0.00e+00 0.0 1.0e+03 4.9e+03 0.0e+00  0  0 60 64  0   0  0 60 64  0     0
SFReduceEnd         1352 2.7 1.1265e-02 1.9 0.00e+00 0.0 0.0e+00 0.0e+00 0.0e+00  0  0  0  0  0   0  0  0  0  0     0
VecDot                60 0.0 2.8849e-05 0.0 1.38e+03 0.0 0.0e+00 0.0e+00 0.0e+00  0  0  0  0  0   0  0  0  0  0    48
VecTDot               60 0.0 7.8917e-05 0.0 1.38e+03 0.0 0.0e+00 0.0e+00 0.0e+00  0  0  0  0  0   0  0  0  0  0    17
VecNorm               12 2.0 1.4472e-04 1.4 1.66e+05 1.0 0.0e+00 0.0e+00 6.0e+00  0  0  0  0  3   0  0  0  0  3  2266
VecCopy              300 3.3 3.4451e-04 1.2 0.00e+00 0.0 0.0e+00 0.0e+00 0.0e+00  0  0  0  0  0   0  0  0  0  0     0
VecSet              2644 2.8 5.2121e-03 1.1 0.00e+00 0.0 0.0e+00 0.0e+00 0.0e+00  0  0  0  0  0   0  0  0  0  0     0
VecAXPY              300 3.3 1.0767e-03 1.7 1.09e+06 1.0 0.0e+00 0.0e+00 0.0e+00  0  0  0  0  0   0  0  0  0  0  2012
VecAYPX             1116 2.6 5.2187e-03 1.0 4.36e+06 1.0 0.0e+00 0.0e+00 0.0e+00  0  0  0  0  0   0  0  0  0  0  1656
VecAXPBYCZ           300 2.5 2.6383e-03 1.1 4.80e+06 1.0 0.0e+00 0.0e+00 0.0e+00  0  0  0  0  0   0  0  0  0  0  3605
VecPointwiseMult     738 3.0 3.5844e-03 1.0 2.04e+06 1.0 0.0e+00 0.0e+00 0.0e+00  0  0  0  0  0   0  0  0  0  0  1130
MatMult              660 2.8 1.7019e+00 1.0 3.55e+09 1.0 4.8e+02 2.5e+03 0.0e+00 60 62 28 15  0  60 62 28 15  0  4138
KSPSetUp              18 2.0 1.7521e-03 1.1 0.00e+00 0.0 0.0e+00 0.0e+00 0.0e+00  0  0  0  0  0   0  0  0  0  0     0
KSPSolve             360 3.0 1.7162e+00 1.0 3.56e+09 1.0 4.8e+02 2.5e+03 0.0e+00 61 62 28 15  0  61 62 28 15  0  4116
PCSetUp               18 2.0 4.0531e-06 1.1 0.00e+00 0.0 0.0e+00 0.0e+00 0.0e+00  0  0  0  0  0   0  0  0  0  0     0
PCApply              738 3.0 3.0895e-01 1.0 8.96e+08 1.0 3.3e+01 2.1e+03 1.8e+01 11 16  2  1 10  11 16  2  1 10  5786
------------------------------------------------------------------------------------------------------------------------

Memory usage is given in bytes:

Object Type          Creations   Destructions     Memory  Descendants' Mem.
Reports information only for process 0.

--- Event Stage 0: Main Stage

Star Forest Bipartite Graph   168            168       136080     0
              Vector   273            273     16116864     0
              Matrix    18             18        43920     0
    Distributed Mesh    36             36       161568     0
     Discrete System    36             36        30240     0
       Krylov Solver    18             18        22224     0
      Preconditioner    18             18        15120     0
              Viewer     1              0            0     0
========================================================================================================================
Average time to get PetscTime(): 1.19209e-07
Average time for MPI_Barrier(): 2.19345e-06
Average time for zero size MPI_Send(): 6.07967e-06
#PETSc Option Table entries:
-local 32768,32769
-log_summary
-op_type poisson1
-repeat 8
-smooth 3,1
-sr_levels 0
-sr_max_buf 0
#End of PETSc Option Table entries
Compiled without FORTRAN kernels
Compiled with full precision matrices (default)
sizeof(short) 2 sizeof(int) 4 sizeof(long) 8 sizeof(void*) 8 sizeof(PetscScalar) 8 sizeof(PetscInt) 4
Configure options: --known-mpi-int64_t=0 --known-bits-per-byte=8 --known-sdot-returns-double=0 --known-snrm2-returns-double=0 --known-level1-dcache-assoc=0 --known-level1-dcache-linesize=32 --known-level1-dcache-size=32768 --known-memcmp-ok=1 --known-mpi-c-double-complex=1 --known-mpi-long-double=1 --known-mpi-shared-libraries=0 --known-sizeof-MPI_Comm=4 --known-sizeof-MPI_Fint=4 --known-sizeof-char=1 --known-sizeof-double=8 --known-sizeof-float=4 --known-sizeof-int=4 --known-sizeof-long-long=8 --known-sizeof-long=8 --known-sizeof-short=2 --known-sizeof-size_t=8 --known-sizeof-void-p=8 --with-ar=ar --with-batch=1 --with-cc=cc --with-clib-autodetect=0 --with-cxx=CC --with-cxxlib-autodetect=0 --with-debugging=0 --with-dependencies=0 --with-fc=ftn --with-fortran-datatypes=0 --with-fortran-interfaces=0 --with-fortranlib-autodetect=0 --with-ranlib=ranlib --with-scalar-type=real --with-shared-ld=ar --with-etags=0 --with-dependencies=0 --with-ssl=0 --with-dependencies=0 --with-mpi-dir=/opt/cray/mpt/7.2.5.1/gni/mpich2-intel/14.0 --with-blas-lapack-lib="-L/opt/cray/libsci/13.2.0/INTEL/14.0/x86_64/lib -lsci_intel_mp" --with-superlu=1 --with-superlu-include=/opt/cray/tpsl/1.5.2/INTEL/14.0/sandybridge/include --with-superlu-lib="-L/opt/cray/tpsl/1.5.2/INTEL/14.0/sandybridge/lib -lsuperlu" --with-superlu_dist=1 --with-superlu_dist-include=/opt/cray/tpsl/1.5.2/INTEL/14.0/sandybridge/include --with-superlu_dist-lib="-L/opt/cray/tpsl/1.5.2/INTEL/14.0/sandybridge/lib -lsuperlu_dist" --with-parmetis=1 --with-parmetis-include=/opt/cray/tpsl/1.5.2/INTEL/14.0/sandybridge/include --with-parmetis-lib="-L/opt/cray/tpsl/1.5.2/INTEL/14.0/sandybridge/lib -lparmetis" --with-metis=1 --with-metis-include=/opt/cray/tpsl/1.5.2/INTEL/14.0/sandybridge/include --with-metis-lib="-L/opt/cray/tpsl/1.5.2/INTEL/14.0/sandybridge/lib -lmetis" --with-ptscotch=1 --with-ptscotch-include=/opt/cray/tpsl/1.5.2/INTEL/14.0/sandybridge/include --with-ptscotch-lib="-L/opt/cray/tpsl/1.5.2/INTEL/14.0/sandybridge/lib -lptscotch -lscotch -lptscotcherr -lscotcherr" --with-scalapack=1 --with-scalapack-include=/opt/cray/libsci/13.2.0/INTEL/14.0/x86_64/include --with-scalapack-lib="-L/opt/cray/libsci/13.2.0/INTEL/14.0/x86_64/lib -lsci_intel_mpi_mp -lsci_intel_mp" --with-mumps=1 --with-mumps-include=/opt/cray/tpsl/1.5.2/INTEL/14.0/sandybridge/include --with-mumps-lib="-L/opt/cray/tpsl/1.5.2/INTEL/14.0/sandybridge/lib -lcmumps -ldmumps -lesmumps -lsmumps -lzmumps -lmumps_common -lptesmumps -lpord" --CFLAGS="-xavx -openmp -O3 " --CXXFLAGS="-xavx -openmp -O3  " --FFLAGS="-xavx -openmp -O3  " --LIBS=-lstdc++ --CXX_LINKER_FLAGS= --PETSC_ARCH=sandybridge --prefix=/opt/cray/pe/petsc/3.6.1.0/real/INTEL/14.0/sandybridge --with-hypre=1 --with-hypre-include=/opt/cray/tpsl/1.5.2/INTEL/14.0/sandybridge/include --with-hypre-lib="-L/opt/cray/tpsl/1.5.2/INTEL/14.0/sandybridge/lib -lHYPRE" --with-sundials=1 --with-sundials-include=/opt/cray/tpsl/1.5.2/INTEL/14.0/sandybridge/include --with-sundials-lib="-L/opt/cray/tpsl/1.5.2/INTEL/14.0/sandybridge/lib -lsundials_cvode -lsundials_cvodes -lsundials_ida -lsundials_idas -lsundials_kinsol -lsundials_nvecparallel -lsundials_nvecserial"
