Finite Element FAS Performance Sampler on process grid [8 8 8] = 512
Max memory per MPI rank: 0.000009 GB
Small Test G[  256  256  256]
Q1 G[  256  256  256] P[  8  8  8] SR[0]  2.548e-01 s  905.212587 GF   66.260155 MEq/s
Large Test G[  256  256  256]
Q1  0 e_max 1.00e+00( 0.0) e_L2 1.00e+00( 0.0) r_2 0.00e+00( 0.0) G[    1    1    1] L[   1   1   1] P[  1  1  1]
Q1  1 e_max 1.00e+00( 0.0) e_L2 1.00e+00( 0.0) r_2 3.52e-03( 0.0) G[    2    2    2] L[   2   2   2] P[  1  1  1]
Q1  2 e_max 4.48e-01( 1.2) e_L2 5.28e-01( 0.9) r_2 5.56e-03(-0.7) G[    4    4    4] L[   4   4   4] P[  1  1  1]
Q1  3 e_max 1.34e-01( 1.7) e_L2 1.38e-01( 1.9) r_2 6.26e-03(-0.2) G[    8    8    8] L[   4   4   4] P[  2  2  2]
Q1  4 e_max 3.60e-02( 1.9) e_L2 3.45e-02( 2.0) r_2 1.55e-02(-1.3) G[   16   16   16] L[   4   4   4] P[  4  4  4]
Q1  5 e_max 9.53e-03( 1.9) e_L2 8.08e-03( 2.1) r_2 4.34e-02(-1.5) G[   32   32   32] L[   4   4   4] P[  8  8  8]
Q1  6 e_max 2.50e-03( 1.9) e_L2 1.82e-03( 2.1) r_2 6.65e-02(-0.6) G[   64   64   64] L[   8   8   8] P[  8  8  8]
Q1  7 e_max 6.36e-04( 2.0) e_L2 4.08e-04( 2.2) r_2 7.90e-02(-0.2) G[  128  128  128] L[  16  16  16] P[  8  8  8]
Q1  8 e_max 1.60e-04( 2.0) e_L2 9.31e-05( 2.1) r_2 8.54e-02(-0.1) G[  256  256  256] L[  32  32  32] P[  8  8  8]
Q1 G[  256  256  256] P[  8  8  8] SR[0]  3.405e-01 s  886.867331 GF   49.854737 MEq/s
Max memory per MPI rank: 0.000019 GB
Starting performance sampling
Q1 G[  256  256  256] P[  8  8  8] SR[0]  2.498e-01 s  926.706642 GF   67.833487 MEq/s
Q1 G[  256  256  256] P[  8  8  8] SR[0]  2.456e-01 s  940.993060 GF   68.879230 MEq/s
Q1 G[  256  256  256] P[  8  8  8] SR[0]  2.450e-01 s  943.239729 GF   69.043683 MEq/s
Q1 G[  256  256  256] P[  8  8  8] SR[0]  2.448e-01 s  944.630317 GF   69.145472 MEq/s
Q1 G[  256  256  256] P[  8  8  8] SR[0]  2.451e-01 s  942.921515 GF   69.020390 MEq/s
Q1 G[  256  256  256] P[  8  8  8] SR[0]  2.475e-01 s  933.173013 GF   68.306815 MEq/s
Q1 G[  256  256  256] P[  8  8  8] SR[0]  2.477e-01 s  934.293477 GF   68.388831 MEq/s
Q1 G[  256  256  256] P[  8  8  8] SR[0]  2.460e-01 s  940.306236 GF   68.828956 MEq/s
************************************************************************************************************************
***             WIDEN YOUR WINDOW TO 120 CHARACTERS.  Use 'enscript -r -fCourier9' to print this document            ***
************************************************************************************************************************

---------------------------------------------- PETSc Performance Summary: ----------------------------------------------

/global/u1/s/shenneki/hpgmg-fe-sr/./build/bin/hpgmg-fe on a sandybridge named nid00008 with 512 processors, by shenneki Fri Apr  8 18:35:04 2016
Using Petsc Release Version 3.6.1, Jul, 22, 2015 

                         Max       Max/Min        Avg      Total 
Time (sec):           3.440e+00      1.00007   3.440e+00
Objects:              8.590e+02      2.46132   3.619e+02
Flops:                5.863e+09      1.02692   5.715e+09  2.926e+12
Flops/sec:            1.704e+09      1.02696   1.661e+09  8.506e+11
MPI Messages:         2.055e+04      6.60273   8.730e+03  4.470e+06
MPI Message Lengths:  9.060e+06      1.63277   8.735e+02  3.905e+09
MPI Reductions:       3.400e+02      1.44068

Flop counting convention: 1 flop = 1 real number operation of type (multiply/divide/add/subtract)
                            e.g., VecAXPY() for real vectors of length N --> 2N flops
                            and VecAXPY() for complex vectors of length N --> 8N flops

Summary of Stages:   ----- Time ------  ----- Flops -----  --- Messages ---  -- Message Lengths --  -- Reductions --
                        Avg     %Total     Avg     %Total   counts   %Total     Avg         %Total   counts   %Total 
 0:      Main Stage: 3.4400e+00 100.0%  2.9262e+12 100.0%  4.470e+06 100.0%  8.735e+02      100.0%  2.423e+02  71.3% 

------------------------------------------------------------------------------------------------------------------------
See the 'Profiling' chapter of the users' manual for details on interpreting output.
Phase summary info:
   Count: number of times phase was executed
   Time and Flops: Max - maximum over all processors
                   Ratio - ratio of maximum to minimum over all processors
   Mess: number of messages sent
   Avg. len: average message length (bytes)
   Reduct: number of global reductions
   Global: entire computation
   Stage: stages of a computation. Set stages with PetscLogStagePush() and PetscLogStagePop().
      %T - percent time in this phase         %F - percent flops in this phase
      %M - percent messages in this phase     %L - percent message lengths in this phase
      %R - percent reductions in this phase
   Total Mflop/s: 10e-6 * (sum of flops over all processors)/(max time over all processors)
------------------------------------------------------------------------------------------------------------------------
Event                Count      Time (sec)     Flops                             --- Global ---  --- Stage ---   Total
                   Max Ratio  Max     Ratio   Max  Ratio  Mess   Avg len Reduct  %T %F %M %L %R  %T %F %M %L %R Mflop/s
------------------------------------------------------------------------------------------------------------------------

--- Event Stage 0: Main Stage

                      66 0.0 2.4870e+00 0.0 4.68e+09 0.0 4.0e+06 7.6e+02 3.8e+01 71 80 89 77 11  71 80 89 77 16 945797
OpRestrictState      360 3.6 1.1961e-02 6.0 0.00e+00 0.0 6.5e+04 4.0e+03 0.0e+00  0  0  1  7  0   0  0  1  7  0     0
OpRestrictResid      440 3.1 2.8971e-02 1.2 3.26e+06 1.0 4.3e+05 1.3e+03 0.0e+00  1  0 10 14  0   1  0 10 14  0 55829
OpInterpolate        440 3.1 1.5377e-01 5.8 3.26e+06 1.0 3.8e+05 1.4e+03 0.0e+00  4  0  8 13  0   4  0  8 13  0 10518
OpForcing              3 1.0 1.4977e-01 1.2 1.57e+08 1.0 2.1e+04 2.4e+03 0.0e+00  4  3  0  1  0   4  3  0  1  0 538022
OpIntegNorms           9 2.2 4.9169e-02 1.0 5.99e+07 1.0 1.2e+04 1.3e+03 8.3e+00  1  1  0  0  2   1  1  0  0  3 620819
OpGetDiagonal         27 2.2 3.1863e-01 1.0 8.96e+08 1.0 1.4e+05 6.6e+02 0.0e+00  9 16  3  2  0   9 16  3  2  0 1432853
SFSetGraph           150 2.1 3.1002e-03 1.8 0.00e+00 0.0 0.0e+00 0.0e+00 0.0e+00  0  0  0  0  0   0  0  0  0  0     0
SFBcastBegin        2732 3.8 2.0243e-02 6.5 0.00e+00 0.0 2.2e+06 7.8e+02 0.0e+00  0  0 48 43  0   0  0 48 43  0     0
SFBcastEnd          2732 3.8 1.8621e-01 2.7 0.00e+00 0.0 0.0e+00 0.0e+00 0.0e+00  4  0  0  0  0   4  0  0  0  0     0
SFReduceBegin       3113 3.7 6.5903e-02 2.9 0.00e+00 0.0 2.3e+06 9.6e+02 0.0e+00  1  0 52 57  0   1  0 52 57  0     0
SFReduceEnd         3113 3.7 1.5019e-0112.8 0.00e+00 0.0 0.0e+00 0.0e+00 0.0e+00  2  0  0  0  0   2  0  0  0  0     0
VecDot                90 0.0 4.9829e-05 0.0 1.35e+03 0.0 0.0e+00 0.0e+00 0.0e+00  0  0  0  0  0   0  0  0  0  0    27
VecTDot               90 0.0 1.1420e-04 0.0 1.35e+03 0.0 0.0e+00 0.0e+00 0.0e+00  0  0  0  0  0   0  0  0  0  0    12
VecNorm               18 2.2 2.7130e-03 5.2 1.67e+05 1.1 0.0e+00 0.0e+00 8.3e+00  0  0  0  0  2   0  0  0  0  3 28659
VecCopy              720 4.5 4.6921e-04 1.8 0.00e+00 0.0 0.0e+00 0.0e+00 0.0e+00  0  0  0  0  0   0  0  0  0  0     0
VecSet              5824 3.8 5.9428e-03 1.3 0.00e+00 0.0 0.0e+00 0.0e+00 0.0e+00  0  0  0  0  0   0  0  0  0  0     0
VecAXPY              720 4.5 2.1086e-03 2.7 1.10e+06 1.1 0.0e+00 0.0e+00 0.0e+00  0  0  0  0  0   0  0  0  0  0 238016
VecAYPX             2619 3.7 5.3370e-03 1.2 4.40e+06 1.1 0.0e+00 0.0e+00 0.0e+00  0  0  0  0  0   0  0  0  0  0 379116
VecAXPBYCZ           720 3.6 2.6524e-03 1.3 4.84e+06 1.1 0.0e+00 0.0e+00 0.0e+00  0  0  0  0  0   0  0  0  0  0 839450
VecPointwiseMult    1647 4.0 3.9096e-03 1.3 2.06e+06 1.1 0.0e+00 0.0e+00 0.0e+00  0  0  0  0  0   0  0  0  0  0 242721
MatMult             1530 3.8 1.8337e+00 1.0 3.62e+09 1.0 2.4e+06 6.9e+02 0.0e+00 52 62 54 42  0  52 62 54 42  0 983246
KSPSetUp              27 2.2 2.0397e-03 1.9 0.00e+00 0.0 0.0e+00 0.0e+00 0.0e+00  0  0  0  0  0   0  0  0  0  0     0
KSPSolve             810 4.0 1.8508e+00 1.0 3.63e+09 1.0 2.4e+06 6.9e+02 0.0e+00 52 62 54 42  0  52 62 54 42  0 976825
PCSetUp               27 2.2 1.6451e-05 0.0 0.00e+00 0.0 0.0e+00 0.0e+00 0.0e+00  0  0  0  0  0   0  0  0  0  0     0
PCApply             1647 4.0 3.2523e-01 1.0 8.98e+08 1.0 1.4e+05 6.6e+02 2.5e+01  9 16  3  2  7   9 16  3  2 10 1406709
------------------------------------------------------------------------------------------------------------------------

Memory usage is given in bytes:

Object Type          Creations   Destructions     Memory  Descendants' Mem.
Reports information only for process 0.

--- Event Stage 0: Main Stage

Star Forest Bipartite Graph   258            258       209160     0
              Vector   411            411     15656808     0
              Matrix    27             27        65880     0
    Distributed Mesh    54             54       242352     0
     Discrete System    54             54        45360     0
       Krylov Solver    27             27        33384     0
      Preconditioner    27             27        22680     0
              Viewer     1              0            0     0
========================================================================================================================
Average time to get PetscTime(): 0
Average time for MPI_Barrier(): 4.16279e-05
Average time for zero size MPI_Send(): 3.96091e-06
#PETSc Option Table entries:
-local 32768,32769
-log_summary
-op_type poisson1
-repeat 8
-smooth 3,1
-sr_levels 0
-sr_max_buf 0
#End of PETSc Option Table entries
Compiled without FORTRAN kernels
Compiled with full precision matrices (default)
sizeof(short) 2 sizeof(int) 4 sizeof(long) 8 sizeof(void*) 8 sizeof(PetscScalar) 8 sizeof(PetscInt) 4
Configure options: --known-mpi-int64_t=0 --known-bits-per-byte=8 --known-sdot-returns-double=0 --known-snrm2-returns-double=0 --known-level1-dcache-assoc=0 --known-level1-dcache-linesize=32 --known-level1-dcache-size=32768 --known-memcmp-ok=1 --known-mpi-c-double-complex=1 --known-mpi-long-double=1 --known-mpi-shared-libraries=0 --known-sizeof-MPI_Comm=4 --known-sizeof-MPI_Fint=4 --known-sizeof-char=1 --known-sizeof-double=8 --known-sizeof-float=4 --known-sizeof-int=4 --known-sizeof-long-long=8 --known-sizeof-long=8 --known-sizeof-short=2 --known-sizeof-size_t=8 --known-sizeof-void-p=8 --with-ar=ar --with-batch=1 --with-cc=cc --with-clib-autodetect=0 --with-cxx=CC --with-cxxlib-autodetect=0 --with-debugging=0 --with-dependencies=0 --with-fc=ftn --with-fortran-datatypes=0 --with-fortran-interfaces=0 --with-fortranlib-autodetect=0 --with-ranlib=ranlib --with-scalar-type=real --with-shared-ld=ar --with-etags=0 --with-dependencies=0 --with-ssl=0 --with-dependencies=0 --with-mpi-dir=/opt/cray/mpt/7.2.5.1/gni/mpich2-intel/14.0 --with-blas-lapack-lib="-L/opt/cray/libsci/13.2.0/INTEL/14.0/x86_64/lib -lsci_intel_mp" --with-superlu=1 --with-superlu-include=/opt/cray/tpsl/1.5.2/INTEL/14.0/sandybridge/include --with-superlu-lib="-L/opt/cray/tpsl/1.5.2/INTEL/14.0/sandybridge/lib -lsuperlu" --with-superlu_dist=1 --with-superlu_dist-include=/opt/cray/tpsl/1.5.2/INTEL/14.0/sandybridge/include --with-superlu_dist-lib="-L/opt/cray/tpsl/1.5.2/INTEL/14.0/sandybridge/lib -lsuperlu_dist" --with-parmetis=1 --with-parmetis-include=/opt/cray/tpsl/1.5.2/INTEL/14.0/sandybridge/include --with-parmetis-lib="-L/opt/cray/tpsl/1.5.2/INTEL/14.0/sandybridge/lib -lparmetis" --with-metis=1 --with-metis-include=/opt/cray/tpsl/1.5.2/INTEL/14.0/sandybridge/include --with-metis-lib="-L/opt/cray/tpsl/1.5.2/INTEL/14.0/sandybridge/lib -lmetis" --with-ptscotch=1 --with-ptscotch-include=/opt/cray/tpsl/1.5.2/INTEL/14.0/sandybridge/include --with-ptscotch-lib="-L/opt/cray/tpsl/1.5.2/INTEL/14.0/sandybridge/lib -lptscotch -lscotch -lptscotcherr -lscotcherr" --with-scalapack=1 --with-scalapack-include=/opt/cray/libsci/13.2.0/INTEL/14.0/x86_64/include --with-scalapack-lib="-L/opt/cray/libsci/13.2.0/INTEL/14.0/x86_64/lib -lsci_intel_mpi_mp -lsci_intel_mp" --with-mumps=1 --with-mumps-include=/opt/cray/tpsl/1.5.2/INTEL/14.0/sandybridge/include --with-mumps-lib="-L/opt/cray/tpsl/1.5.2/INTEL/14.0/sandybridge/lib -lcmumps -ldmumps -lesmumps -lsmumps -lzmumps -lmumps_common -lptesmumps -lpord" --CFLAGS="-xavx -openmp -O3 " --CXXFLAGS="-xavx -openmp -O3  " --FFLAGS="-xavx -openmp -O3  " --LIBS=-lstdc++ --CXX_LINKER_FLAGS= --PETSC_ARCH=sandybridge --prefix=/opt/cray/pe/petsc/3.6.1.0/real/INTEL/14.0/sandybridge --with-hypre=1 --with-hypre-include=/opt/cray/tpsl/1.5.2/INTEL/14.0/sandybridge/include --with-hypre-lib="-L/opt/cray/tpsl/1.5.2/INTEL/14.0/sandybridge/lib -lHYPRE" --with-sundials=1 --with-sundials-include=/opt/cray/tpsl/1.5.2/INTEL/14.0/sandybridge/include --with-sundials-lib="-L/opt/cray/tpsl/1.5.2/INTEL/14.0/sandybridge/lib -lsundials_cvode -lsundials_cvodes -lsundials_ida -lsundials_idas -lsundials_kinsol -lsundials_nvecparallel -lsundials_nvecserial"
