srun: Warning: can't run 16 processes on 171 nodes, setting nnodes to 16
Finite Element FAS Performance Sampler on process grid [2 2 4] = 16
Max memory per MPI rank: 0.000009 GB
Small Test G[   64   64  128]
Q1 G[   64   64  128] P[  2  2  4] SR[0]  2.440e-01 s   29.446817 GF    2.214441 MEq/s
Large Test G[   64   64  128]
Q1  0 e_max 1.00e+00( 0.0) e_L2 1.00e+00( 0.0) r_2 0.00e+00( 0.0) G[    1    1    2] L[   1   1   2] P[  1  1  1]
Q1  1 e_max 9.99e-01( 0.0) e_L2 9.99e-01( 0.0) r_2 3.52e-03( 0.0) G[    2    2    4] L[   2   2   4] P[  1  1  1]
Q1  2 e_max 4.20e-01( 1.2) e_L2 4.56e-01( 1.1) r_2 8.24e-03(-1.2) G[    4    4    8] L[   4   4   4] P[  1  1  2]
Q1  3 e_max 1.28e-01( 1.7) e_L2 1.19e-01( 1.9) r_2 8.69e-03(-0.1) G[    8    8   16] L[   4   4   4] P[  2  2  4]
Q1  4 e_max 3.61e-02( 1.8) e_L2 3.00e-02( 2.0) r_2 2.14e-02(-1.3) G[   16   16   32] L[   8   8   8] P[  2  2  4]
Q1  5 e_max 9.62e-03( 1.9) e_L2 7.01e-03( 2.1) r_2 5.16e-02(-1.3) G[   32   32   64] L[  16  16  16] P[  2  2  4]
Q1  6 e_max 2.50e-03( 1.9) e_L2 1.57e-03( 2.2) r_2 7.43e-02(-0.5) G[   64   64  128] L[  32  32  32] P[  2  2  4]
Q1 G[   64   64  128] P[  2  2  4] SR[0]  3.210e-01 s   29.397721 GF    1.697812 MEq/s
Max memory per MPI rank: 0.000018 GB
Starting performance sampling
Q1 G[   64   64  128] P[  2  2  4] SR[0]  2.329e-01 s   31.122168 GF    2.340430 MEq/s
Q1 G[   64   64  128] P[  2  2  4] SR[0]  2.270e-01 s   31.902900 GF    2.399142 MEq/s
Q1 G[   64   64  128] P[  2  2  4] SR[0]  2.270e-01 s   31.904306 GF    2.399247 MEq/s
Q1 G[   64   64  128] P[  2  2  4] SR[0]  2.265e-01 s   31.967483 GF    2.403998 MEq/s
Q1 G[   64   64  128] P[  2  2  4] SR[0]  2.265e-01 s   31.979758 GF    2.404922 MEq/s
Q1 G[   64   64  128] P[  2  2  4] SR[0]  2.405e-01 s   30.080887 GF    2.262124 MEq/s
Q1 G[   64   64  128] P[  2  2  4] SR[0]  2.425e-01 s   29.814094 GF    2.242061 MEq/s
Q1 G[   64   64  128] P[  2  2  4] SR[0]  2.366e-01 s   30.280237 GF    2.277115 MEq/s
************************************************************************************************************************
***             WIDEN YOUR WINDOW TO 120 CHARACTERS.  Use 'enscript -r -fCourier9' to print this document            ***
************************************************************************************************************************

---------------------------------------------- PETSc Performance Summary: ----------------------------------------------

/global/u1/s/shenneki/hpgmg-fe-sr/./build/bin/hpgmg-fe on a sandybridge named nid00008 with 16 processors, by shenneki Fri Apr  8 18:34:20 2016
Using Petsc Release Version 3.6.1, Jul, 22, 2015 

                         Max       Max/Min        Avg      Total 
Time (sec):           2.948e+00      1.00003   2.948e+00
Objects:              6.650e+02      1.90544   3.742e+02
Flops:                5.763e+09      1.00935   5.716e+09  9.145e+10
Flops/sec:            1.955e+09      1.00935   1.939e+09  3.102e+10
MPI Messages:         7.092e+03      2.27855   4.603e+03  7.365e+04
MPI Message Lengths:  6.993e+06      1.26018   1.345e+03  9.903e+07
MPI Reductions:       2.880e+02      1.22034

Flop counting convention: 1 flop = 1 real number operation of type (multiply/divide/add/subtract)
                            e.g., VecAXPY() for real vectors of length N --> 2N flops
                            and VecAXPY() for complex vectors of length N --> 8N flops

Summary of Stages:   ----- Time ------  ----- Flops -----  --- Messages ---  -- Message Lengths --  -- Reductions --
                        Avg     %Total     Avg     %Total   counts   %Total     Avg         %Total   counts   %Total 
 0:      Main Stage: 2.9478e+00 100.0%  9.1452e+10 100.0%  7.365e+04 100.0%  1.345e+03      100.0%  2.415e+02  83.9% 

------------------------------------------------------------------------------------------------------------------------
See the 'Profiling' chapter of the users' manual for details on interpreting output.
Phase summary info:
   Count: number of times phase was executed
   Time and Flops: Max - maximum over all processors
                   Ratio - ratio of maximum to minimum over all processors
   Mess: number of messages sent
   Avg. len: average message length (bytes)
   Reduct: number of global reductions
   Global: entire computation
   Stage: stages of a computation. Set stages with PetscLogStagePush() and PetscLogStagePop().
      %T - percent time in this phase         %F - percent flops in this phase
      %M - percent messages in this phase     %L - percent message lengths in this phase
      %R - percent reductions in this phase
   Total Mflop/s: 10e-6 * (sum of flops over all processors)/(max time over all processors)
------------------------------------------------------------------------------------------------------------------------
Event                Count      Time (sec)     Flops                             --- Global ---  --- Stage ---   Total
                   Max Ratio  Max     Ratio   Max  Ratio  Mess   Avg len Reduct  %T %F %M %L %R  %T %F %M %L %R Mflop/s
------------------------------------------------------------------------------------------------------------------------

--- Event Stage 0: Main Stage

                      55 0.0 2.3518e+00 0.0 4.64e+09 0.0 5.9e+04 1.2e+03 3.4e+01 75 75 81 69 12  75 75 81 69 14 29345
OpRestrictState      210 2.1 7.2577e-03 3.0 0.00e+00 0.0 2.1e+03 4.2e+03 0.0e+00  0  0  3  9  0   0  0  3  9  0     0
OpRestrictResid      270 1.9 2.4563e-02 1.1 3.19e+06 1.0 7.8e+03 2.2e+03 0.0e+00  1  0 11 18  0   1  0 11 18  0  2058
OpInterpolate        270 1.9 6.2304e-02 2.6 3.19e+06 1.0 6.9e+03 2.4e+03 0.0e+00  2  0  9 16  0   2  0  9 16  0   811
OpForcing              3 1.0 1.2060e-01 1.0 1.57e+08 1.0 3.5e+02 3.1e+03 0.0e+00  4  3  0  1  0   4  3  0  1  0 20881
OpIntegNorms           7 1.8 4.6629e-02 1.0 5.97e+07 1.0 1.9e+02 1.7e+03 8.2e+00  2  1  0  0  3   2  1  0  0  3 20457
OpGetDiagonal         21 1.8 3.1258e-01 1.0 8.93e+08 1.0 2.3e+03 8.8e+02 0.0e+00 11 16  3  2  0  11 16  3  2  0 45643
SFSetGraph           114 1.6 2.9736e-03 1.6 0.00e+00 0.0 0.0e+00 0.0e+00 0.0e+00  0  0  0  0  0   0  0  0  0  0     0
SFBcastBegin        1632 2.3 8.1940e-03 2.3 0.00e+00 0.0 3.5e+04 1.2e+03 0.0e+00  0  0 47 41  0   0  0 47 41  0     0
SFBcastEnd          1632 2.3 7.4315e-02 1.8 0.00e+00 0.0 0.0e+00 0.0e+00 0.0e+00  2  0  0  0  0   2  0  0  0  0     0
SFReduceBegin       1859 2.2 2.4871e-02 2.1 0.00e+00 0.0 3.9e+04 1.5e+03 0.0e+00  1  0 53 59  0   1  0 53 59  0     0
SFReduceEnd         1859 2.2 7.8548e-02 4.0 0.00e+00 0.0 0.0e+00 0.0e+00 0.0e+00  2  0  0  0  0   2  0  0  0  0     0
VecDot                70 0.0 3.5524e-05 0.0 1.61e+03 0.0 0.0e+00 0.0e+00 0.0e+00  0  0  0  0  0   0  0  0  0  0    45
VecTDot               70 0.0 8.2016e-05 0.0 1.61e+03 0.0 0.0e+00 0.0e+00 0.0e+00  0  0  0  0  0   0  0  0  0  0    20
VecNorm               14 1.8 1.5352e-03 6.2 1.67e+05 1.1 0.0e+00 0.0e+00 8.2e+00  0  0  0  0  3   0  0  0  0  3  1634
VecCopy              420 2.6 3.4308e-04 1.3 0.00e+00 0.0 0.0e+00 0.0e+00 0.0e+00  0  0  0  0  0   0  0  0  0  0     0
VecSet              3537 2.3 5.5988e-03 1.2 0.00e+00 0.0 0.0e+00 0.0e+00 0.0e+00  0  0  0  0  0   0  0  0  0  0     0
VecAXPY              420 2.6 1.3912e-03 1.8 1.10e+06 1.1 0.0e+00 0.0e+00 0.0e+00  0  0  0  0  0   0  0  0  0  0 11750
VecAYPX             1547 2.2 5.1808e-03 1.1 4.40e+06 1.1 0.0e+00 0.0e+00 0.0e+00  0  0  0  0  0   0  0  0  0  0 12665
VecAXPBYCZ           420 2.1 2.5346e-03 1.2 4.84e+06 1.1 0.0e+00 0.0e+00 0.0e+00  0  0  0  0  0   0  0  0  0  0 28490
VecPointwiseMult    1001 2.4 3.8483e-03 1.2 2.06e+06 1.1 0.0e+00 0.0e+00 0.0e+00  0  0  0  0  0   0  0  0  0  0  7995
MatMult              910 2.3 1.7555e+00 1.0 3.55e+09 1.0 3.8e+04 9.2e+02 0.0e+00 59 62 52 35  0  59 62 52 35  0 32097
KSPSetUp              21 1.8 1.8961e-03 1.5 0.00e+00 0.0 0.0e+00 0.0e+00 0.0e+00  0  0  0  0  0   0  0  0  0  0     0
KSPSolve             490 2.5 1.7700e+00 1.0 3.56e+09 1.0 3.8e+04 9.2e+02 0.0e+00 59 62 52 35  0  59 62 52 35  0 31923
PCSetUp               21 1.8 6.1989e-06 0.0 0.00e+00 0.0 0.0e+00 0.0e+00 0.0e+00  0  0  0  0  0   0  0  0  0  0     0
PCApply             1001 2.4 3.1818e-01 1.0 8.95e+08 1.0 2.3e+03 8.8e+02 2.5e+01 11 16  3  2  9  11 16  3  2 10 44937
------------------------------------------------------------------------------------------------------------------------

Memory usage is given in bytes:

Object Type          Creations   Destructions     Memory  Descendants' Mem.
Reports information only for process 0.

--- Event Stage 0: Main Stage

Star Forest Bipartite Graph   198            198       160440     0
              Vector   319            319     15453680     0
              Matrix    21             21        51240     0
    Distributed Mesh    42             42       188496     0
     Discrete System    42             42        35280     0
       Krylov Solver    21             21        25944     0
      Preconditioner    21             21        17640     0
              Viewer     1              0            0     0
========================================================================================================================
Average time to get PetscTime(): 0
Average time for MPI_Barrier(): 1.02043e-05
Average time for zero size MPI_Send(): 6.31809e-06
#PETSc Option Table entries:
-local 32768,32769
-log_summary
-op_type poisson1
-repeat 8
-smooth 3,1
-sr_levels 0
-sr_max_buf 0
#End of PETSc Option Table entries
Compiled without FORTRAN kernels
Compiled with full precision matrices (default)
sizeof(short) 2 sizeof(int) 4 sizeof(long) 8 sizeof(void*) 8 sizeof(PetscScalar) 8 sizeof(PetscInt) 4
Configure options: --known-mpi-int64_t=0 --known-bits-per-byte=8 --known-sdot-returns-double=0 --known-snrm2-returns-double=0 --known-level1-dcache-assoc=0 --known-level1-dcache-linesize=32 --known-level1-dcache-size=32768 --known-memcmp-ok=1 --known-mpi-c-double-complex=1 --known-mpi-long-double=1 --known-mpi-shared-libraries=0 --known-sizeof-MPI_Comm=4 --known-sizeof-MPI_Fint=4 --known-sizeof-char=1 --known-sizeof-double=8 --known-sizeof-float=4 --known-sizeof-int=4 --known-sizeof-long-long=8 --known-sizeof-long=8 --known-sizeof-short=2 --known-sizeof-size_t=8 --known-sizeof-void-p=8 --with-ar=ar --with-batch=1 --with-cc=cc --with-clib-autodetect=0 --with-cxx=CC --with-cxxlib-autodetect=0 --with-debugging=0 --with-dependencies=0 --with-fc=ftn --with-fortran-datatypes=0 --with-fortran-interfaces=0 --with-fortranlib-autodetect=0 --with-ranlib=ranlib --with-scalar-type=real --with-shared-ld=ar --with-etags=0 --with-dependencies=0 --with-ssl=0 --with-dependencies=0 --with-mpi-dir=/opt/cray/mpt/7.2.5.1/gni/mpich2-intel/14.0 --with-blas-lapack-lib="-L/opt/cray/libsci/13.2.0/INTEL/14.0/x86_64/lib -lsci_intel_mp" --with-superlu=1 --with-superlu-include=/opt/cray/tpsl/1.5.2/INTEL/14.0/sandybridge/include --with-superlu-lib="-L/opt/cray/tpsl/1.5.2/INTEL/14.0/sandybridge/lib -lsuperlu" --with-superlu_dist=1 --with-superlu_dist-include=/opt/cray/tpsl/1.5.2/INTEL/14.0/sandybridge/include --with-superlu_dist-lib="-L/opt/cray/tpsl/1.5.2/INTEL/14.0/sandybridge/lib -lsuperlu_dist" --with-parmetis=1 --with-parmetis-include=/opt/cray/tpsl/1.5.2/INTEL/14.0/sandybridge/include --with-parmetis-lib="-L/opt/cray/tpsl/1.5.2/INTEL/14.0/sandybridge/lib -lparmetis" --with-metis=1 --with-metis-include=/opt/cray/tpsl/1.5.2/INTEL/14.0/sandybridge/include --with-metis-lib="-L/opt/cray/tpsl/1.5.2/INTEL/14.0/sandybridge/lib -lmetis" --with-ptscotch=1 --with-ptscotch-include=/opt/cray/tpsl/1.5.2/INTEL/14.0/sandybridge/include --with-ptscotch-lib="-L/opt/cray/tpsl/1.5.2/INTEL/14.0/sandybridge/lib -lptscotch -lscotch -lptscotcherr -lscotcherr" --with-scalapack=1 --with-scalapack-include=/opt/cray/libsci/13.2.0/INTEL/14.0/x86_64/include --with-scalapack-lib="-L/opt/cray/libsci/13.2.0/INTEL/14.0/x86_64/lib -lsci_intel_mpi_mp -lsci_intel_mp" --with-mumps=1 --with-mumps-include=/opt/cray/tpsl/1.5.2/INTEL/14.0/sandybridge/include --with-mumps-lib="-L/opt/cray/tpsl/1.5.2/INTEL/14.0/sandybridge/lib -lcmumps -ldmumps -lesmumps -lsmumps -lzmumps -lmumps_common -lptesmumps -lpord" --CFLAGS="-xavx -openmp -O3 " --CXXFLAGS="-xavx -openmp -O3  " --FFLAGS="-xavx -openmp -O3  " --LIBS=-lstdc++ --CXX_LINKER_FLAGS= --PETSC_ARCH=sandybridge --prefix=/opt/cray/pe/petsc/3.6.1.0/real/INTEL/14.0/sandybridge --with-hypre=1 --with-hypre-include=/opt/cray/tpsl/1.5.2/INTEL/14.0/sandybridge/include --with-hypre-lib="-L/opt/cray/tpsl/1.5.2/INTEL/14.0/sandybridge/lib -lHYPRE" --with-sundials=1 --with-sundials-include=/opt/cray/tpsl/1.5.2/INTEL/14.0/sandybridge/include --with-sundials-lib="-L/opt/cray/tpsl/1.5.2/INTEL/14.0/sandybridge/lib -lsundials_cvode -lsundials_cvodes -lsundials_ida -lsundials_idas -lsundials_kinsol -lsundials_nvecparallel -lsundials_nvecserial"
