N = 171
n = 24*SLURM_JOB_NUM_NODES
Nodes: nid00[008-063,072-127,136-161,164-177,248-255,264-273,289]
JobId: 324838
Fri Apr  8 18:33:47 PDT 2016
Fri Apr  8 18:33:51 PDT 2016
Fri Apr  8 18:33:58 PDT 2016
Fri Apr  8 18:34:06 PDT 2016
Fri Apr  8 18:34:13 PDT 2016
Fri Apr  8 18:34:21 PDT 2016
Fri Apr  8 18:34:29 PDT 2016
Fri Apr  8 18:34:37 PDT 2016
Fri Apr  8 18:34:46 PDT 2016
Fri Apr  8 18:34:56 PDT 2016
Fri Apr  8 18:35:06 PDT 2016
Fri Apr  8 18:35:18 PDT 2016
Fri Apr  8 18:35:31 PDT 2016
Fri Apr  8 18:35:50 PDT 2016
