Q1  0 e_max 1.00e+00(0.0) e_L2 1.00e+00(0.0) r_2 0.00e+00( 0.0) G[    1    1    1] L[   1   1   1] P[  1  1  1]
Q1  1 e_max 1.00e+00(0.0) e_L2 1.00e+00(0.0) r_2 8.59e-22( 0.0) G[    2    2    2] L[   2   2   2] P[  1  1  1]
Q1  2 e_max 4.43e-01(1.2) e_L2 5.28e-01(0.9) r_2 5.51e-03( 0.0) G[    4    4    4] L[   4   4   4] P[  1  1  1]
Q1  3 e_max 1.34e-01(1.7) e_L2 1.38e-01(1.9) r_2 6.08e-03(-0.1) G[    8    8    8] L[   4   4   4] P[  2  2  2]
Q1  4 e_max 3.55e-02(1.9) e_L2 3.76e-02(1.9) r_2 1.78e-02(-1.5) G[   16   16   16] L[   4   4   4] P[  4  4  4] [SR], buf=2
Q1  5 e_max 9.48e-03(1.9) e_L2 1.09e-02(1.8) r_2 3.76e-02(-1.1) G[   32   32   32] L[   8   8   8] P[  4  4  4] [SR], buf=4
Q1  6 e_max 4.65e-03(1.0) e_L2 4.82e-03(1.2) r_2 6.71e-02(-0.8) G[   64   64   64] L[  16  16  16] P[  4  4  4] [SR], buf=8
Q1  7 e_max 7.21e-03(-0.6) e_L2 6.28e-03(-0.4) r_2 1.03e-01(-0.6) G[  128  128  128] L[  32  32  32] P[  4  4  4] [SR], buf=16
F(3,1)  0: |e|_2/|u|_2 5.66e-03  |r|_2/|f|_2 1.03e-01
V(3,1)  1: |e|_2/|u|_2 6.00e-04  |r|_2/|f|_2 9.01e-03
V(3,1)  2: |e|_2/|u|_2 4.51e-04  |r|_2/|f|_2 9.44e-04
