Finite Element FAS Performance Sampler on process grid [4 4 4] = 64
Max memory per MPI rank: 0.000009 GB
Small Test G[  512  512  512]
Q1 G[  512  512  512] P[  4  4  4] SR[0]  9.124e+00 s  202.899511 GF   14.767492 MEq/s
Large Test G[  512  512  512]
Q1  0 e_max 1.00e+00( 0.0) e_L2 1.00e+00( 0.0) r_2 0.00e+00( 0.0) G[    1    1    1] L[   1   1   1] P[  1  1  1]
Q1  1 e_max 1.00e+00( 0.0) e_L2 1.00e+00( 0.0) r_2 3.52e-03( 0.0) G[    2    2    2] L[   2   2   2] P[  1  1  1]
Q1  2 e_max 4.48e-01( 1.2) e_L2 5.28e-01( 0.9) r_2 5.56e-03(-0.7) G[    4    4    4] L[   4   4   4] P[  1  1  1]
Q1  3 e_max 1.34e-01( 1.7) e_L2 1.38e-01( 1.9) r_2 6.26e-03(-0.2) G[    8    8    8] L[   4   4   4] P[  2  2  2]
Q1  4 e_max 3.60e-02( 1.9) e_L2 3.45e-02( 2.0) r_2 1.55e-02(-1.3) G[   16   16   16] L[   4   4   4] P[  4  4  4]
Q1  5 e_max 9.53e-03( 1.9) e_L2 8.08e-03( 2.1) r_2 4.34e-02(-1.5) G[   32   32   32] L[   8   8   8] P[  4  4  4]
Q1  6 e_max 2.50e-03( 1.9) e_L2 1.82e-03( 2.1) r_2 6.65e-02(-0.6) G[   64   64   64] L[  16  16  16] P[  4  4  4]
Q1  7 e_max 6.36e-04( 2.0) e_L2 4.08e-04( 2.2) r_2 7.90e-02(-0.2) G[  128  128  128] L[  32  32  32] P[  4  4  4]
Q1  8 e_max 1.60e-04( 2.0) e_L2 9.31e-05( 2.1) r_2 8.54e-02(-0.1) G[  256  256  256] L[  64  64  64] P[  4  4  4]
Q1  9 e_max 4.02e-05( 2.0) e_L2 2.18e-05( 2.1) r_2 8.86e-02(-0.1) G[  512  512  512] L[ 128 128 128] P[  4  4  4]
Q1 G[  512  512  512] P[  4  4  4] SR[0]  1.268e+01 s  190.507026 GF   10.648039 MEq/s
Max memory per MPI rank: 0.000374 GB
Starting performance sampling
Q1 G[  512  512  512] P[  4  4  4] SR[0]  9.120e+00 s  201.195331 GF   14.643458 MEq/s
Q1 G[  512  512  512] P[  4  4  4] SR[0]  9.066e+00 s  204.168727 GF   14.859869 MEq/s
Q1 G[  512  512  512] P[  4  4  4] SR[0]  9.002e+00 s  205.561099 GF   14.961209 MEq/s
************************************************************************************************************************
***             WIDEN YOUR WINDOW TO 120 CHARACTERS.  Use 'enscript -r -fCourier9' to print this document            ***
************************************************************************************************************************

---------------------------------------------- PETSc Performance Summary: ----------------------------------------------

/global/u1/s/shenneki/hpgmg-fe-sr/./build/bin/hpgmg-fe on a sandybridge named nid00030 with 64 processors, by shenneki Sun Apr  3 10:51:01 2016
Using Petsc Release Version 3.6.1, Jul, 22, 2015 

                         Max       Max/Min        Avg      Total 
Time (sec):           6.737e+01      1.00000   6.737e+01
Objects:              9.060e+02      1.73231   5.385e+02
Flops:                2.209e+11      1.00030   2.208e+11  1.413e+13
Flops/sec:            3.279e+09      1.00031   3.278e+09  2.098e+11
MPI Messages:         1.387e+04      4.03124   7.346e+03  4.701e+05
MPI Message Lengths:  1.449e+08      1.19447   1.830e+04  8.603e+09
MPI Reductions:       3.820e+02      1.15758

Flop counting convention: 1 flop = 1 real number operation of type (multiply/divide/add/subtract)
                            e.g., VecAXPY() for real vectors of length N --> 2N flops
                            and VecAXPY() for complex vectors of length N --> 8N flops

Summary of Stages:   ----- Time ------  ----- Flops -----  --- Messages ---  -- Message Lengths --  -- Reductions --
                        Avg     %Total     Avg     %Total   counts   %Total     Avg         %Total   counts   %Total 
 0:      Main Stage: 6.7368e+01 100.0%  1.4133e+13 100.0%  4.701e+05 100.0%  1.830e+04      100.0%  3.355e+02  87.8% 

------------------------------------------------------------------------------------------------------------------------
See the 'Profiling' chapter of the users' manual for details on interpreting output.
Phase summary info:
   Count: number of times phase was executed
   Time and Flops: Max - maximum over all processors
                   Ratio - ratio of maximum to minimum over all processors
   Mess: number of messages sent
   Avg. len: average message length (bytes)
   Reduct: number of global reductions
   Global: entire computation
   Stage: stages of a computation. Set stages with PetscLogStagePush() and PetscLogStagePop().
      %T - percent time in this phase         %F - percent flops in this phase
      %M - percent messages in this phase     %L - percent message lengths in this phase
      %R - percent reductions in this phase
   Total Mflop/s: 10e-6 * (sum of flops over all processors)/(max time over all processors)
------------------------------------------------------------------------------------------------------------------------
Event                Count      Time (sec)     Flops                             --- Global ---  --- Stage ---   Total
                   Max Ratio  Max     Ratio   Max  Ratio  Mess   Avg len Reduct  %T %F %M %L %R  %T %F %M %L %R Mflop/s
------------------------------------------------------------------------------------------------------------------------

--- Event Stage 0: Main Stage

                      42 0.0 4.6552e+01 0.0 1.50e+11 0.0 4.1e+05 1.2e+04 6.0e+01 68 67 87 56 16  68 67 87 56 18 202674
OpRestrictState      225 2.1 1.5745e-01 6.0 0.00e+00 0.0 8.9e+03 1.3e+05 0.0e+00  0  0  2 13  0   0  0  2 13  0     0
OpRestrictResid      270 2.0 4.4900e-01 1.1 9.26e+07 1.0 4.7e+04 4.2e+04 0.0e+00  1  0 10 23  0   1  0 10 23  0 13198
OpInterpolate        270 2.0 6.2886e-01 1.2 9.26e+07 1.0 3.9e+04 4.5e+04 0.0e+00  1  0  8 20  0   1  0  8 20  0  9423
OpForcing              3 1.0 4.5870e+00 1.0 1.01e+10 1.0 2.1e+03 4.1e+04 0.0e+00  7  5  0  1  0   7  5  0  1  0 140537
OpIntegNorms          10 1.7 2.1023e+00 1.0 3.82e+09 1.0 1.7e+03 1.5e+04 1.2e+01  3  2  0  0  3   3  2  0  0  4 116161
OpGetDiagonal         30 1.7 1.2040e+01 1.0 5.71e+10 1.0 2.2e+04 7.0e+03 0.0e+00 17 26  5  2  0  17 26  5  2  0 303350
SFSetGraph           168 1.6 1.2892e-01 1.4 0.00e+00 0.0 0.0e+00 0.0e+00 0.0e+00  0  0  0  0  0   0  0  0  0  0     0
SFBcastBegin        1717 2.3 4.3652e-02 2.4 0.00e+00 0.0 2.2e+05 1.2e+04 0.0e+00  0  0 48 32  0   0  0 48 32  0     0
SFBcastEnd          1717 2.3 5.5664e-01 4.0 0.00e+00 0.0 0.0e+00 0.0e+00 0.0e+00  0  0  0  0  0   0  0  0  0  0     0
SFReduceBegin       1965 2.2 6.1793e-01 6.9 0.00e+00 0.0 2.5e+05 2.4e+04 0.0e+00  1  0 52 68  0   1  0 52 68  0     0
SFReduceEnd         1965 2.2 2.3383e+0021.4 0.00e+00 0.0 0.0e+00 0.0e+00 0.0e+00  2  0  0  0  0   2  0  0  0  0     0
VecDot                50 0.0 2.1696e-05 0.0 7.50e+02 0.0 0.0e+00 0.0e+00 0.0e+00  0  0  0  0  0   0  0  0  0  0    35
VecTDot               50 0.0 1.1778e-04 0.0 7.50e+02 0.0 0.0e+00 0.0e+00 0.0e+00  0  0  0  0  0   0  0  0  0  0     6
VecNorm               20 1.7 2.9079e-02 6.0 9.85e+06 1.0 0.0e+00 0.0e+00 1.2e+01  0  0  0  0  3   0  0  0  0  4 21245
VecCopy              450 2.5 2.2004e-02 1.7 0.00e+00 0.0 0.0e+00 0.0e+00 0.0e+00  0  0  0  0  0   0  0  0  0  0     0
VecSet              3724 2.3 3.6363e-01 1.1 0.00e+00 0.0 0.0e+00 0.0e+00 0.0e+00  1  0  0  0  0   1  0  0  0  0     0
VecAXPY              450 2.5 2.2974e-02 1.3 3.19e+07 1.0 0.0e+00 0.0e+00 0.0e+00  0  0  0  0  0   0  0  0  0  0 86610
VecAYPX             1635 2.2 1.4190e-01 1.2 1.30e+08 1.0 0.0e+00 0.0e+00 0.0e+00  0  0  0  0  0   0  0  0  0  0 57127
VecAXPBYCZ           450 2.1 5.2341e-02 1.1 1.41e+08 1.0 0.0e+00 0.0e+00 0.0e+00  0  0  0  0  0   0  0  0  0  0 168806
VecPointwiseMult    1030 2.4 1.1749e-01 1.2 6.39e+07 1.0 0.0e+00 0.0e+00 0.0e+00  0  0  0  0  0   0  0  0  0  0 34025
MatMult              950 2.3 3.5011e+01 1.0 1.13e+11 1.0 2.4e+05 5.7e+03 0.0e+00 52 51 51 16  0  52 51 51 16  0 205993
KSPSetUp              30 1.7 8.9609e-02 1.2 0.00e+00 0.0 0.0e+00 0.0e+00 0.0e+00  0  0  0  0  0   0  0  0  0  0     0
KSPSolve             500 2.4 3.5371e+01 1.0 1.13e+11 1.0 2.4e+05 5.7e+03 0.0e+00 52 51 51 16  0  52 51 51 16  0 204448
PCSetUp               30 1.7 1.1683e-05 6.1 0.00e+00 0.0 0.0e+00 0.0e+00 0.0e+00  0  0  0  0  0   0  0  0  0  0     0
PCApply             1030 2.4 1.2231e+01 1.0 5.71e+10 1.0 2.2e+04 7.0e+03 3.7e+01 18 26  5  2 10  18 26  5  2 11 298952
------------------------------------------------------------------------------------------------------------------------

Memory usage is given in bytes:

Object Type          Creations   Destructions     Memory  Descendants' Mem.
Reports information only for process 0.

--- Event Stage 0: Main Stage

Star Forest Bipartite Graph   288            288       233520     0
              Vector   407            407    929029824     0
              Matrix    30             30        73200     0
    Distributed Mesh    60             60       269280     0
     Discrete System    60             60        50400     0
       Krylov Solver    30             30        37104     0
      Preconditioner    30             30        25200     0
              Viewer     1              0            0     0
========================================================================================================================
Average time to get PetscTime(): 0
Average time for MPI_Barrier(): 1.84059e-05
Average time for zero size MPI_Send(): 4.28036e-06
#PETSc Option Table entries:
-local 2097152,2097153
-log_summary
-op_type poisson1
-repeat 3
-smooth 3,1
-sr_levels 0
-sr_max_buf 0
#End of PETSc Option Table entries
Compiled without FORTRAN kernels
Compiled with full precision matrices (default)
sizeof(short) 2 sizeof(int) 4 sizeof(long) 8 sizeof(void*) 8 sizeof(PetscScalar) 8 sizeof(PetscInt) 4
Configure options: --known-mpi-int64_t=0 --known-bits-per-byte=8 --known-sdot-returns-double=0 --known-snrm2-returns-double=0 --known-level1-dcache-assoc=0 --known-level1-dcache-linesize=32 --known-level1-dcache-size=32768 --known-memcmp-ok=1 --known-mpi-c-double-complex=1 --known-mpi-long-double=1 --known-mpi-shared-libraries=0 --known-sizeof-MPI_Comm=4 --known-sizeof-MPI_Fint=4 --known-sizeof-char=1 --known-sizeof-double=8 --known-sizeof-float=4 --known-sizeof-int=4 --known-sizeof-long-long=8 --known-sizeof-long=8 --known-sizeof-short=2 --known-sizeof-size_t=8 --known-sizeof-void-p=8 --with-ar=ar --with-batch=1 --with-cc=cc --with-clib-autodetect=0 --with-cxx=CC --with-cxxlib-autodetect=0 --with-debugging=0 --with-dependencies=0 --with-fc=ftn --with-fortran-datatypes=0 --with-fortran-interfaces=0 --with-fortranlib-autodetect=0 --with-ranlib=ranlib --with-scalar-type=real --with-shared-ld=ar --with-etags=0 --with-dependencies=0 --with-ssl=0 --with-dependencies=0 --with-mpi-dir=/opt/cray/mpt/7.2.5.1/gni/mpich2-intel/14.0 --with-blas-lapack-lib="-L/opt/cray/libsci/13.2.0/INTEL/14.0/x86_64/lib -lsci_intel_mp" --with-superlu=1 --with-superlu-include=/opt/cray/tpsl/1.5.2/INTEL/14.0/sandybridge/include --with-superlu-lib="-L/opt/cray/tpsl/1.5.2/INTEL/14.0/sandybridge/lib -lsuperlu" --with-superlu_dist=1 --with-superlu_dist-include=/opt/cray/tpsl/1.5.2/INTEL/14.0/sandybridge/include --with-superlu_dist-lib="-L/opt/cray/tpsl/1.5.2/INTEL/14.0/sandybridge/lib -lsuperlu_dist" --with-parmetis=1 --with-parmetis-include=/opt/cray/tpsl/1.5.2/INTEL/14.0/sandybridge/include --with-parmetis-lib="-L/opt/cray/tpsl/1.5.2/INTEL/14.0/sandybridge/lib -lparmetis" --with-metis=1 --with-metis-include=/opt/cray/tpsl/1.5.2/INTEL/14.0/sandybridge/include --with-metis-lib="-L/opt/cray/tpsl/1.5.2/INTEL/14.0/sandybridge/lib -lmetis" --with-ptscotch=1 --with-ptscotch-include=/opt/cray/tpsl/1.5.2/INTEL/14.0/sandybridge/include --with-ptscotch-lib="-L/opt/cray/tpsl/1.5.2/INTEL/14.0/sandybridge/lib -lptscotch -lscotch -lptscotcherr -lscotcherr" --with-scalapack=1 --with-scalapack-include=/opt/cray/libsci/13.2.0/INTEL/14.0/x86_64/include --with-scalapack-lib="-L/opt/cray/libsci/13.2.0/INTEL/14.0/x86_64/lib -lsci_intel_mpi_mp -lsci_intel_mp" --with-mumps=1 --with-mumps-include=/opt/cray/tpsl/1.5.2/INTEL/14.0/sandybridge/include --with-mumps-lib="-L/opt/cray/tpsl/1.5.2/INTEL/14.0/sandybridge/lib -lcmumps -ldmumps -lesmumps -lsmumps -lzmumps -lmumps_common -lptesmumps -lpord" --CFLAGS="-xavx -openmp -O3 " --CXXFLAGS="-xavx -openmp -O3  " --FFLAGS="-xavx -openmp -O3  " --LIBS=-lstdc++ --CXX_LINKER_FLAGS= --PETSC_ARCH=sandybridge --prefix=/opt/cray/pe/petsc/3.6.1.0/real/INTEL/14.0/sandybridge --with-hypre=1 --with-hypre-include=/opt/cray/tpsl/1.5.2/INTEL/14.0/sandybridge/include --with-hypre-lib="-L/opt/cray/tpsl/1.5.2/INTEL/14.0/sandybridge/lib -lHYPRE" --with-sundials=1 --with-sundials-include=/opt/cray/tpsl/1.5.2/INTEL/14.0/sandybridge/include --with-sundials-lib="-L/opt/cray/tpsl/1.5.2/INTEL/14.0/sandybridge/lib -lsundials_cvode -lsundials_cvodes -lsundials_ida -lsundials_idas -lsundials_kinsol -lsundials_nvecparallel -lsundials_nvecserial"
