Finite Element FAS Performance Sampler on process grid [8 8 8] = 512
Max memory per MPI rank: 0.000010 GB
Small Test G[  256  256  256]
Q1 G[  256  256  256] P[  8  8  8] SR[0]  2.366e-01 s  975.912431 GF   71.423301 MEq/s
Large Test G[  256  256  256]
Q1  0 e_max 1.00e+00( 0.0) e_L2 1.00e+00( 0.0) r_2 0.00e+00( 0.0) G[    1    1    1] L[   1   1   1] P[  1  1  1]
Q1  1 e_max 1.00e+00( 0.0) e_L2 1.00e+00( 0.0) r_2 3.52e-03( 0.0) G[    2    2    2] L[   2   2   2] P[  1  1  1]
Q1  2 e_max 4.48e-01( 1.2) e_L2 5.28e-01( 0.9) r_2 5.56e-03(-0.7) G[    4    4    4] L[   4   4   4] P[  1  1  1]
Q1  3 e_max 1.34e-01( 1.7) e_L2 1.38e-01( 1.9) r_2 6.26e-03(-0.2) G[    8    8    8] L[   4   4   4] P[  2  2  2]
Q1  4 e_max 3.60e-02( 1.9) e_L2 3.45e-02( 2.0) r_2 1.55e-02(-1.3) G[   16   16   16] L[   4   4   4] P[  4  4  4]
Q1  5 e_max 9.53e-03( 1.9) e_L2 8.08e-03( 2.1) r_2 4.34e-02(-1.5) G[   32   32   32] L[   4   4   4] P[  8  8  8]
Q1  6 e_max 2.50e-03( 1.9) e_L2 1.82e-03( 2.1) r_2 6.65e-02(-0.6) G[   64   64   64] L[   8   8   8] P[  8  8  8]
Q1  7 e_max 6.36e-04( 2.0) e_L2 4.08e-04( 2.2) r_2 7.90e-02(-0.2) G[  128  128  128] L[  16  16  16] P[  8  8  8]
Q1  8 e_max 1.60e-04( 2.0) e_L2 9.31e-05( 2.1) r_2 8.54e-02(-0.1) G[  256  256  256] L[  32  32  32] P[  8  8  8]
Q1 G[  256  256  256] P[  8  8  8] SR[0]  3.439e-01 s  878.108877 GF   49.362386 MEq/s
Max memory per MPI rank: 0.000020 GB
Starting performance sampling
Q1 G[  256  256  256] P[  8  8  8] SR[0]  2.351e-01 s  984.038832 GF   72.018041 MEq/s
Q1 G[  256  256  256] P[  8  8  8] SR[0]  2.335e-01 s  988.555615 GF   72.359199 MEq/s
Q1 G[  256  256  256] P[  8  8  8] SR[0]  2.351e-01 s  983.290058 GF   71.973776 MEq/s
