Finite Element FAS Performance Sampler on process grid [8 16 16] = 2048
Max memory per MPI rank: 0.000011 GB
Small Test G[  256  256  256]
Q1 G[  256  256  256] P[  8 16 16] SR[0]  9.847e-02 s  2349.318604 GF  171.948382 MEq/s
Large Test G[  256  256  256]
Q1  0 e_max 1.00e+00( 0.0) e_L2 1.00e+00( 0.0) r_2 0.00e+00( 0.0) G[    1    1    1] L[   1   1   1] P[  1  1  1]
Q1  1 e_max 1.00e+00( 0.0) e_L2 1.00e+00( 0.0) r_2 3.52e-03( 0.0) G[    2    2    2] L[   2   2   2] P[  1  1  1]
Q1  2 e_max 4.48e-01( 1.2) e_L2 5.28e-01( 0.9) r_2 5.56e-03(-0.7) G[    4    4    4] L[   4   4   4] P[  1  1  1]
Q1  3 e_max 1.34e-01( 1.7) e_L2 1.38e-01( 1.9) r_2 6.26e-03(-0.2) G[    8    8    8] L[   8   4   4] P[  1  2  2]
Q1  4 e_max 3.60e-02( 1.9) e_L2 3.45e-02( 2.0) r_2 1.55e-02(-1.3) G[   16   16   16] L[   8   4   4] P[  2  4  4]
Q1  5 e_max 9.53e-03( 1.9) e_L2 8.08e-03( 2.1) r_2 4.34e-02(-1.5) G[   32   32   32] L[   8   4   4] P[  4  8  8]
Q1  6 e_max 2.50e-03( 1.9) e_L2 1.82e-03( 2.1) r_2 6.65e-02(-0.6) G[   64   64   64] L[   8   4   4] P[  8 16 16]
Q1  7 e_max 6.36e-04( 2.0) e_L2 4.08e-04( 2.2) r_2 7.90e-02(-0.2) G[  128  128  128] L[  16   8   8] P[  8 16 16]
Q1  8 e_max 1.60e-04( 2.0) e_L2 9.31e-05( 2.1) r_2 8.54e-02(-0.1) G[  256  256  256] L[  32  16  16] P[  8 16 16]
Q1 G[  256  256  256] P[  8 16 16] SR[0]  1.245e-01 s  2425.333497 GF  136.327714 MEq/s
Max memory per MPI rank: 0.000017 GB
Starting performance sampling
Q1 G[  256  256  256] P[  8 16 16] SR[0]  9.166e-02 s  2523.062580 GF  184.664834 MEq/s
Q1 G[  256  256  256] P[  8 16 16] SR[0]  1.188e-01 s  1917.860449 GF  140.369638 MEq/s
Q1 G[  256  256  256] P[  8 16 16] SR[0]  8.799e-02 s  2627.928903 GF  192.340078 MEq/s
Q1 G[  256  256  256] P[  8 16 16] SR[0]  8.711e-02 s  2653.853733 GF  194.237536 MEq/s
Q1 G[  256  256  256] P[  8 16 16] SR[0]  8.723e-02 s  2649.401249 GF  193.911655 MEq/s
Q1 G[  256  256  256] P[  8 16 16] SR[0]  8.781e-02 s  2633.749107 GF  192.766063 MEq/s
Q1 G[  256  256  256] P[  8 16 16] SR[0]  8.743e-02 s  2645.129102 GF  193.598974 MEq/s
Q1 G[  256  256  256] P[  8 16 16] SR[0]  8.751e-02 s  2642.750466 GF  193.424879 MEq/s
************************************************************************************************************************
***             WIDEN YOUR WINDOW TO 120 CHARACTERS.  Use 'enscript -r -fCourier9' to print this document            ***
************************************************************************************************************************

---------------------------------------------- PETSc Performance Summary: ----------------------------------------------

/global/u1/s/shenneki/hpgmg-fe-sr/./build/bin/hpgmg-fe on a sandybridge named nid00008 with 2048 processors, by shenneki Fri Apr  8 21:30:22 2016
Using Petsc Release Version 3.6.1, Jul, 22, 2015 

                         Max       Max/Min        Avg      Total 
Time (sec):           1.538e+00      1.00016   1.538e+00
Objects:              8.590e+02      3.27863   2.746e+02
Flops:                1.725e+09      1.21562   1.429e+09  2.926e+12
Flops/sec:            1.122e+09      1.21570   9.294e+08  1.903e+12
MPI Messages:         1.564e+04      8.45123   5.773e+03  1.182e+07
MPI Message Lengths:  4.355e+06      2.37897   4.963e+02  5.868e+09
MPI Reductions:       3.400e+02      1.84783

Flop counting convention: 1 flop = 1 real number operation of type (multiply/divide/add/subtract)
                            e.g., VecAXPY() for real vectors of length N --> 2N flops
                            and VecAXPY() for complex vectors of length N --> 8N flops

Summary of Stages:   ----- Time ------  ----- Flops -----  --- Messages ---  -- Message Lengths --  -- Reductions --
                        Avg     %Total     Avg     %Total   counts   %Total     Avg         %Total   counts   %Total 
 0:      Main Stage: 1.5375e+00 100.0%  2.9265e+12 100.0%  1.182e+07 100.0%  4.963e+02      100.0%  1.904e+02  56.0% 

------------------------------------------------------------------------------------------------------------------------
See the 'Profiling' chapter of the users' manual for details on interpreting output.
Phase summary info:
   Count: number of times phase was executed
   Time and Flops: Max - maximum over all processors
                   Ratio - ratio of maximum to minimum over all processors
   Mess: number of messages sent
   Avg. len: average message length (bytes)
   Reduct: number of global reductions
   Global: entire computation
   Stage: stages of a computation. Set stages with PetscLogStagePush() and PetscLogStagePop().
      %T - percent time in this phase         %F - percent flops in this phase
      %M - percent messages in this phase     %L - percent message lengths in this phase
      %R - percent reductions in this phase
   Total Mflop/s: 10e-6 * (sum of flops over all processors)/(max time over all processors)
------------------------------------------------------------------------------------------------------------------------
Event                Count      Time (sec)     Flops                             --- Global ---  --- Stage ---   Total
                   Max Ratio  Max     Ratio   Max  Ratio  Mess   Avg len Reduct  %T %F %M %L %R  %T %F %M %L %R Mflop/s
------------------------------------------------------------------------------------------------------------------------

--- Event Stage 0: Main Stage

                      66 0.0 9.2092e-01 0.0 1.37e+09 0.0 1.0e+07 4.6e+02 2.6e+01 55 80 87 82  8  55 80 87 82 13 2557915
OpRestrictState      360 6.0 1.0059e-02 9.3 0.00e+00 0.0 1.6e+05 1.6e+03 0.0e+00  0  0  1  4  0   0  0  1  4  0     0
OpRestrictResid      440 4.9 1.5767e-02 1.7 1.03e+06 1.2 1.1e+06 5.6e+02 0.0e+00  1  0 10 11  0   1  0 10 11  0 110322
OpInterpolate        440 4.9 2.6481e-0120.8 1.03e+06 1.2 9.9e+05 6.0e+02 0.0e+00 15  0  8 10  0  15  0  8 10  0  6568
OpForcing              3 1.0 6.1642e-02 1.6 3.94e+07 1.0 9.3e+04 9.9e+02 0.0e+00  4  3  1  2  0   4  3  1  2  0 1307247
OpIntegNorms           9 3.0 1.4234e-02 1.1 1.56e+07 1.0 3.9e+04 7.1e+02 6.3e+00  1  1  0  0  2   1  1  0  0  3 2144536
OpGetDiagonal         27 3.0 9.8192e-02 1.1 2.33e+08 1.0 4.3e+05 3.9e+02 0.0e+00  6 16  4  3  0   6 16  4  3  0 4649564
SFSetGraph           150 2.8 1.3142e-03 2.0 0.00e+00 0.0 0.0e+00 0.0e+00 0.0e+00  0  0  0  0  0   0  0  0  0  0     0
SFBcastBegin        2732 6.3 1.8795e-02 6.3 0.00e+00 0.0 5.7e+06 4.6e+02 0.0e+00  0  0 48 45  0   0  0 48 45  0     0
SFBcastEnd          2732 6.3 2.8685e-01 3.8 0.00e+00 0.0 0.0e+00 0.0e+00 0.0e+00 16  0  0  0  0  16  0  0  0  0     0
SFReduceBegin       3113 6.2 6.2387e-02 2.8 0.00e+00 0.0 6.1e+06 5.3e+02 0.0e+00  2  0 52 55  0   2  0 52 55  0     0
SFReduceEnd         3113 6.2 7.6410e-0240.0 0.00e+00 0.0 0.0e+00 0.0e+00 0.0e+00  2  0  0  0  0   2  0  0  0  0     0
VecDot                90 0.0 5.7459e-05 0.0 1.35e+03 0.0 0.0e+00 0.0e+00 0.0e+00  0  0  0  0  0   0  0  0  0  0    23
VecTDot               90 0.0 1.2898e-04 0.0 1.35e+03 0.0 0.0e+00 0.0e+00 0.0e+00  0  0  0  0  0   0  0  0  0  0    10
VecNorm               18 3.0 1.3318e-03 3.7 4.46e+04 1.2 0.0e+00 0.0e+00 6.3e+00  0  0  0  0  2   0  0  0  0  3 58380
VecCopy              720 8.0 3.0923e-04 4.3 0.00e+00 0.0 0.0e+00 0.0e+00 0.0e+00  0  0  0  0  0   0  0  0  0  0     0
VecSet              5824 6.2 2.6226e-03 2.0 0.00e+00 0.0 0.0e+00 0.0e+00 0.0e+00  0  0  0  0  0   0  0  0  0  0     0
VecAXPY              720 8.0 1.8422e-0246.7 3.53e+05 1.5 0.0e+00 0.0e+00 0.0e+00  0  0  0  0  0   0  0  0  0  0 27244
VecAYPX             2619 6.2 2.1110e-03 1.6 1.25e+06 1.3 0.0e+00 0.0e+00 0.0e+00  0  0  0  0  0   0  0  0  0  0 958496
VecAXPBYCZ           720 6.0 9.1290e-04 1.5 1.37e+06 1.3 0.0e+00 0.0e+00 0.0e+00  0  0  0  0  0   0  0  0  0  0 2438987
VecPointwiseMult    1647 6.6 1.9138e-0221.0 5.80e+05 1.3 0.0e+00 0.0e+00 0.0e+00  0  0  0  0  0   0  0  0  0  0 49585
MatMult             1530 6.4 6.5060e-01 1.3 1.08e+09 1.2 6.4e+06 4.6e+02 0.0e+00 34 62 54 50  0  34 62 54 50  0 2771330
KSPSetUp              27 3.0 6.7377e-04 1.9 0.00e+00 0.0 0.0e+00 0.0e+00 0.0e+00  0  0  0  0  0   0  0  0  0  0     0
KSPSolve             810 6.8 6.6056e-01 1.3 1.08e+09 1.2 6.4e+06 4.6e+02 0.0e+00 34 62 54 50  0  34 62 54 50  0 2736935
PCSetUp               27 3.0 7.8678e-06 0.0 0.00e+00 0.0 0.0e+00 0.0e+00 0.0e+00  0  0  0  0  0   0  0  0  0  0     0
PCApply             1647 6.6 1.1478e-01 1.2 2.34e+08 1.0 4.3e+05 3.9e+02 1.9e+01  6 16  4  3  6   6 16  4  3 10 3985723
------------------------------------------------------------------------------------------------------------------------

Memory usage is given in bytes:

Object Type          Creations   Destructions     Memory  Descendants' Mem.
Reports information only for process 0.

--- Event Stage 0: Main Stage

Star Forest Bipartite Graph   258            258       209160     0
              Vector   411            411      4694472     0
              Matrix    27             27        65880     0
    Distributed Mesh    54             54       242352     0
     Discrete System    54             54        45360     0
       Krylov Solver    27             27        33384     0
      Preconditioner    27             27        22680     0
              Viewer     1              0            0     0
========================================================================================================================
Average time to get PetscTime(): 9.53674e-08
Average time for MPI_Barrier(): 3.09944e-05
Average time for zero size MPI_Send(): 3.28617e-06
#PETSc Option Table entries:
-local 8192,8193
-log_summary
-op_type poisson1
-repeat 8
-smooth 3,1
-sr_levels 0
-sr_max_buf 0
#End of PETSc Option Table entries
Compiled without FORTRAN kernels
Compiled with full precision matrices (default)
sizeof(short) 2 sizeof(int) 4 sizeof(long) 8 sizeof(void*) 8 sizeof(PetscScalar) 8 sizeof(PetscInt) 4
Configure options: --known-mpi-int64_t=0 --known-bits-per-byte=8 --known-sdot-returns-double=0 --known-snrm2-returns-double=0 --known-level1-dcache-assoc=0 --known-level1-dcache-linesize=32 --known-level1-dcache-size=32768 --known-memcmp-ok=1 --known-mpi-c-double-complex=1 --known-mpi-long-double=1 --known-mpi-shared-libraries=0 --known-sizeof-MPI_Comm=4 --known-sizeof-MPI_Fint=4 --known-sizeof-char=1 --known-sizeof-double=8 --known-sizeof-float=4 --known-sizeof-int=4 --known-sizeof-long-long=8 --known-sizeof-long=8 --known-sizeof-short=2 --known-sizeof-size_t=8 --known-sizeof-void-p=8 --with-ar=ar --with-batch=1 --with-cc=cc --with-clib-autodetect=0 --with-cxx=CC --with-cxxlib-autodetect=0 --with-debugging=0 --with-dependencies=0 --with-fc=ftn --with-fortran-datatypes=0 --with-fortran-interfaces=0 --with-fortranlib-autodetect=0 --with-ranlib=ranlib --with-scalar-type=real --with-shared-ld=ar --with-etags=0 --with-dependencies=0 --with-ssl=0 --with-dependencies=0 --with-mpi-dir=/opt/cray/mpt/7.2.5.1/gni/mpich2-intel/14.0 --with-blas-lapack-lib="-L/opt/cray/libsci/13.2.0/INTEL/14.0/x86_64/lib -lsci_intel_mp" --with-superlu=1 --with-superlu-include=/opt/cray/tpsl/1.5.2/INTEL/14.0/sandybridge/include --with-superlu-lib="-L/opt/cray/tpsl/1.5.2/INTEL/14.0/sandybridge/lib -lsuperlu" --with-superlu_dist=1 --with-superlu_dist-include=/opt/cray/tpsl/1.5.2/INTEL/14.0/sandybridge/include --with-superlu_dist-lib="-L/opt/cray/tpsl/1.5.2/INTEL/14.0/sandybridge/lib -lsuperlu_dist" --with-parmetis=1 --with-parmetis-include=/opt/cray/tpsl/1.5.2/INTEL/14.0/sandybridge/include --with-parmetis-lib="-L/opt/cray/tpsl/1.5.2/INTEL/14.0/sandybridge/lib -lparmetis" --with-metis=1 --with-metis-include=/opt/cray/tpsl/1.5.2/INTEL/14.0/sandybridge/include --with-metis-lib="-L/opt/cray/tpsl/1.5.2/INTEL/14.0/sandybridge/lib -lmetis" --with-ptscotch=1 --with-ptscotch-include=/opt/cray/tpsl/1.5.2/INTEL/14.0/sandybridge/include --with-ptscotch-lib="-L/opt/cray/tpsl/1.5.2/INTEL/14.0/sandybridge/lib -lptscotch -lscotch -lptscotcherr -lscotcherr" --with-scalapack=1 --with-scalapack-include=/opt/cray/libsci/13.2.0/INTEL/14.0/x86_64/include --with-scalapack-lib="-L/opt/cray/libsci/13.2.0/INTEL/14.0/x86_64/lib -lsci_intel_mpi_mp -lsci_intel_mp" --with-mumps=1 --with-mumps-include=/opt/cray/tpsl/1.5.2/INTEL/14.0/sandybridge/include --with-mumps-lib="-L/opt/cray/tpsl/1.5.2/INTEL/14.0/sandybridge/lib -lcmumps -ldmumps -lesmumps -lsmumps -lzmumps -lmumps_common -lptesmumps -lpord" --CFLAGS="-xavx -openmp -O3 " --CXXFLAGS="-xavx -openmp -O3  " --FFLAGS="-xavx -openmp -O3  " --LIBS=-lstdc++ --CXX_LINKER_FLAGS= --PETSC_ARCH=sandybridge --prefix=/opt/cray/pe/petsc/3.6.1.0/real/INTEL/14.0/sandybridge --with-hypre=1 --with-hypre-include=/opt/cray/tpsl/1.5.2/INTEL/14.0/sandybridge/include --with-hypre-lib="-L/opt/cray/tpsl/1.5.2/INTEL/14.0/sandybridge/lib -lHYPRE" --with-sundials=1 --with-sundials-include=/opt/cray/tpsl/1.5.2/INTEL/14.0/sandybridge/include --with-sundials-lib="-L/opt/cray/tpsl/1.5.2/INTEL/14.0/sandybridge/lib -lsundials_cvode -lsundials_cvodes -lsundials_ida -lsundials_idas -lsundials_kinsol -lsundials_nvecparallel -lsundials_nvecserial"
