srun: Warning: can't run 64 processes on 171 nodes, setting nnodes to 64
Finite Element FAS Performance Sampler on process grid [4 4 4] = 64
Max memory per MPI rank: 0.000009 GB
Small Test G[  256  256  256]
Q1 G[  256  256  256] P[  4  4  4] SR[0]  1.406e+00 s  163.167973 GF   11.944584 MEq/s
Large Test G[  256  256  256]
Q1  0 e_max 1.00e+00( 0.0) e_L2 1.00e+00( 0.0) r_2 0.00e+00( 0.0) G[    1    1    1] L[   1   1   1] P[  1  1  1]
Q1  1 e_max 1.00e+00( 0.0) e_L2 1.00e+00( 0.0) r_2 3.52e-03( 0.0) G[    2    2    2] L[   2   2   2] P[  1  1  1]
Q1  2 e_max 4.48e-01( 1.2) e_L2 5.28e-01( 0.9) r_2 5.56e-03(-0.7) G[    4    4    4] L[   4   4   4] P[  1  1  1]
Q1  3 e_max 1.34e-01( 1.7) e_L2 1.38e-01( 1.9) r_2 6.26e-03(-0.2) G[    8    8    8] L[   4   4   4] P[  2  2  2]
Q1  4 e_max 3.60e-02( 1.9) e_L2 3.45e-02( 2.0) r_2 1.55e-02(-1.3) G[   16   16   16] L[   4   4   4] P[  4  4  4]
Q1  5 e_max 9.53e-03( 1.9) e_L2 8.08e-03( 2.1) r_2 4.34e-02(-1.5) G[   32   32   32] L[   8   8   8] P[  4  4  4]
Q1  6 e_max 2.50e-03( 1.9) e_L2 1.82e-03( 2.1) r_2 6.65e-02(-0.6) G[   64   64   64] L[  16  16  16] P[  4  4  4]
Q1  7 e_max 6.36e-04( 2.0) e_L2 4.08e-04( 2.2) r_2 7.90e-02(-0.2) G[  128  128  128] L[  32  32  32] P[  4  4  4]
Q1  8 e_max 1.60e-04( 2.0) e_L2 9.31e-05( 2.1) r_2 8.54e-02(-0.1) G[  256  256  256] L[  64  64  64] P[  4  4  4]
Q1 G[  256  256  256] P[  4  4  4] SR[0]  2.080e+00 s  145.175682 GF    8.161462 MEq/s
Max memory per MPI rank: 0.000059 GB
Starting performance sampling
Q1 G[  256  256  256] P[  4  4  4] SR[0]  1.380e+00 s  165.545544 GF   12.118633 MEq/s
Q1 G[  256  256  256] P[  4  4  4] SR[0]  1.368e+00 s  169.245544 GF   12.389488 MEq/s
Q1 G[  256  256  256] P[  4  4  4] SR[0]  1.359e+00 s  170.038996 GF   12.447572 MEq/s
Q1 G[  256  256  256] P[  4  4  4] SR[0]  1.354e+00 s  171.147048 GF   12.528686 MEq/s
Q1 G[  256  256  256] P[  4  4  4] SR[0]  1.388e+00 s  166.009299 GF   12.152581 MEq/s
Q1 G[  256  256  256] P[  4  4  4] SR[0]  1.456e+00 s  158.957578 GF   11.636366 MEq/s
Q1 G[  256  256  256] P[  4  4  4] SR[0]  1.414e+00 s  161.491818 GF   11.821883 MEq/s
Q1 G[  256  256  256] P[  4  4  4] SR[0]  1.417e+00 s  161.843618 GF   11.847636 MEq/s
************************************************************************************************************************
***             WIDEN YOUR WINDOW TO 120 CHARACTERS.  Use 'enscript -r -fCourier9' to print this document            ***
************************************************************************************************************************

---------------------------------------------- PETSc Performance Summary: ----------------------------------------------

/global/u1/s/shenneki/hpgmg-fe-sr/./build/bin/hpgmg-fe on a sandybridge named nid00008 with 64 processors, by shenneki Fri Apr  8 21:29:20 2016
Using Petsc Release Version 3.6.1, Jul, 22, 2015 

                         Max       Max/Min        Avg      Total 
Time (sec):           1.793e+01      1.00001   1.793e+01
Objects:              8.590e+02      1.97018   4.521e+02
Flops:                4.582e+10      1.00249   4.572e+10  2.926e+12
Flops/sec:            2.556e+09      1.00248   2.550e+09  1.632e+11
MPI Messages:         1.971e+04      4.20792   1.008e+04  6.453e+05
MPI Message Lengths:  4.297e+07      1.34714   3.742e+03  2.415e+09
MPI Reductions:       3.400e+02      1.18056

Flop counting convention: 1 flop = 1 real number operation of type (multiply/divide/add/subtract)
                            e.g., VecAXPY() for real vectors of length N --> 2N flops
                            and VecAXPY() for complex vectors of length N --> 8N flops

Summary of Stages:   ----- Time ------  ----- Flops -----  --- Messages ---  -- Message Lengths --  -- Reductions --
                        Avg     %Total     Avg     %Total   counts   %Total     Avg         %Total   counts   %Total 
 0:      Main Stage: 1.7926e+01 100.0%  2.9261e+12 100.0%  6.453e+05 100.0%  3.742e+03      100.0%  2.935e+02  86.3% 

------------------------------------------------------------------------------------------------------------------------
See the 'Profiling' chapter of the users' manual for details on interpreting output.
Phase summary info:
   Count: number of times phase was executed
   Time and Flops: Max - maximum over all processors
                   Ratio - ratio of maximum to minimum over all processors
   Mess: number of messages sent
   Avg. len: average message length (bytes)
   Reduct: number of global reductions
   Global: entire computation
   Stage: stages of a computation. Set stages with PetscLogStagePush() and PetscLogStagePop().
      %T - percent time in this phase         %F - percent flops in this phase
      %M - percent messages in this phase     %L - percent message lengths in this phase
      %R - percent reductions in this phase
   Total Mflop/s: 10e-6 * (sum of flops over all processors)/(max time over all processors)
------------------------------------------------------------------------------------------------------------------------
Event                Count      Time (sec)     Flops                             --- Global ---  --- Stage ---   Total
                   Max Ratio  Max     Ratio   Max  Ratio  Mess   Avg len Reduct  %T %F %M %L %R  %T %F %M %L %R Mflop/s
------------------------------------------------------------------------------------------------------------------------

--- Event Stage 0: Main Stage

                      66 0.0 1.4123e+01 0.0 3.69e+10 0.0 5.7e+05 2.9e+03 4.9e+01 77 79 89 69 14  77 79 89 69 17 164269
OpRestrictState      360 2.4 4.8591e-02 4.3 0.00e+00 0.0 1.2e+04 2.2e+04 0.0e+00  0  0  2 11  0   0  0  2 11  0     0
OpRestrictResid      440 2.2 1.4615e-01 1.2 2.39e+07 1.0 6.3e+04 7.8e+03 0.0e+00  1  0 10 20  0   1  0 10 20  0 10441
OpInterpolate        440 2.2 2.4339e-01 1.5 2.39e+07 1.0 5.6e+04 8.2e+03 0.0e+00  1  0  9 19  0   1  0  9 19  0  6270
OpForcing              3 1.0 9.1527e-01 1.0 1.26e+09 1.0 2.1e+03 1.0e+04 0.0e+00  5  3  0  1  0   5  3  0  1  0 88041
OpIntegNorms           9 1.8 3.8768e-01 1.0 4.77e+08 1.0 1.4e+03 4.6e+03 1.0e+01  2  1  0  0  3   2  1  0  0  3 78737
OpGetDiagonal         27 1.8 1.7903e+00 1.0 7.14e+09 1.0 1.8e+04 2.2e+03 0.0e+00 10 16  3  2  0  10 16  3  2  0 255017
SFSetGraph           150 1.7 1.8155e-02 1.4 0.00e+00 0.0 0.0e+00 0.0e+00 0.0e+00  0  0  0  0  0   0  0  0  0  0     0
SFBcastBegin        2732 2.5 2.3125e-02 2.7 0.00e+00 0.0 3.1e+05 3.1e+03 0.0e+00  0  0 48 39  0   0  0 48 39  0     0
SFBcastEnd          2732 2.5 4.0058e-01 2.3 0.00e+00 0.0 0.0e+00 0.0e+00 0.0e+00  2  0  0  0  0   2  0  0  0  0     0
SFReduceBegin       3113 2.5 2.0746e-01 1.9 0.00e+00 0.0 3.3e+05 4.4e+03 0.0e+00  1  0 52 61  0   1  0 52 61  0     0
SFReduceEnd         3113 2.5 4.6533e-01 2.0 0.00e+00 0.0 0.0e+00 0.0e+00 0.0e+00  2  0  0  0  0   2  0  0  0  0     0
VecDot                90 0.0 3.8385e-05 0.0 1.35e+03 0.0 0.0e+00 0.0e+00 0.0e+00  0  0  0  0  0   0  0  0  0  0    35
VecTDot               90 0.0 1.2922e-04 0.0 1.35e+03 0.0 0.0e+00 0.0e+00 0.0e+00  0  0  0  0  0   0  0  0  0  0    10
VecNorm               18 1.8 7.1431e-0249.4 1.27e+06 1.1 0.0e+00 0.0e+00 1.0e+01  0  0  0  0  3   0  0  0  0  3  1088
VecCopy              720 2.9 2.5287e-03 1.1 0.00e+00 0.0 0.0e+00 0.0e+00 0.0e+00  0  0  0  0  0   0  0  0  0  0     0
VecSet              5824 2.6 4.2297e-02 1.1 0.00e+00 0.0 0.0e+00 0.0e+00 0.0e+00  0  0  0  0  0   0  0  0  0  0     0
VecAXPY              720 2.9 4.6327e-03 1.3 8.26e+06 1.1 0.0e+00 0.0e+00 0.0e+00  0  0  0  0  0   0  0  0  0  0 108333
VecAYPX             2619 2.5 3.2447e-02 1.1 3.31e+07 1.1 0.0e+00 0.0e+00 0.0e+00  0  0  0  0  0   0  0  0  0  0 62359
VecAXPBYCZ           720 2.4 1.2244e-02 1.1 3.65e+07 1.1 0.0e+00 0.0e+00 0.0e+00  0  0  0  0  0   0  0  0  0  0 181849
VecPointwiseMult    1647 2.7 2.2290e-02 1.1 1.55e+07 1.1 0.0e+00 0.0e+00 0.0e+00  0  0  0  0  0   0  0  0  0  0 42573
MatMult             1530 2.5 1.1061e+01 1.0 2.82e+10 1.0 3.4e+05 2.0e+03 0.0e+00 61 62 53 29  0  61 62 53 29  0 163004
KSPSetUp              27 1.8 9.7497e-03 1.2 0.00e+00 0.0 0.0e+00 0.0e+00 0.0e+00  0  0  0  0  0   0  0  0  0  0     0
KSPSolve             810 2.7 1.1131e+01 1.0 2.83e+10 1.0 3.4e+05 2.0e+03 0.0e+00 62 62 53 29  0  62 62 53 29  0 162423
PCSetUp               27 1.8 6.9141e-06 7.2 0.00e+00 0.0 0.0e+00 0.0e+00 0.0e+00  0  0  0  0  0   0  0  0  0  0     0
PCApply             1647 2.7 1.8199e+00 1.0 7.15e+09 1.0 1.8e+04 2.2e+03 3.1e+01 10 16  3  2  9  10 16  3  2 10 251392
------------------------------------------------------------------------------------------------------------------------

Memory usage is given in bytes:

Object Type          Creations   Destructions     Memory  Descendants' Mem.
Reports information only for process 0.

--- Event Stage 0: Main Stage

Star Forest Bipartite Graph   258            258       209160     0
              Vector   411            411    117785928     0
              Matrix    27             27        65880     0
    Distributed Mesh    54             54       242352     0
     Discrete System    54             54        45360     0
       Krylov Solver    27             27        33384     0
      Preconditioner    27             27        22680     0
              Viewer     1              0            0     0
========================================================================================================================
Average time to get PetscTime(): 0
Average time for MPI_Barrier(): 1.5974e-05
Average time for zero size MPI_Send(): 4.28408e-06
#PETSc Option Table entries:
-local 262144,262145
-log_summary
-op_type poisson1
-repeat 8
-smooth 3,1
-sr_levels 0
-sr_max_buf 0
#End of PETSc Option Table entries
Compiled without FORTRAN kernels
Compiled with full precision matrices (default)
sizeof(short) 2 sizeof(int) 4 sizeof(long) 8 sizeof(void*) 8 sizeof(PetscScalar) 8 sizeof(PetscInt) 4
Configure options: --known-mpi-int64_t=0 --known-bits-per-byte=8 --known-sdot-returns-double=0 --known-snrm2-returns-double=0 --known-level1-dcache-assoc=0 --known-level1-dcache-linesize=32 --known-level1-dcache-size=32768 --known-memcmp-ok=1 --known-mpi-c-double-complex=1 --known-mpi-long-double=1 --known-mpi-shared-libraries=0 --known-sizeof-MPI_Comm=4 --known-sizeof-MPI_Fint=4 --known-sizeof-char=1 --known-sizeof-double=8 --known-sizeof-float=4 --known-sizeof-int=4 --known-sizeof-long-long=8 --known-sizeof-long=8 --known-sizeof-short=2 --known-sizeof-size_t=8 --known-sizeof-void-p=8 --with-ar=ar --with-batch=1 --with-cc=cc --with-clib-autodetect=0 --with-cxx=CC --with-cxxlib-autodetect=0 --with-debugging=0 --with-dependencies=0 --with-fc=ftn --with-fortran-datatypes=0 --with-fortran-interfaces=0 --with-fortranlib-autodetect=0 --with-ranlib=ranlib --with-scalar-type=real --with-shared-ld=ar --with-etags=0 --with-dependencies=0 --with-ssl=0 --with-dependencies=0 --with-mpi-dir=/opt/cray/mpt/7.2.5.1/gni/mpich2-intel/14.0 --with-blas-lapack-lib="-L/opt/cray/libsci/13.2.0/INTEL/14.0/x86_64/lib -lsci_intel_mp" --with-superlu=1 --with-superlu-include=/opt/cray/tpsl/1.5.2/INTEL/14.0/sandybridge/include --with-superlu-lib="-L/opt/cray/tpsl/1.5.2/INTEL/14.0/sandybridge/lib -lsuperlu" --with-superlu_dist=1 --with-superlu_dist-include=/opt/cray/tpsl/1.5.2/INTEL/14.0/sandybridge/include --with-superlu_dist-lib="-L/opt/cray/tpsl/1.5.2/INTEL/14.0/sandybridge/lib -lsuperlu_dist" --with-parmetis=1 --with-parmetis-include=/opt/cray/tpsl/1.5.2/INTEL/14.0/sandybridge/include --with-parmetis-lib="-L/opt/cray/tpsl/1.5.2/INTEL/14.0/sandybridge/lib -lparmetis" --with-metis=1 --with-metis-include=/opt/cray/tpsl/1.5.2/INTEL/14.0/sandybridge/include --with-metis-lib="-L/opt/cray/tpsl/1.5.2/INTEL/14.0/sandybridge/lib -lmetis" --with-ptscotch=1 --with-ptscotch-include=/opt/cray/tpsl/1.5.2/INTEL/14.0/sandybridge/include --with-ptscotch-lib="-L/opt/cray/tpsl/1.5.2/INTEL/14.0/sandybridge/lib -lptscotch -lscotch -lptscotcherr -lscotcherr" --with-scalapack=1 --with-scalapack-include=/opt/cray/libsci/13.2.0/INTEL/14.0/x86_64/include --with-scalapack-lib="-L/opt/cray/libsci/13.2.0/INTEL/14.0/x86_64/lib -lsci_intel_mpi_mp -lsci_intel_mp" --with-mumps=1 --with-mumps-include=/opt/cray/tpsl/1.5.2/INTEL/14.0/sandybridge/include --with-mumps-lib="-L/opt/cray/tpsl/1.5.2/INTEL/14.0/sandybridge/lib -lcmumps -ldmumps -lesmumps -lsmumps -lzmumps -lmumps_common -lptesmumps -lpord" --CFLAGS="-xavx -openmp -O3 " --CXXFLAGS="-xavx -openmp -O3  " --FFLAGS="-xavx -openmp -O3  " --LIBS=-lstdc++ --CXX_LINKER_FLAGS= --PETSC_ARCH=sandybridge --prefix=/opt/cray/pe/petsc/3.6.1.0/real/INTEL/14.0/sandybridge --with-hypre=1 --with-hypre-include=/opt/cray/tpsl/1.5.2/INTEL/14.0/sandybridge/include --with-hypre-lib="-L/opt/cray/tpsl/1.5.2/INTEL/14.0/sandybridge/lib -lHYPRE" --with-sundials=1 --with-sundials-include=/opt/cray/tpsl/1.5.2/INTEL/14.0/sandybridge/include --with-sundials-lib="-L/opt/cray/tpsl/1.5.2/INTEL/14.0/sandybridge/lib -lsundials_cvode -lsundials_cvodes -lsundials_ida -lsundials_idas -lsundials_kinsol -lsundials_nvecparallel -lsundials_nvecserial"
