N = 171
n = 24*SLURM_JOB_NUM_NODES
Nodes: nid00[008-039,076-081,092-127,136-157,180-191,200-255,264-270]
JobId: 325187
Fri Apr  8 21:28:55 PDT 2016
Fri Apr  8 21:28:55 PDT 2016
Fri Apr  8 21:28:55 PDT 2016
Fri Apr  8 21:28:55 PDT 2016
Fri Apr  8 21:28:55 PDT 2016
Fri Apr  8 21:28:55 PDT 2016
Fri Apr  8 21:28:55 PDT 2016
Fri Apr  8 21:29:21 PDT 2016
Fri Apr  8 21:29:37 PDT 2016
Fri Apr  8 21:29:52 PDT 2016
Fri Apr  8 21:30:04 PDT 2016
Fri Apr  8 21:30:14 PDT 2016
Fri Apr  8 21:30:25 PDT 2016
Fri Apr  8 21:30:39 PDT 2016
