Finite Element FAS Performance Sampler on process grid [8 8 8] = 512
Max memory per MPI rank: 0.000010 GB
Small Test G[  512  512  512]
Q1 G[  512  512  512] P[  8  8  8] SR[0]  1.635e+00 s  1126.992120 GF   82.021926 MEq/s
Large Test G[  512  512  512]
Q1  0 e_max 1.00e+00( 0.0) e_L2 1.00e+00( 0.0) r_2 0.00e+00( 0.0) G[    1    1    1] L[   1   1   1] P[  1  1  1]
Q1  1 e_max 1.00e+00( 0.0) e_L2 1.00e+00( 0.0) r_2 3.52e-03( 0.0) G[    2    2    2] L[   2   2   2] P[  1  1  1]
Q1  2 e_max 4.48e-01( 1.2) e_L2 5.28e-01( 0.9) r_2 5.56e-03(-0.7) G[    4    4    4] L[   4   4   4] P[  1  1  1]
Q1  3 e_max 1.34e-01( 1.7) e_L2 1.38e-01( 1.9) r_2 6.26e-03(-0.2) G[    8    8    8] L[   4   4   4] P[  2  2  2]
Q1  4 e_max 3.60e-02( 1.9) e_L2 3.45e-02( 2.0) r_2 1.55e-02(-1.3) G[   16   16   16] L[   4   4   4] P[  4  4  4]
Q1  5 e_max 9.53e-03( 1.9) e_L2 8.08e-03( 2.1) r_2 4.34e-02(-1.5) G[   32   32   32] L[   4   4   4] P[  8  8  8]
Q1  6 e_max 2.50e-03( 1.9) e_L2 1.82e-03( 2.1) r_2 6.65e-02(-0.6) G[   64   64   64] L[   8   8   8] P[  8  8  8]
Q1  7 e_max 2.59e-03(-0.1) e_L2 2.24e-03(-0.3) r_2 7.30e-02(-0.1) G[  128  128  128] L[  16  16  16] P[  8  8  8] [SR], buf=2
Q1  8 e_max 1.60e-03( 0.7) e_L2 1.39e-03( 0.7) r_2 8.48e-02(-0.2) G[  256  256  256] L[  32  32  32] P[  8  8  8] [SR], buf=4
Q1  9 e_max 3.13e-03(-1.0) e_L2 3.19e-03(-1.2) r_2 9.12e-02(-0.1) G[  512  512  512] L[  64  64  64] P[  8  8  8] [SR], buf=8
Q1 G[  512  512  512] P[  8  8  8] SR[3]  3.364e+00 s  1160.764965 GF   40.127791 MEq/s
Max memory per MPI rank: 0.000101 GB
Starting performance sampling
Q1 G[  512  512  512] P[  8  8  8] SR[3]  2.551e+00 s  1254.481917 GF   50.634917 MEq/s
Q1 G[  512  512  512] P[  8  8  8] SR[3]  2.638e+00 s  1215.127980 GF   49.046466 MEq/s
Q1 G[  512  512  512] P[  8  8  8] SR[3]  2.535e+00 s  1262.333083 GF   50.951815 MEq/s
************************************************************************************************************************
***             WIDEN YOUR WINDOW TO 120 CHARACTERS.  Use 'enscript -r -fCourier9' to print this document            ***
************************************************************************************************************************

---------------------------------------------- PETSc Performance Summary: ----------------------------------------------

/global/u1/s/shenneki/hpgmg-fe-sr/./build/bin/hpgmg-fe on a sandybridge named nid00056 with 512 processors, by shenneki Sun Apr  3 17:21:49 2016
Using Petsc Release Version 3.6.1, Jul, 22, 2015 

                         Max       Max/Min        Avg      Total 
Time (sec):           1.766e+01      1.00001   1.766e+01
Objects:              9.100e+02      2.06818   4.528e+02
Flops:                4.587e+10      1.28495   4.309e+10  2.206e+13
Flops/sec:            2.597e+09      1.28495   2.440e+09  1.249e+12
MPI Messages:         1.349e+04      6.32997   5.989e+03  3.066e+06
MPI Message Lengths:  3.017e+07      1.96985   4.323e+03  1.326e+10
MPI Reductions:       3.180e+02      1.48598

Flop counting convention: 1 flop = 1 real number operation of type (multiply/divide/add/subtract)
                            e.g., VecAXPY() for real vectors of length N --> 2N flops
                            and VecAXPY() for complex vectors of length N --> 8N flops

Summary of Stages:   ----- Time ------  ----- Flops -----  --- Messages ---  -- Message Lengths --  -- Reductions --
                        Avg     %Total     Avg     %Total   counts   %Total     Avg         %Total   counts   %Total 
 0:      Main Stage: 1.7662e+01 100.0%  2.2061e+13 100.0%  3.066e+06 100.0%  4.323e+03      100.0%  2.203e+02  69.3% 

------------------------------------------------------------------------------------------------------------------------
See the 'Profiling' chapter of the users' manual for details on interpreting output.
Phase summary info:
   Count: number of times phase was executed
   Time and Flops: Max - maximum over all processors
                   Ratio - ratio of maximum to minimum over all processors
   Mess: number of messages sent
   Avg. len: average message length (bytes)
   Reduct: number of global reductions
   Global: entire computation
   Stage: stages of a computation. Set stages with PetscLogStagePush() and PetscLogStagePop().
      %T - percent time in this phase         %F - percent flops in this phase
      %M - percent messages in this phase     %L - percent message lengths in this phase
      %R - percent reductions in this phase
   Total Mflop/s: 10e-6 * (sum of flops over all processors)/(max time over all processors)
------------------------------------------------------------------------------------------------------------------------
Event                Count      Time (sec)     Flops                             --- Global ---  --- Stage ---   Total
                   Max Ratio  Max     Ratio   Max  Ratio  Mess   Avg len Reduct  %T %F %M %L %R  %T %F %M %L %R Mflop/s
------------------------------------------------------------------------------------------------------------------------

--- Event Stage 0: Main Stage

                      42 0.0 1.2546e+01 0.0 3.25e+10 0.0 2.6e+06 1.7e+03 3.6e+01 70 70 84 33 11  70 70 84 33 16 1236674
OpRestrictState      201 3.9 1.2890e-02 7.6 0.00e+00 0.0 3.6e+04 7.3e+03 0.0e+00  0  0  1  2  0   0  0  1  2  0     0
OpRestrictResid      250 3.1 1.3677e-01 6.0 3.00e+06 1.1 4.0e+05 1.4e+03 0.0e+00  0  0 13  4  0   0  0 13  4  0 10968
OpInterpolate        250 3.1 1.0718e-01 4.1 3.00e+06 1.1 3.3e+05 1.4e+03 0.0e+00  1  0 11  4  0   1  0 11  4  0 13996
OpForcing              3 1.0 9.8113e-01 1.0 1.26e+09 1.0 5.8e+04 5.0e+04 0.0e+00  6  3  2 22  0   6  3  2 22  0 657047
OpIntegNorms          10 2.0 3.8830e-01 1.0 4.77e+08 1.0 3.6e+04 3.0e+04 1.0e+01  2  1  1  8  3   2  1  1  8  5 628886
OpGetDiagonal         30 2.0 2.9659e+00 1.3 1.17e+10 1.3 1.2e+05 1.1e+03 0.0e+00 16 25  4  1  0  16 25  4  1  0 1895212
SFSetGraph           168 1.9 8.2675e-02 2.2 0.00e+00 0.0 0.0e+00 0.0e+00 0.0e+00  0  0  0  0  0   0  0  0  0  0     0
SFBcastBegin        1577 3.9 3.5560e-02 3.8 0.00e+00 0.0 1.6e+06 4.7e+03 0.0e+00  0  0 51 55  0   0  0 51 55  0     0
SFBcastEnd          1577 3.9 2.1977e+0022.2 0.00e+00 0.0 0.0e+00 0.0e+00 0.0e+00  3  0  0  0  0   3  0  0  0  0     0
SFReduceBegin       1791 3.9 8.3388e-02 1.9 0.00e+00 0.0 1.5e+06 4.0e+03 0.0e+00  0  0 49 45  0   0  0 49 45  0     0
SFReduceEnd         1791 3.9 2.2496e+0090.2 0.00e+00 0.0 0.0e+00 0.0e+00 0.0e+00  2  0  0  0  0   2  0  0  0  0     0
VecDot                50 0.0 2.5749e-05 0.0 7.50e+02 0.0 0.0e+00 0.0e+00 0.0e+00  0  0  0  0  0   0  0  0  0  0    29
VecTDot               50 0.0 1.2803e-04 0.0 7.50e+02 0.0 0.0e+00 0.0e+00 0.0e+00  0  0  0  0  0   0  0  0  0  0     6
VecNorm               20 2.0 1.1535e-02 7.9 1.27e+06 1.1 0.0e+00 0.0e+00 1.0e+01  0  0  0  0  3   0  0  0  0  5 53558
VecCopy              476 3.2 3.6610e-02 2.2 0.00e+00 0.0 0.0e+00 0.0e+00 0.0e+00  0  0  0  0  0   0  0  0  0  0     0
VecSet              3608 3.4 1.6458e-01 1.9 0.00e+00 0.0 0.0e+00 0.0e+00 0.0e+00  1  0  0  0  0   1  0  0  0  0     0
VecAXPY              450 3.6 1.5383e-02 3.2 7.10e+06 1.3 0.0e+00 0.0e+00 0.0e+00  0  0  0  0  0   0  0  0  0  0 220942
VecAYPX             1635 3.1 8.8968e-02 3.6 2.86e+07 1.3 0.0e+00 0.0e+00 0.0e+00  0  0  0  0  0   0  0  0  0  0 154163
VecAXPBYCZ           450 3.0 3.3403e-02 3.5 3.15e+07 1.3 0.0e+00 0.0e+00 0.0e+00  0  0  0  0  0   0  0  0  0  0 451090
VecPointwiseMult    1030 3.3 7.7720e-02 4.2 1.41e+07 1.3 0.0e+00 0.0e+00 0.0e+00  0  0  0  0  0   0  0  0  0  0 86997
MatMult              950 3.2 9.6580e+00 1.3 2.48e+10 1.3 1.2e+06 6.4e+02 0.0e+00 51 54 40  6  0  51 54 40  6  0 1226847
KSPSetUp              30 2.0 2.4827e-02 1.5 0.00e+00 0.0 0.0e+00 0.0e+00 0.0e+00  0  0  0  0  0   0  0  0  0  0     0
KSPSolve             500 3.3 9.8228e+00 1.3 2.48e+10 1.3 1.2e+06 6.4e+02 0.0e+00 52 54 40  6  0  52 54 40  6  0 1209638
PCSetUp               30 2.0 1.5974e-0516.8 0.00e+00 0.0 0.0e+00 0.0e+00 0.0e+00  0  0  0  0  0   0  0  0  0  0     0
PCApply             1030 3.3 3.0309e+00 1.3 1.17e+10 1.3 1.2e+05 1.1e+03 1.9e+01 16 26  4  1  6  16 26  4  1  9 1856810
------------------------------------------------------------------------------------------------------------------------

Memory usage is given in bytes:

Object Type          Creations   Destructions     Memory  Descendants' Mem.
Reports information only for process 0.

--- Event Stage 0: Main Stage

Star Forest Bipartite Graph   288            288       232568     0
              Vector   411            411    141478896     0
              Matrix    30             30        73200     0
    Distributed Mesh    60             60       269280     0
     Discrete System    60             60        50400     0
       Krylov Solver    30             30        37104     0
      Preconditioner    30             30        25200     0
              Viewer     1              0            0     0
========================================================================================================================
Average time to get PetscTime(): 0
Average time for MPI_Barrier(): 2.05994e-05
Average time for zero size MPI_Send(): 2.78139e-06
#PETSc Option Table entries:
-local 262144,262145
-log_summary
-op_type poisson1
-repeat 3
-smooth 3,1
-sr_levels 3
-sr_max_buf 1
#End of PETSc Option Table entries
Compiled without FORTRAN kernels
Compiled with full precision matrices (default)
sizeof(short) 2 sizeof(int) 4 sizeof(long) 8 sizeof(void*) 8 sizeof(PetscScalar) 8 sizeof(PetscInt) 4
Configure options: --known-mpi-int64_t=0 --known-bits-per-byte=8 --known-sdot-returns-double=0 --known-snrm2-returns-double=0 --known-level1-dcache-assoc=0 --known-level1-dcache-linesize=32 --known-level1-dcache-size=32768 --known-memcmp-ok=1 --known-mpi-c-double-complex=1 --known-mpi-long-double=1 --known-mpi-shared-libraries=0 --known-sizeof-MPI_Comm=4 --known-sizeof-MPI_Fint=4 --known-sizeof-char=1 --known-sizeof-double=8 --known-sizeof-float=4 --known-sizeof-int=4 --known-sizeof-long-long=8 --known-sizeof-long=8 --known-sizeof-short=2 --known-sizeof-size_t=8 --known-sizeof-void-p=8 --with-ar=ar --with-batch=1 --with-cc=cc --with-clib-autodetect=0 --with-cxx=CC --with-cxxlib-autodetect=0 --with-debugging=0 --with-dependencies=0 --with-fc=ftn --with-fortran-datatypes=0 --with-fortran-interfaces=0 --with-fortranlib-autodetect=0 --with-ranlib=ranlib --with-scalar-type=real --with-shared-ld=ar --with-etags=0 --with-dependencies=0 --with-ssl=0 --with-dependencies=0 --with-mpi-dir=/opt/cray/mpt/7.2.5.1/gni/mpich2-intel/14.0 --with-blas-lapack-lib="-L/opt/cray/libsci/13.2.0/INTEL/14.0/x86_64/lib -lsci_intel_mp" --with-superlu=1 --with-superlu-include=/opt/cray/tpsl/1.5.2/INTEL/14.0/sandybridge/include --with-superlu-lib="-L/opt/cray/tpsl/1.5.2/INTEL/14.0/sandybridge/lib -lsuperlu" --with-superlu_dist=1 --with-superlu_dist-include=/opt/cray/tpsl/1.5.2/INTEL/14.0/sandybridge/include --with-superlu_dist-lib="-L/opt/cray/tpsl/1.5.2/INTEL/14.0/sandybridge/lib -lsuperlu_dist" --with-parmetis=1 --with-parmetis-include=/opt/cray/tpsl/1.5.2/INTEL/14.0/sandybridge/include --with-parmetis-lib="-L/opt/cray/tpsl/1.5.2/INTEL/14.0/sandybridge/lib -lparmetis" --with-metis=1 --with-metis-include=/opt/cray/tpsl/1.5.2/INTEL/14.0/sandybridge/include --with-metis-lib="-L/opt/cray/tpsl/1.5.2/INTEL/14.0/sandybridge/lib -lmetis" --with-ptscotch=1 --with-ptscotch-include=/opt/cray/tpsl/1.5.2/INTEL/14.0/sandybridge/include --with-ptscotch-lib="-L/opt/cray/tpsl/1.5.2/INTEL/14.0/sandybridge/lib -lptscotch -lscotch -lptscotcherr -lscotcherr" --with-scalapack=1 --with-scalapack-include=/opt/cray/libsci/13.2.0/INTEL/14.0/x86_64/include --with-scalapack-lib="-L/opt/cray/libsci/13.2.0/INTEL/14.0/x86_64/lib -lsci_intel_mpi_mp -lsci_intel_mp" --with-mumps=1 --with-mumps-include=/opt/cray/tpsl/1.5.2/INTEL/14.0/sandybridge/include --with-mumps-lib="-L/opt/cray/tpsl/1.5.2/INTEL/14.0/sandybridge/lib -lcmumps -ldmumps -lesmumps -lsmumps -lzmumps -lmumps_common -lptesmumps -lpord" --CFLAGS="-xavx -openmp -O3 " --CXXFLAGS="-xavx -openmp -O3  " --FFLAGS="-xavx -openmp -O3  " --LIBS=-lstdc++ --CXX_LINKER_FLAGS= --PETSC_ARCH=sandybridge --prefix=/opt/cray/pe/petsc/3.6.1.0/real/INTEL/14.0/sandybridge --with-hypre=1 --with-hypre-include=/opt/cray/tpsl/1.5.2/INTEL/14.0/sandybridge/include --with-hypre-lib="-L/opt/cray/tpsl/1.5.2/INTEL/14.0/sandybridge/lib -lHYPRE" --with-sundials=1 --with-sundials-include=/opt/cray/tpsl/1.5.2/INTEL/14.0/sandybridge/include --with-sundials-lib="-L/opt/cray/tpsl/1.5.2/INTEL/14.0/sandybridge/lib -lsundials_cvode -lsundials_cvodes -lsundials_ida -lsundials_idas -lsundials_kinsol -lsundials_nvecparallel -lsundials_nvecserial"
