Finite Element FAS Performance Sampler on process grid [8 8 8] = 512
Max memory per MPI rank: 0.000010 GB
Small Test G[  512  512  512]
Q1 G[  512  512  512] P[  8  8  8] SR[0]  1.634e+00 s  1128.211405 GF   82.110665 MEq/s
Large Test G[  512  512  512]
Q1  0 e_max 1.00e+00( 0.0) e_L2 1.00e+00( 0.0) r_2 0.00e+00( 0.0) G[    1    1    1] L[   1   1   1] P[  1  1  1]
Q1  1 e_max 1.00e+00( 0.0) e_L2 1.00e+00( 0.0) r_2 3.52e-03( 0.0) G[    2    2    2] L[   2   2   2] P[  1  1  1]
Q1  2 e_max 4.48e-01( 1.2) e_L2 5.28e-01( 0.9) r_2 5.56e-03(-0.7) G[    4    4    4] L[   4   4   4] P[  1  1  1]
Q1  3 e_max 1.34e-01( 1.7) e_L2 1.38e-01( 1.9) r_2 6.26e-03(-0.2) G[    8    8    8] L[   4   4   4] P[  2  2  2]
Q1  4 e_max 3.60e-02( 1.9) e_L2 3.45e-02( 2.0) r_2 1.55e-02(-1.3) G[   16   16   16] L[   4   4   4] P[  4  4  4]
Q1  5 e_max 9.53e-03( 1.9) e_L2 8.08e-03( 2.1) r_2 4.34e-02(-1.5) G[   32   32   32] L[   4   4   4] P[  8  8  8]
Q1  6 e_max 2.50e-03( 1.9) e_L2 1.82e-03( 2.1) r_2 6.65e-02(-0.6) G[   64   64   64] L[   8   8   8] P[  8  8  8]
Q1  7 e_max 6.36e-04( 2.0) e_L2 4.08e-04( 2.2) r_2 7.90e-02(-0.2) G[  128  128  128] L[  16  16  16] P[  8  8  8]
Q1  8 e_max 1.60e-04( 2.0) e_L2 9.31e-05( 2.1) r_2 8.54e-02(-0.1) G[  256  256  256] L[  32  32  32] P[  8  8  8]
Q1  9 e_max 4.02e-05( 2.0) e_L2 2.18e-05( 2.1) r_2 8.86e-02(-0.1) G[  512  512  512] L[  64  64  64] P[  8  8  8]
Q1 G[  512  512  512] P[  8  8  8] SR[0]  2.242e+00 s  1077.203645 GF   60.206536 MEq/s
Max memory per MPI rank: 0.000059 GB
Starting performance sampling
Q1 G[  512  512  512] P[  8  8  8] SR[0]  1.613e+00 s  1143.886549 GF   83.251494 MEq/s
Q1 G[  512  512  512] P[  8  8  8] SR[0]  1.592e+00 s  1158.202702 GF   84.293417 MEq/s
Q1 G[  512  512  512] P[  8  8  8] SR[0]  1.593e+00 s  1158.181150 GF   84.291848 MEq/s
************************************************************************************************************************
***             WIDEN YOUR WINDOW TO 120 CHARACTERS.  Use 'enscript -r -fCourier9' to print this document            ***
************************************************************************************************************************

---------------------------------------------- PETSc Performance Summary: ----------------------------------------------

/global/u1/s/shenneki/hpgmg-fe-sr/./build/bin/hpgmg-fe on a sandybridge named nid00056 with 512 processors, by shenneki Sun Apr  3 17:14:28 2016
Using Petsc Release Version 3.6.1, Jul, 22, 2015 

                         Max       Max/Min        Avg      Total 
Time (sec):           1.207e+01      1.00003   1.207e+01
Objects:              9.060e+02      2.07798   4.488e+02
Flops:                2.769e+10      1.00334   2.760e+10  1.413e+13
Flops/sec:            2.294e+09      1.00335   2.287e+09  1.171e+12
MPI Messages:         1.442e+04      5.83333   6.818e+03  3.491e+06
MPI Message Lengths:  2.466e+07      1.32700   3.356e+03  1.171e+10
MPI Reductions:       3.820e+02      1.37410

Flop counting convention: 1 flop = 1 real number operation of type (multiply/divide/add/subtract)
                            e.g., VecAXPY() for real vectors of length N --> 2N flops
                            and VecAXPY() for complex vectors of length N --> 8N flops

Summary of Stages:   ----- Time ------  ----- Flops -----  --- Messages ---  -- Message Lengths --  -- Reductions --
                        Avg     %Total     Avg     %Total   counts   %Total     Avg         %Total   counts   %Total 
 0:      Main Stage: 1.2071e+01 100.0%  1.4133e+13 100.0%  3.491e+06 100.0%  3.356e+03      100.0%  2.843e+02  74.4% 

------------------------------------------------------------------------------------------------------------------------
See the 'Profiling' chapter of the users' manual for details on interpreting output.
Phase summary info:
   Count: number of times phase was executed
   Time and Flops: Max - maximum over all processors
                   Ratio - ratio of maximum to minimum over all processors
   Mess: number of messages sent
   Avg. len: average message length (bytes)
   Reduct: number of global reductions
   Global: entire computation
   Stage: stages of a computation. Set stages with PetscLogStagePush() and PetscLogStagePop().
      %T - percent time in this phase         %F - percent flops in this phase
      %M - percent messages in this phase     %L - percent message lengths in this phase
      %R - percent reductions in this phase
   Total Mflop/s: 10e-6 * (sum of flops over all processors)/(max time over all processors)
------------------------------------------------------------------------------------------------------------------------
Event                Count      Time (sec)     Flops                             --- Global ---  --- Stage ---   Total
                   Max Ratio  Max     Ratio   Max  Ratio  Mess   Avg len Reduct  %T %F %M %L %R  %T %F %M %L %R Mflop/s
------------------------------------------------------------------------------------------------------------------------

--- Event Stage 0: Main Stage

                      42 0.0 8.1759e+00 0.0 1.88e+10 0.0 3.0e+06 2.5e+03 5.0e+01 67 68 87 64 13  67 68 87 64 17 1170035
OpRestrictState      225 3.0 4.0855e-02 8.1 0.00e+00 0.0 5.3e+04 2.1e+04 0.0e+00  0  0  2 10  0   0  0  2 10  0     0
OpRestrictResid      270 2.7 8.4497e-02 1.1 1.20e+07 1.0 3.5e+05 6.0e+03 0.0e+00  1  0 10 18  0   1  0 10 18  0 72237
OpInterpolate        270 2.7 1.8761e-01 1.9 1.20e+07 1.0 2.8e+05 6.6e+03 0.0e+00  1  0  8 16  0   1  0  8 16  0 32535
OpForcing              3 1.0 9.6045e-01 1.0 1.26e+09 1.0 2.1e+04 9.4e+03 0.0e+00  8  5  1  2  0   8  5  1  2  0 671196
OpIntegNorms          10 2.0 4.2895e-01 1.0 4.77e+08 1.0 1.5e+04 4.1e+03 1.0e+01  4  2  0  1  3   4  2  0  1  4 569295
OpGetDiagonal         30 2.0 2.0081e+00 1.0 7.14e+09 1.0 1.8e+05 2.0e+03 0.0e+00 16 26  5  3  0  16 26  5  3  0 1818827
SFSetGraph           168 1.9 2.0181e-02 1.4 0.00e+00 0.0 0.0e+00 0.0e+00 0.0e+00  0  0  0  0  0   0  0  0  0  0     0
SFBcastBegin        1717 3.1 3.2624e-02 4.2 0.00e+00 0.0 1.7e+06 2.6e+03 0.0e+00  0  0 48 36  0   0  0 48 36  0     0
SFBcastEnd          1717 3.1 2.2373e-01 3.0 0.00e+00 0.0 0.0e+00 0.0e+00 0.0e+00  1  0  0  0  0   1  0  0  0  0     0
SFReduceBegin       1965 3.1 1.0577e-01 2.1 0.00e+00 0.0 1.8e+06 4.1e+03 0.0e+00  1  0 52 64  0   1  0 52 64  0     0
SFReduceEnd         1965 3.1 1.9936e-01 9.7 0.00e+00 0.0 0.0e+00 0.0e+00 0.0e+00  1  0  0  0  0   1  0  0  0  0     0
VecDot                50 0.0 2.6226e-05 0.0 7.50e+02 0.0 0.0e+00 0.0e+00 0.0e+00  0  0  0  0  0   0  0  0  0  0    29
VecTDot               50 0.0 1.1754e-04 0.0 7.50e+02 0.0 0.0e+00 0.0e+00 0.0e+00  0  0  0  0  0   0  0  0  0  0     6
VecNorm               20 2.0 1.4745e-02 5.0 1.27e+06 1.1 0.0e+00 0.0e+00 1.0e+01  0  0  0  0  3   0  0  0  0  4 41897
VecCopy              450 3.6 7.7515e-03 4.8 0.00e+00 0.0 0.0e+00 0.0e+00 0.0e+00  0  0  0  0  0   0  0  0  0  0     0
VecSet              3724 3.2 9.3329e-02 1.4 0.00e+00 0.0 0.0e+00 0.0e+00 0.0e+00  1  0  0  0  0   1  0  0  0  0     0
VecAXPY              450 3.6 9.3920e-03 1.5 4.13e+06 1.1 0.0e+00 0.0e+00 0.0e+00  0  0  0  0  0   0  0  0  0  0 211855
VecAYPX             1635 3.1 5.3330e-02 2.8 1.67e+07 1.1 0.0e+00 0.0e+00 0.0e+00  0  0  0  0  0   0  0  0  0  0 152003
VecAXPBYCZ           450 3.0 2.1845e-02 2.9 1.82e+07 1.1 0.0e+00 0.0e+00 0.0e+00  0  0  0  0  0   0  0  0  0  0 404463
VecPointwiseMult    1030 3.3 4.8668e-02 3.3 8.24e+06 1.1 0.0e+00 0.0e+00 0.0e+00  0  0  0  0  0   0  0  0  0  0 82138
MatMult              950 3.2 6.2999e+00 1.0 1.41e+10 1.0 1.8e+06 1.8e+03 0.0e+00 52 51 51 28  0  52 51 51 28  0 1144782
KSPSetUp              30 2.0 1.7562e-02 1.5 0.00e+00 0.0 0.0e+00 0.0e+00 0.0e+00  0  0  0  0  0   0  0  0  0  0     0
KSPSolve             500 3.3 6.4089e+00 1.0 1.42e+10 1.0 1.8e+06 1.8e+03 0.0e+00 53 51 51 28  0  53 51 51 28  0 1128351
PCSetUp               30 2.0 1.5974e-0516.8 0.00e+00 0.0 0.0e+00 0.0e+00 0.0e+00  0  0  0  0  0   0  0  0  0  0     0
PCApply             1030 3.3 2.0629e+00 1.0 7.15e+09 1.0 1.8e+05 2.0e+03 3.1e+01 17 26  5  3  8  17 26  5  3 11 1772486
------------------------------------------------------------------------------------------------------------------------

Memory usage is given in bytes:

Object Type          Creations   Destructions     Memory  Descendants' Mem.
Reports information only for process 0.

--- Event Stage 0: Main Stage

Star Forest Bipartite Graph   288            288       233520     0
              Vector   407            407    117810912     0
              Matrix    30             30        73200     0
    Distributed Mesh    60             60       269280     0
     Discrete System    60             60        50400     0
       Krylov Solver    30             30        37104     0
      Preconditioner    30             30        25200     0
              Viewer     1              0            0     0
========================================================================================================================
Average time to get PetscTime(): 9.53674e-08
Average time for MPI_Barrier(): 4.26292e-05
Average time for zero size MPI_Send(): 2.77534e-06
#PETSc Option Table entries:
-local 262144,262145
-log_summary
-op_type poisson1
-repeat 3
-smooth 3,1
-sr_levels 0
-sr_max_buf 0
#End of PETSc Option Table entries
Compiled without FORTRAN kernels
Compiled with full precision matrices (default)
sizeof(short) 2 sizeof(int) 4 sizeof(long) 8 sizeof(void*) 8 sizeof(PetscScalar) 8 sizeof(PetscInt) 4
Configure options: --known-mpi-int64_t=0 --known-bits-per-byte=8 --known-sdot-returns-double=0 --known-snrm2-returns-double=0 --known-level1-dcache-assoc=0 --known-level1-dcache-linesize=32 --known-level1-dcache-size=32768 --known-memcmp-ok=1 --known-mpi-c-double-complex=1 --known-mpi-long-double=1 --known-mpi-shared-libraries=0 --known-sizeof-MPI_Comm=4 --known-sizeof-MPI_Fint=4 --known-sizeof-char=1 --known-sizeof-double=8 --known-sizeof-float=4 --known-sizeof-int=4 --known-sizeof-long-long=8 --known-sizeof-long=8 --known-sizeof-short=2 --known-sizeof-size_t=8 --known-sizeof-void-p=8 --with-ar=ar --with-batch=1 --with-cc=cc --with-clib-autodetect=0 --with-cxx=CC --with-cxxlib-autodetect=0 --with-debugging=0 --with-dependencies=0 --with-fc=ftn --with-fortran-datatypes=0 --with-fortran-interfaces=0 --with-fortranlib-autodetect=0 --with-ranlib=ranlib --with-scalar-type=real --with-shared-ld=ar --with-etags=0 --with-dependencies=0 --with-ssl=0 --with-dependencies=0 --with-mpi-dir=/opt/cray/mpt/7.2.5.1/gni/mpich2-intel/14.0 --with-blas-lapack-lib="-L/opt/cray/libsci/13.2.0/INTEL/14.0/x86_64/lib -lsci_intel_mp" --with-superlu=1 --with-superlu-include=/opt/cray/tpsl/1.5.2/INTEL/14.0/sandybridge/include --with-superlu-lib="-L/opt/cray/tpsl/1.5.2/INTEL/14.0/sandybridge/lib -lsuperlu" --with-superlu_dist=1 --with-superlu_dist-include=/opt/cray/tpsl/1.5.2/INTEL/14.0/sandybridge/include --with-superlu_dist-lib="-L/opt/cray/tpsl/1.5.2/INTEL/14.0/sandybridge/lib -lsuperlu_dist" --with-parmetis=1 --with-parmetis-include=/opt/cray/tpsl/1.5.2/INTEL/14.0/sandybridge/include --with-parmetis-lib="-L/opt/cray/tpsl/1.5.2/INTEL/14.0/sandybridge/lib -lparmetis" --with-metis=1 --with-metis-include=/opt/cray/tpsl/1.5.2/INTEL/14.0/sandybridge/include --with-metis-lib="-L/opt/cray/tpsl/1.5.2/INTEL/14.0/sandybridge/lib -lmetis" --with-ptscotch=1 --with-ptscotch-include=/opt/cray/tpsl/1.5.2/INTEL/14.0/sandybridge/include --with-ptscotch-lib="-L/opt/cray/tpsl/1.5.2/INTEL/14.0/sandybridge/lib -lptscotch -lscotch -lptscotcherr -lscotcherr" --with-scalapack=1 --with-scalapack-include=/opt/cray/libsci/13.2.0/INTEL/14.0/x86_64/include --with-scalapack-lib="-L/opt/cray/libsci/13.2.0/INTEL/14.0/x86_64/lib -lsci_intel_mpi_mp -lsci_intel_mp" --with-mumps=1 --with-mumps-include=/opt/cray/tpsl/1.5.2/INTEL/14.0/sandybridge/include --with-mumps-lib="-L/opt/cray/tpsl/1.5.2/INTEL/14.0/sandybridge/lib -lcmumps -ldmumps -lesmumps -lsmumps -lzmumps -lmumps_common -lptesmumps -lpord" --CFLAGS="-xavx -openmp -O3 " --CXXFLAGS="-xavx -openmp -O3  " --FFLAGS="-xavx -openmp -O3  " --LIBS=-lstdc++ --CXX_LINKER_FLAGS= --PETSC_ARCH=sandybridge --prefix=/opt/cray/pe/petsc/3.6.1.0/real/INTEL/14.0/sandybridge --with-hypre=1 --with-hypre-include=/opt/cray/tpsl/1.5.2/INTEL/14.0/sandybridge/include --with-hypre-lib="-L/opt/cray/tpsl/1.5.2/INTEL/14.0/sandybridge/lib -lHYPRE" --with-sundials=1 --with-sundials-include=/opt/cray/tpsl/1.5.2/INTEL/14.0/sandybridge/include --with-sundials-lib="-L/opt/cray/tpsl/1.5.2/INTEL/14.0/sandybridge/lib -lsundials_cvode -lsundials_cvodes -lsundials_ida -lsundials_idas -lsundials_kinsol -lsundials_nvecparallel -lsundials_nvecserial"
