srun: Warning: can't run 1 processes on 171 nodes, setting nnodes to 1
Finite Element FAS Performance Sampler on process grid [1 1 1] = 1
Max memory per MPI rank: 0.000004 GB
Small Test G[   32   32   32]
Q1 G[   32   32   32] P[  1  1  1] SR[0]  2.249e-01 s    2.015015 GF    0.159822 MEq/s
Large Test G[   32   32   32]
Q1  0 e_max 1.00e+00( 0.0) e_L2 1.00e+00( 0.0) r_2 0.00e+00( 0.0) G[    1    1    1] L[   1   1   1] P[  1  1  1]
Q1  1 e_max 1.00e+00( 0.0) e_L2 1.00e+00( 0.0) r_2 3.52e-03( 0.0) G[    2    2    2] L[   2   2   2] P[  1  1  1]
Q1  2 e_max 4.48e-01( 1.2) e_L2 5.28e-01( 0.9) r_2 5.56e-03(-0.7) G[    4    4    4] L[   4   4   4] P[  1  1  1]
Q1  3 e_max 1.34e-01( 1.7) e_L2 1.38e-01( 1.9) r_2 6.26e-03(-0.2) G[    8    8    8] L[   8   8   8] P[  1  1  1] [SR], buf=2
Q1  4 e_max 3.60e-02( 1.9) e_L2 3.45e-02( 2.0) r_2 1.55e-02(-1.3) G[   16   16   16] L[  16  16  16] P[  1  1  1] [SR], buf=4
Q1  5 e_max 9.53e-03( 1.9) e_L2 8.08e-03( 2.1) r_2 4.34e-02(-1.5) G[   32   32   32] L[  32  32  32] P[  1  1  1] [SR], buf=8
Q1 G[   32   32   32] P[  1  1  1] SR[3]  3.046e-01 s    1.936343 GF    0.117999 MEq/s
Max memory per MPI rank: 0.000011 GB
Starting performance sampling
Q1 G[   32   32   32] P[  1  1  1] SR[3]  2.227e-01 s    2.033178 GF    0.161350 MEq/s
Q1 G[   32   32   32] P[  1  1  1] SR[3]  2.190e-01 s    2.067421 GF    0.164067 MEq/s
Q1 G[   32   32   32] P[  1  1  1] SR[3]  2.190e-01 s    2.067779 GF    0.164096 MEq/s
Q1 G[   32   32   32] P[  1  1  1] SR[3]  2.188e-01 s    2.069661 GF    0.164245 MEq/s
Q1 G[   32   32   32] P[  1  1  1] SR[3]  2.189e-01 s    2.068468 GF    0.164150 MEq/s
Q1 G[   32   32   32] P[  1  1  1] SR[3]  2.189e-01 s    2.069000 GF    0.164193 MEq/s
Q1 G[   32   32   32] P[  1  1  1] SR[3]  2.189e-01 s    2.068583 GF    0.164160 MEq/s
Q1 G[   32   32   32] P[  1  1  1] SR[3]  2.181e-01 s    2.076789 GF    0.164811 MEq/s
************************************************************************************************************************
***             WIDEN YOUR WINDOW TO 120 CHARACTERS.  Use 'enscript -r -fCourier9' to print this document            ***
************************************************************************************************************************

---------------------------------------------- PETSc Performance Summary: ----------------------------------------------

/global/u1/s/shenneki/hpgmg-fe-sr/./build/bin/hpgmg-fe on a sandybridge named nid00008 with 1 processor, by shenneki Fri Apr  8 18:30:49 2016
Using Petsc Release Version 3.6.1, Jul, 22, 2015 

                         Max       Max/Min        Avg      Total 
Time (sec):           2.907e+00      1.00000   2.907e+00
Objects:              5.720e+02      1.00000   5.720e+02
Flops:                5.715e+09      1.00000   5.715e+09  5.715e+09
Flops/sec:            1.966e+09      1.00000   1.966e+09  1.966e+09
MPI Messages:         4.935e+02      1.00000   4.935e+02  4.935e+02
MPI Message Lengths:  6.148e+05      1.00000   1.246e+03  6.148e+05
MPI Reductions:       0.000e+00      0.00000

Flop counting convention: 1 flop = 1 real number operation of type (multiply/divide/add/subtract)
                            e.g., VecAXPY() for real vectors of length N --> 2N flops
                            and VecAXPY() for complex vectors of length N --> 8N flops

Summary of Stages:   ----- Time ------  ----- Flops -----  --- Messages ---  -- Message Lengths --  -- Reductions --
                        Avg     %Total     Avg     %Total   counts   %Total     Avg         %Total   counts   %Total 
 0:      Main Stage: 2.9068e+00 100.0%  5.7148e+09 100.0%  4.935e+02 100.0%  1.246e+03      100.0%  0.000e+00   0.0% 

------------------------------------------------------------------------------------------------------------------------
See the 'Profiling' chapter of the users' manual for details on interpreting output.
Phase summary info:
   Count: number of times phase was executed
   Time and Flops: Max - maximum over all processors
                   Ratio - ratio of maximum to minimum over all processors
   Mess: number of messages sent
   Avg. len: average message length (bytes)
   Reduct: number of global reductions
   Global: entire computation
   Stage: stages of a computation. Set stages with PetscLogStagePush() and PetscLogStagePop().
      %T - percent time in this phase         %F - percent flops in this phase
      %M - percent messages in this phase     %L - percent message lengths in this phase
      %R - percent reductions in this phase
   Total Mflop/s: 10e-6 * (sum of flops over all processors)/(max time over all processors)
------------------------------------------------------------------------------------------------------------------------
Event                Count      Time (sec)     Flops                             --- Global ---  --- Stage ---   Total
                   Max Ratio  Max     Ratio   Max  Ratio  Mess   Avg len Reduct  %T %F %M %L %R  %T %F %M %L %R Mflop/s
------------------------------------------------------------------------------------------------------------------------

--- Event Stage 0: Main Stage

OpRestrictState       96 1.0 4.2987e-04 1.0 0.00e+00 0.0 1.1e+02 8.2e+02 0.0e+00  0  0 22 15  0   0  0 22 15  0     0
OpRestrictResid      155 1.0 3.3188e-03 1.0 4.32e+05 1.0 1.7e+02 1.0e+03 0.0e+00  0  0 35 29  0   0  0 35 29  0   130
OpInterpolate        155 1.0 2.9685e-03 1.0 4.32e+05 1.0 1.6e+02 9.7e+02 0.0e+00  0  0 31 25  0   0  0 31 25  0   146
OpForcing              3 1.0 1.1208e-01 1.0 1.57e+08 1.0 0.0e+00 0.0e+00 0.0e+00  4  3  0  0  0   4  3  0  0  0  1404
OpIntegNorms           6 1.0 4.5905e-02 1.0 5.96e+07 1.0 0.0e+00 0.0e+00 0.0e+00  2  1  0  0  0   2  1  0  0  0  1299
OpGetDiagonal         18 1.0 3.0431e-01 1.0 8.92e+08 1.0 0.0e+00 0.0e+00 0.0e+00 10 16  0  0  0  10 16  0  0  0  2930
SFSetGraph            96 1.0 1.8649e-03 1.0 0.00e+00 0.0 0.0e+00 0.0e+00 0.0e+00  0  0  0  0  0   0  0  0  0  0     0
SFBcastBegin         845 1.0 7.4434e-04 1.0 0.00e+00 0.0 1.6e+02 9.7e+02 0.0e+00  0  0 31 25  0   0  0 31 25  0     0
SFBcastEnd           845 1.0 3.8862e-04 1.0 0.00e+00 0.0 0.0e+00 0.0e+00 0.0e+00  0  0  0  0  0   0  0  0  0  0     0
SFReduceBegin        973 1.0 2.2721e-03 1.0 0.00e+00 0.0 3.4e+02 1.4e+03 0.0e+00  0  0 69 75  0   0  0 69 75  0     0
SFReduceEnd          973 1.0 5.2333e-04 1.0 0.00e+00 0.0 0.0e+00 0.0e+00 0.0e+00  0  0  0  0  0   0  0  0  0  0     0
VecDot                60 1.0 2.5034e-05 1.0 9.00e+02 1.0 0.0e+00 0.0e+00 0.0e+00  0  0  0  0  0   0  0  0  0  0    36
VecTDot               60 1.0 7.1526e-05 1.0 9.00e+02 1.0 0.0e+00 0.0e+00 0.0e+00  0  0  0  0  0   0  0  0  0  0    13
VecNorm               12 1.0 5.0306e-05 1.0 1.67e+05 1.0 0.0e+00 0.0e+00 0.0e+00  0  0  0  0  0   0  0  0  0  0  3319
VecCopy              351 1.0 8.6713e-04 1.0 0.00e+00 0.0 0.0e+00 0.0e+00 0.0e+00  0  0  0  0  0   0  0  0  0  0     0
VecSet              2381 1.0 8.3096e-03 1.0 0.00e+00 0.0 0.0e+00 0.0e+00 0.0e+00  0  0  0  0  0   0  0  0  0  0     0
VecAXPY              300 1.0 1.0154e-03 1.0 1.11e+06 1.0 0.0e+00 0.0e+00 0.0e+00  0  0  0  0  0   0  0  0  0  0  1093
VecAYPX             1116 1.0 5.1379e-03 1.0 4.41e+06 1.0 0.0e+00 0.0e+00 0.0e+00  0  0  0  0  0   0  0  0  0  0   859
VecAXPBYCZ           300 1.0 2.4514e-03 1.0 4.86e+06 1.0 0.0e+00 0.0e+00 0.0e+00  0  0  0  0  0   0  0  0  0  0  1982
VecPointwiseMult     738 1.0 3.5582e-03 1.0 2.07e+06 1.0 0.0e+00 0.0e+00 0.0e+00  0  0  0  0  0   0  0  0  0  0   582
MatMult              660 1.0 1.6770e+00 1.0 3.52e+09 1.0 0.0e+00 0.0e+00 0.0e+00 58 62  0  0  0  58 62  0  0  0  2099
KSPSetUp              18 1.0 1.6096e-03 1.0 0.00e+00 0.0 0.0e+00 0.0e+00 0.0e+00  0  0  0  0  0   0  0  0  0  0     0
KSPSolve             360 1.0 1.6911e+00 1.0 3.53e+09 1.0 0.0e+00 0.0e+00 0.0e+00 58 62  0  0  0  58 62  0  0  0  2088
PCSetUp               18 1.0 5.7220e-06 1.0 0.00e+00 0.0 0.0e+00 0.0e+00 0.0e+00  0  0  0  0  0   0  0  0  0  0     0
PCApply              738 1.0 3.0925e-01 1.0 8.94e+08 1.0 0.0e+00 0.0e+00 0.0e+00 11 16  0  0  0  11 16  0  0  0  2890
------------------------------------------------------------------------------------------------------------------------

Memory usage is given in bytes:

Object Type          Creations   Destructions     Memory  Descendants' Mem.
Reports information only for process 0.

--- Event Stage 0: Main Stage

Star Forest Bipartite Graph   168            168       135072     0
              Vector   277            277     15982392     0
              Matrix    18             18        43920     0
    Distributed Mesh    36             36       161568     0
     Discrete System    36             36        30240     0
       Krylov Solver    18             18        22224     0
      Preconditioner    18             18        15120     0
              Viewer     1              0            0     0
========================================================================================================================
Average time to get PetscTime(): 9.53674e-08
#PETSc Option Table entries:
-local 32768,32769
-log_summary
-op_type poisson1
-repeat 8
-smooth 3,1
-sr_levels 3
-sr_max_buf 1
#End of PETSc Option Table entries
Compiled without FORTRAN kernels
Compiled with full precision matrices (default)
sizeof(short) 2 sizeof(int) 4 sizeof(long) 8 sizeof(void*) 8 sizeof(PetscScalar) 8 sizeof(PetscInt) 4
Configure options: --known-mpi-int64_t=0 --known-bits-per-byte=8 --known-sdot-returns-double=0 --known-snrm2-returns-double=0 --known-level1-dcache-assoc=0 --known-level1-dcache-linesize=32 --known-level1-dcache-size=32768 --known-memcmp-ok=1 --known-mpi-c-double-complex=1 --known-mpi-long-double=1 --known-mpi-shared-libraries=0 --known-sizeof-MPI_Comm=4 --known-sizeof-MPI_Fint=4 --known-sizeof-char=1 --known-sizeof-double=8 --known-sizeof-float=4 --known-sizeof-int=4 --known-sizeof-long-long=8 --known-sizeof-long=8 --known-sizeof-short=2 --known-sizeof-size_t=8 --known-sizeof-void-p=8 --with-ar=ar --with-batch=1 --with-cc=cc --with-clib-autodetect=0 --with-cxx=CC --with-cxxlib-autodetect=0 --with-debugging=0 --with-dependencies=0 --with-fc=ftn --with-fortran-datatypes=0 --with-fortran-interfaces=0 --with-fortranlib-autodetect=0 --with-ranlib=ranlib --with-scalar-type=real --with-shared-ld=ar --with-etags=0 --with-dependencies=0 --with-ssl=0 --with-dependencies=0 --with-mpi-dir=/opt/cray/mpt/7.2.5.1/gni/mpich2-intel/14.0 --with-blas-lapack-lib="-L/opt/cray/libsci/13.2.0/INTEL/14.0/x86_64/lib -lsci_intel_mp" --with-superlu=1 --with-superlu-include=/opt/cray/tpsl/1.5.2/INTEL/14.0/sandybridge/include --with-superlu-lib="-L/opt/cray/tpsl/1.5.2/INTEL/14.0/sandybridge/lib -lsuperlu" --with-superlu_dist=1 --with-superlu_dist-include=/opt/cray/tpsl/1.5.2/INTEL/14.0/sandybridge/include --with-superlu_dist-lib="-L/opt/cray/tpsl/1.5.2/INTEL/14.0/sandybridge/lib -lsuperlu_dist" --with-parmetis=1 --with-parmetis-include=/opt/cray/tpsl/1.5.2/INTEL/14.0/sandybridge/include --with-parmetis-lib="-L/opt/cray/tpsl/1.5.2/INTEL/14.0/sandybridge/lib -lparmetis" --with-metis=1 --with-metis-include=/opt/cray/tpsl/1.5.2/INTEL/14.0/sandybridge/include --with-metis-lib="-L/opt/cray/tpsl/1.5.2/INTEL/14.0/sandybridge/lib -lmetis" --with-ptscotch=1 --with-ptscotch-include=/opt/cray/tpsl/1.5.2/INTEL/14.0/sandybridge/include --with-ptscotch-lib="-L/opt/cray/tpsl/1.5.2/INTEL/14.0/sandybridge/lib -lptscotch -lscotch -lptscotcherr -lscotcherr" --with-scalapack=1 --with-scalapack-include=/opt/cray/libsci/13.2.0/INTEL/14.0/x86_64/include --with-scalapack-lib="-L/opt/cray/libsci/13.2.0/INTEL/14.0/x86_64/lib -lsci_intel_mpi_mp -lsci_intel_mp" --with-mumps=1 --with-mumps-include=/opt/cray/tpsl/1.5.2/INTEL/14.0/sandybridge/include --with-mumps-lib="-L/opt/cray/tpsl/1.5.2/INTEL/14.0/sandybridge/lib -lcmumps -ldmumps -lesmumps -lsmumps -lzmumps -lmumps_common -lptesmumps -lpord" --CFLAGS="-xavx -openmp -O3 " --CXXFLAGS="-xavx -openmp -O3  " --FFLAGS="-xavx -openmp -O3  " --LIBS=-lstdc++ --CXX_LINKER_FLAGS= --PETSC_ARCH=sandybridge --prefix=/opt/cray/pe/petsc/3.6.1.0/real/INTEL/14.0/sandybridge --with-hypre=1 --with-hypre-include=/opt/cray/tpsl/1.5.2/INTEL/14.0/sandybridge/include --with-hypre-lib="-L/opt/cray/tpsl/1.5.2/INTEL/14.0/sandybridge/lib -lHYPRE" --with-sundials=1 --with-sundials-include=/opt/cray/tpsl/1.5.2/INTEL/14.0/sandybridge/include --with-sundials-lib="-L/opt/cray/tpsl/1.5.2/INTEL/14.0/sandybridge/lib -lsundials_cvode -lsundials_cvodes -lsundials_ida -lsundials_idas -lsundials_kinsol -lsundials_nvecparallel -lsundials_nvecserial"
