Finite Element FAS Performance Sampler on process grid [8 8 16] = 1024
Max memory per MPI rank: 0.000010 GB
Small Test G[  256  256  512]
Q1 G[  256  256  512] P[  8  8 16] SR[0]  2.689e-01 s  1715.501499 GF  125.328765 MEq/s
Large Test G[  256  256  512]
Q1  0 e_max 1.00e+00( 0.0) e_L2 1.00e+00( 0.0) r_2 0.00e+00( 0.0) G[    1    1    2] L[   1   1   2] P[  1  1  1]
Q1  1 e_max 9.99e-01( 0.0) e_L2 9.99e-01( 0.0) r_2 3.52e-03( 0.0) G[    2    2    4] L[   2   2   4] P[  1  1  1]
Q1  2 e_max 4.20e-01( 1.2) e_L2 4.56e-01( 1.1) r_2 8.24e-03(-1.2) G[    4    4    8] L[   4   4   4] P[  1  1  2]
Q1  3 e_max 1.28e-01( 1.7) e_L2 1.19e-01( 1.9) r_2 8.69e-03(-0.1) G[    8    8   16] L[   4   4   4] P[  2  2  4]
Q1  4 e_max 3.61e-02( 1.8) e_L2 3.00e-02( 2.0) r_2 2.14e-02(-1.3) G[   16   16   32] L[   4   4   4] P[  4  4  8]
Q1  5 e_max 9.62e-03( 1.9) e_L2 7.01e-03( 2.1) r_2 5.16e-02(-1.3) G[   32   32   64] L[   4   4   4] P[  8  8 16]
Q1  6 e_max 8.21e-03( 0.2) e_L2 6.95e-03( 0.0) r_2 5.95e-02(-0.2) G[   64   64  128] L[   8   8   8] P[  8  8 16] [SR], buf=2
Q1  7 e_max 1.27e-02(-0.6) e_L2 1.06e-02(-0.6) r_2 8.89e-02(-0.6) G[  128  128  256] L[  16  16  16] P[  8  8 16] [SR], buf=4
Q1  8 e_max 1.35e-02(-0.1) e_L2 1.12e-02(-0.1) r_2 1.39e-01(-0.6) G[  256  256  512] L[  32  32  32] P[  8  8 16] [SR], buf=8
Q1 G[  256  256  512] P[  8  8 16] SR[3]  8.377e-01 s  1837.986546 GF   40.446223 MEq/s
Max memory per MPI rank: 0.000034 GB
Starting performance sampling
Q1 G[  256  256  512] P[  8  8 16] SR[3]  6.731e-01 s  1897.897547 GF   45.945973 MEq/s
Q1 G[  256  256  512] P[  8  8 16] SR[3]  6.774e-01 s  1886.580315 GF   45.671995 MEq/s
Q1 G[  256  256  512] P[  8  8 16] SR[3]  6.724e-01 s  1901.809854 GF   46.040685 MEq/s
Q1 G[  256  256  512] P[  8  8 16] SR[3]  6.748e-01 s  1896.290695 GF   45.907073 MEq/s
Q1 G[  256  256  512] P[  8  8 16] SR[3]  6.798e-01 s  1884.019787 GF   45.610008 MEq/s
Q1 G[  256  256  512] P[  8  8 16] SR[3]  6.741e-01 s  1898.294621 GF   45.955585 MEq/s
Q1 G[  256  256  512] P[  8  8 16] SR[3]  6.704e-01 s  1905.719764 GF   46.135340 MEq/s
Q1 G[  256  256  512] P[  8  8 16] SR[3]  6.787e-01 s  1884.989535 GF   45.633484 MEq/s
************************************************************************************************************************
***             WIDEN YOUR WINDOW TO 120 CHARACTERS.  Use 'enscript -r -fCourier9' to print this document            ***
************************************************************************************************************************

---------------------------------------------- PETSc Performance Summary: ----------------------------------------------

/global/u1/s/shenneki/hpgmg-fe-sr/./build/bin/hpgmg-fe on a sandybridge named nid00008 with 1024 processors, by shenneki Fri Apr  8 18:32:53 2016
Using Petsc Release Version 3.6.1, Jul, 22, 2015 

                         Max       Max/Min        Avg      Total 
Time (sec):           8.497e+00      1.00004   8.497e+00
Objects:              8.630e+02      2.44476   3.656e+02
Flops:                1.681e+10      1.65954   1.515e+10  1.551e+13
Flops/sec:            1.978e+09      1.65954   1.783e+09  1.826e+12
MPI Messages:         1.773e+04      8.64246   6.283e+03  6.433e+06
MPI Message Lengths:  9.500e+06      2.46121   1.203e+03  7.742e+09
MPI Reductions:       3.280e+02      1.90698

Flop counting convention: 1 flop = 1 real number operation of type (multiply/divide/add/subtract)
                            e.g., VecAXPY() for real vectors of length N --> 2N flops
                            and VecAXPY() for complex vectors of length N --> 8N flops

Summary of Stages:   ----- Time ------  ----- Flops -----  --- Messages ---  -- Message Lengths --  -- Reductions --
                        Avg     %Total     Avg     %Total   counts   %Total     Avg         %Total   counts   %Total 
 0:      Main Stage: 8.4968e+00 100.0%  1.5511e+13 100.0%  6.433e+06 100.0%  1.203e+03      100.0%  1.784e+02  54.4% 

------------------------------------------------------------------------------------------------------------------------
See the 'Profiling' chapter of the users' manual for details on interpreting output.
Phase summary info:
   Count: number of times phase was executed
   Time and Flops: Max - maximum over all processors
                   Ratio - ratio of maximum to minimum over all processors
   Mess: number of messages sent
   Avg. len: average message length (bytes)
   Reduct: number of global reductions
   Global: entire computation
   Stage: stages of a computation. Set stages with PetscLogStagePush() and PetscLogStagePop().
      %T - percent time in this phase         %F - percent flops in this phase
      %M - percent messages in this phase     %L - percent message lengths in this phase
      %R - percent reductions in this phase
   Total Mflop/s: 10e-6 * (sum of flops over all processors)/(max time over all processors)
------------------------------------------------------------------------------------------------------------------------
Event                Count      Time (sec)     Flops                             --- Global ---  --- Stage ---   Total
                   Max Ratio  Max     Ratio   Max  Ratio  Mess   Avg len Reduct  %T %F %M %L %R  %T %F %M %L %R Mflop/s
------------------------------------------------------------------------------------------------------------------------

--- Event Stage 0: Main Stage

                      77 0.0 6.8451e+00 0.0 1.43e+10 0.0 5.3e+06 4.6e+02 2.4e+01 79 85 83 32  7  79 85 83 32 13 1917068
OpRestrictState      306 6.7 1.3475e-0220.7 0.00e+00 0.0 6.5e+04 1.1e+03 0.0e+00  0  0  1  1  0   0  0  1  1  0     0
OpRestrictResid      395 4.2 4.1569e-0125.5 6.69e+05 1.3 1.1e+06 2.1e+02 0.0e+00  1  0 18  3  0   1  0 18  3  0  1453
OpInterpolate        395 4.2 1.7771e-0119.1 6.69e+05 1.3 1.0e+06 2.0e+02 0.0e+00  2  0 16  3  0   2  0 16  3  0  3399
OpForcing              3 1.0 1.6313e-01 1.2 1.57e+08 1.0 1.2e+05 1.5e+04 0.0e+00  2  1  2 24  0   2  1  2 24  0 987949
OpIntegNorms           9 2.2 5.4106e-02 1.0 5.99e+07 1.0 7.0e+04 9.8e+03 8.3e+00  1  0  1  9  3   1  0  1  9  5 1128329
OpGetDiagonal         27 2.2 8.0920e-01 1.6 2.30e+09 1.6 1.6e+05 4.2e+02 0.0e+00  8 14  3  1  0   8 14  3  1  0 2656031
SFSetGraph           150 2.1 2.3384e-02 2.8 0.00e+00 0.0 0.0e+00 0.0e+00 0.0e+00  0  0  0  0  0   0  0  0  0  0     0
SFBcastBegin        2390 6.4 1.7703e-02 5.4 0.00e+00 0.0 3.1e+06 1.4e+03 0.0e+00  0  0 49 57  0   0  0 49 57  0     0
SFBcastEnd          2390 6.4 1.7895e+0016.2 0.00e+00 0.0 0.0e+00 0.0e+00 0.0e+00  6  0  0  0  0   6  0  0  0  0     0
SFReduceBegin       2734 6.0 6.2928e-02 2.1 0.00e+00 0.0 3.3e+06 1.0e+03 0.0e+00  1  0 51 43  0   1  0 51 43  0     0
SFReduceEnd         2734 6.0 2.0179e+0053.8 0.00e+00 0.0 0.0e+00 0.0e+00 0.0e+00  5  0  0  0  0   5  0  0  0  0     0
VecDot                90 0.0 4.1246e-05 0.0 2.07e+03 0.0 0.0e+00 0.0e+00 0.0e+00  0  0  0  0  0   0  0  0  0  0    50
VecTDot               90 0.0 1.2779e-04 0.0 2.07e+03 0.0 0.0e+00 0.0e+00 0.0e+00  0  0  0  0  0   0  0  0  0  0    16
VecNorm               18 2.2 4.7984e-03 5.3 1.67e+05 1.1 0.0e+00 0.0e+00 8.3e+00  0  0  0  0  3   0  0  0  0  5 32333
VecCopy              771 3.7 3.9723e-03 2.0 0.00e+00 0.0 0.0e+00 0.0e+00 0.0e+00  0  0  0  0  0   0  0  0  0  0     0
VecSet              5491 4.5 2.2370e-02 2.1 0.00e+00 0.0 0.0e+00 0.0e+00 0.0e+00  0  0  0  0  0   0  0  0  0  0     0
VecAXPY              720 4.5 4.4160e-03 3.7 3.30e+06 1.7 0.0e+00 0.0e+00 0.0e+00  0  0  0  0  0   0  0  0  0  0 685962
VecAYPX             2619 3.7 1.5818e-02 1.7 1.31e+07 1.7 0.0e+00 0.0e+00 0.0e+00  0  0  0  0  0   0  0  0  0  0 764815
VecAXPBYCZ           720 3.6 6.3605e-03 1.5 1.46e+07 1.7 0.0e+00 0.0e+00 0.0e+00  0  0  0  0  0   0  0  0  0  0 2106530
VecPointwiseMult    1647 4.0 1.0917e-02 1.7 6.13e+06 1.7 0.0e+00 0.0e+00 0.0e+00  0  0  0  0  0   0  0  0  0  0 517400
MatMult             1530 3.8 5.2958e+00 1.6 1.10e+10 1.7 2.5e+06 2.0e+02 0.0e+00 56 65 38  6  0  56 65 38  6  0 1918334
KSPSetUp              27 2.2 4.7174e-03 1.7 0.00e+00 0.0 0.0e+00 0.0e+00 0.0e+00  0  0  0  0  0   0  0  0  0  0     0
KSPSolve             810 4.0 5.3313e+00 1.6 1.11e+10 1.7 2.5e+06 2.0e+02 0.0e+00 56 66 38  6  0  56 66 38  6  0 1911089
PCSetUp               27 2.2 1.9312e-05 0.0 0.00e+00 0.0 0.0e+00 0.0e+00 0.0e+00  0  0  0  0  0   0  0  0  0  0     0
PCApply             1647 4.0 8.2397e-01 1.6 2.31e+09 1.6 1.6e+05 4.2e+02 1.3e+01  9 14  3  1  4   9 14  3  1  7 2615255
------------------------------------------------------------------------------------------------------------------------

Memory usage is given in bytes:

Object Type          Creations   Destructions     Memory  Descendants' Mem.
Reports information only for process 0.

--- Event Stage 0: Main Stage

Star Forest Bipartite Graph   258            258       208152     0
              Vector   415            415     23002608     0
              Matrix    27             27        65880     0
    Distributed Mesh    54             54       242352     0
     Discrete System    54             54        45360     0
       Krylov Solver    27             27        33384     0
      Preconditioner    27             27        22680     0
              Viewer     1              0            0     0
========================================================================================================================
Average time to get PetscTime(): 1.19209e-07
Average time for MPI_Barrier(): 3.76225e-05
Average time for zero size MPI_Send(): 3.95416e-06
#PETSc Option Table entries:
-local 32768,32769
-log_summary
-op_type poisson1
-repeat 8
-smooth 3,1
-sr_levels 3
-sr_max_buf 1
#End of PETSc Option Table entries
Compiled without FORTRAN kernels
Compiled with full precision matrices (default)
sizeof(short) 2 sizeof(int) 4 sizeof(long) 8 sizeof(void*) 8 sizeof(PetscScalar) 8 sizeof(PetscInt) 4
Configure options: --known-mpi-int64_t=0 --known-bits-per-byte=8 --known-sdot-returns-double=0 --known-snrm2-returns-double=0 --known-level1-dcache-assoc=0 --known-level1-dcache-linesize=32 --known-level1-dcache-size=32768 --known-memcmp-ok=1 --known-mpi-c-double-complex=1 --known-mpi-long-double=1 --known-mpi-shared-libraries=0 --known-sizeof-MPI_Comm=4 --known-sizeof-MPI_Fint=4 --known-sizeof-char=1 --known-sizeof-double=8 --known-sizeof-float=4 --known-sizeof-int=4 --known-sizeof-long-long=8 --known-sizeof-long=8 --known-sizeof-short=2 --known-sizeof-size_t=8 --known-sizeof-void-p=8 --with-ar=ar --with-batch=1 --with-cc=cc --with-clib-autodetect=0 --with-cxx=CC --with-cxxlib-autodetect=0 --with-debugging=0 --with-dependencies=0 --with-fc=ftn --with-fortran-datatypes=0 --with-fortran-interfaces=0 --with-fortranlib-autodetect=0 --with-ranlib=ranlib --with-scalar-type=real --with-shared-ld=ar --with-etags=0 --with-dependencies=0 --with-ssl=0 --with-dependencies=0 --with-mpi-dir=/opt/cray/mpt/7.2.5.1/gni/mpich2-intel/14.0 --with-blas-lapack-lib="-L/opt/cray/libsci/13.2.0/INTEL/14.0/x86_64/lib -lsci_intel_mp" --with-superlu=1 --with-superlu-include=/opt/cray/tpsl/1.5.2/INTEL/14.0/sandybridge/include --with-superlu-lib="-L/opt/cray/tpsl/1.5.2/INTEL/14.0/sandybridge/lib -lsuperlu" --with-superlu_dist=1 --with-superlu_dist-include=/opt/cray/tpsl/1.5.2/INTEL/14.0/sandybridge/include --with-superlu_dist-lib="-L/opt/cray/tpsl/1.5.2/INTEL/14.0/sandybridge/lib -lsuperlu_dist" --with-parmetis=1 --with-parmetis-include=/opt/cray/tpsl/1.5.2/INTEL/14.0/sandybridge/include --with-parmetis-lib="-L/opt/cray/tpsl/1.5.2/INTEL/14.0/sandybridge/lib -lparmetis" --with-metis=1 --with-metis-include=/opt/cray/tpsl/1.5.2/INTEL/14.0/sandybridge/include --with-metis-lib="-L/opt/cray/tpsl/1.5.2/INTEL/14.0/sandybridge/lib -lmetis" --with-ptscotch=1 --with-ptscotch-include=/opt/cray/tpsl/1.5.2/INTEL/14.0/sandybridge/include --with-ptscotch-lib="-L/opt/cray/tpsl/1.5.2/INTEL/14.0/sandybridge/lib -lptscotch -lscotch -lptscotcherr -lscotcherr" --with-scalapack=1 --with-scalapack-include=/opt/cray/libsci/13.2.0/INTEL/14.0/x86_64/include --with-scalapack-lib="-L/opt/cray/libsci/13.2.0/INTEL/14.0/x86_64/lib -lsci_intel_mpi_mp -lsci_intel_mp" --with-mumps=1 --with-mumps-include=/opt/cray/tpsl/1.5.2/INTEL/14.0/sandybridge/include --with-mumps-lib="-L/opt/cray/tpsl/1.5.2/INTEL/14.0/sandybridge/lib -lcmumps -ldmumps -lesmumps -lsmumps -lzmumps -lmumps_common -lptesmumps -lpord" --CFLAGS="-xavx -openmp -O3 " --CXXFLAGS="-xavx -openmp -O3  " --FFLAGS="-xavx -openmp -O3  " --LIBS=-lstdc++ --CXX_LINKER_FLAGS= --PETSC_ARCH=sandybridge --prefix=/opt/cray/pe/petsc/3.6.1.0/real/INTEL/14.0/sandybridge --with-hypre=1 --with-hypre-include=/opt/cray/tpsl/1.5.2/INTEL/14.0/sandybridge/include --with-hypre-lib="-L/opt/cray/tpsl/1.5.2/INTEL/14.0/sandybridge/lib -lHYPRE" --with-sundials=1 --with-sundials-include=/opt/cray/tpsl/1.5.2/INTEL/14.0/sandybridge/include --with-sundials-lib="-L/opt/cray/tpsl/1.5.2/INTEL/14.0/sandybridge/lib -lsundials_cvode -lsundials_cvodes -lsundials_ida -lsundials_idas -lsundials_kinsol -lsundials_nvecparallel -lsundials_nvecserial"
