Finite Element FAS Performance Sampler on process grid [8 8 16] = 1024
Max memory per MPI rank: 0.000010 GB
Small Test G[  256  256  512]
Q1 G[  256  256  512] P[  8  8 16] SR[0]  2.598e-01 s  1763.577564 GF  128.841040 MEq/s
Large Test G[  256  256  512]
Q1  0 e_max 1.00e+00( 0.0) e_L2 1.00e+00( 0.0) r_2 0.00e+00( 0.0) G[    1    1    2] L[   1   1   2] P[  1  1  1]
Q1  1 e_max 9.99e-01( 0.0) e_L2 9.99e-01( 0.0) r_2 3.52e-03( 0.0) G[    2    2    4] L[   2   2   4] P[  1  1  1]
Q1  2 e_max 4.20e-01( 1.2) e_L2 4.56e-01( 1.1) r_2 8.24e-03(-1.2) G[    4    4    8] L[   4   4   4] P[  1  1  2]
Q1  3 e_max 1.28e-01( 1.7) e_L2 1.19e-01( 1.9) r_2 8.69e-03(-0.1) G[    8    8   16] L[   4   4   4] P[  2  2  4]
Q1  4 e_max 3.61e-02( 1.8) e_L2 3.00e-02( 2.0) r_2 2.14e-02(-1.3) G[   16   16   32] L[   4   4   4] P[  4  4  8]
Q1  5 e_max 9.62e-03( 1.9) e_L2 7.01e-03( 2.1) r_2 5.16e-02(-1.3) G[   32   32   64] L[   4   4   4] P[  8  8 16]
Q1  6 e_max 2.50e-03( 1.9) e_L2 1.57e-03( 2.2) r_2 7.43e-02(-0.5) G[   64   64  128] L[   8   8   8] P[  8  8 16]
Q1  7 e_max 2.45e-03( 0.0) e_L2 2.18e-03(-0.5) r_2 8.01e-02(-0.1) G[  128  128  256] L[  16  16  16] P[  8  8 16] [SR], buf=2
Q1  8 e_max 5.23e-03(-1.1) e_L2 4.82e-03(-1.1) r_2 9.37e-02(-0.2) G[  256  256  512] L[  32  32  32] P[  8  8 16] [SR], buf=4
Q1 G[  256  256  512] P[  8  8 16] SR[2]  5.616e-01 s  1730.324924 GF   60.329229 MEq/s
Max memory per MPI rank: 0.000025 GB
Starting performance sampling
Q1 G[  256  256  512] P[  8  8 16] SR[2]  4.428e-01 s  1778.750587 GF   72.466585 MEq/s
Q1 G[  256  256  512] P[  8  8 16] SR[2]  4.351e-01 s  1803.471536 GF   73.473721 MEq/s
Q1 G[  256  256  512] P[  8  8 16] SR[2]  4.274e-01 s  1834.329703 GF   74.730887 MEq/s
Q1 G[  256  256  512] P[  8  8 16] SR[2]  4.339e-01 s  1806.597657 GF   73.601079 MEq/s
Q1 G[  256  256  512] P[  8  8 16] SR[2]  4.353e-01 s  1802.013525 GF   73.414321 MEq/s
Q1 G[  256  256  512] P[  8  8 16] SR[2]  4.333e-01 s  1809.987227 GF   73.739171 MEq/s
Q1 G[  256  256  512] P[  8  8 16] SR[2]  4.411e-01 s  1778.302639 GF   72.448336 MEq/s
Q1 G[  256  256  512] P[  8  8 16] SR[2]  4.412e-01 s  1779.048134 GF   72.478707 MEq/s
************************************************************************************************************************
***             WIDEN YOUR WINDOW TO 120 CHARACTERS.  Use 'enscript -r -fCourier9' to print this document            ***
************************************************************************************************************************

---------------------------------------------- PETSc Performance Summary: ----------------------------------------------

/global/u1/s/shenneki/hpgmg-fe-sr/./build/bin/hpgmg-fe on a sandybridge named nid00575 with 1024 processors, by shenneki Sat Apr  9 15:03:35 2016
Using Petsc Release Version 3.6.1, Jul, 22, 2015 

                         Max       Max/Min        Avg      Total 
Time (sec):           8.045e+00      1.00006   8.045e+00
Objects:              8.640e+02      2.44068   3.666e+02
Flops:                1.005e+10      1.32254   9.436e+09  9.663e+12
Flops/sec:            1.250e+09      1.32259   1.173e+09  1.201e+12
MPI Messages:         1.999e+04      7.23606   8.189e+03  8.385e+06
MPI Message Lengths:  6.495e+06      2.10278   6.260e+02  5.249e+09
MPI Reductions:       3.540e+02      1.78788

Flop counting convention: 1 flop = 1 real number operation of type (multiply/divide/add/subtract)
                            e.g., VecAXPY() for real vectors of length N --> 2N flops
                            and VecAXPY() for complex vectors of length N --> 8N flops

Summary of Stages:   ----- Time ------  ----- Flops -----  --- Messages ---  -- Message Lengths --  -- Reductions --
                        Avg     %Total     Avg     %Total   counts   %Total     Avg         %Total   counts   %Total 
 0:      Main Stage: 8.0447e+00 100.0%  9.6629e+12 100.0%  8.385e+06 100.0%  6.260e+02      100.0%  2.044e+02  57.7% 

------------------------------------------------------------------------------------------------------------------------
See the 'Profiling' chapter of the users' manual for details on interpreting output.
Phase summary info:
   Count: number of times phase was executed
   Time and Flops: Max - maximum over all processors
                   Ratio - ratio of maximum to minimum over all processors
   Mess: number of messages sent
   Avg. len: average message length (bytes)
   Reduct: number of global reductions
   Global: entire computation
   Stage: stages of a computation. Set stages with PetscLogStagePush() and PetscLogStagePop().
      %T - percent time in this phase         %F - percent flops in this phase
      %M - percent messages in this phase     %L - percent message lengths in this phase
      %R - percent reductions in this phase
   Total Mflop/s: 10e-6 * (sum of flops over all processors)/(max time over all processors)
------------------------------------------------------------------------------------------------------------------------
Event                Count      Time (sec)     Flops                             --- Global ---  --- Stage ---   Total
                   Max Ratio  Max     Ratio   Max  Ratio  Mess   Avg len Reduct  %T %F %M %L %R  %T %F %M %L %R Mflop/s
------------------------------------------------------------------------------------------------------------------------

--- Event Stage 0: Main Stage

                      77 0.0 4.3734e+00 0.0 8.38e+09 0.0 7.1e+06 3.5e+02 3.2e+01 53 83 85 48  9  53 83 85 48 15 1832970
OpRestrictState      333 4.6 1.6094e-0214.5 0.00e+00 0.0 9.5e+04 8.8e+02 0.0e+00  0  0  1  2  0   0  0  1  2  0     0
OpRestrictResid      422 3.5 1.8825e-0110.7 1.36e+06 1.3 1.2e+06 3.9e+02 0.0e+00  1  0 14  9  0   1  0 14  9  0  6825
OpInterpolate        422 3.5 1.6843e-0113.4 1.36e+06 1.3 1.1e+06 4.0e+02 0.0e+00  2  0 13  8  0   2  0 13  8  0  7629
OpForcing              3 1.0 5.5591e-01 3.5 1.57e+08 1.0 1.2e+05 6.7e+03 0.0e+00  7  2  1 16  0   7  2  1 16  0 289906
OpIntegNorms           9 2.2 5.1162e-02 1.0 5.99e+07 1.0 5.5e+04 5.4e+03 8.3e+00  1  1  1  6  2   1  1  1  6  4 1193266
OpGetDiagonal         27 2.2 5.1482e-01 1.3 1.45e+09 1.3 2.2e+05 3.8e+02 0.0e+00  6 15  3  2  0   6 15  3  2  0 2743509
SFSetGraph           150 2.1 1.0703e-02 2.4 0.00e+00 0.0 0.0e+00 0.0e+00 0.0e+00  0  0  0  0  0   0  0  0  0  0     0
SFBcastBegin        2572 4.6 1.6786e-02 5.4 0.00e+00 0.0 4.1e+06 6.6e+02 0.0e+00  0  0 49 52  0   0  0 49 52  0     0
SFBcastEnd          2572 4.6 9.2440e-01 8.7 0.00e+00 0.0 0.0e+00 0.0e+00 0.0e+00  4  0  0  0  0   4  0  0  0  0     0
SFReduceBegin       2936 4.5 4.8837e-0113.0 0.00e+00 0.0 4.3e+06 5.9e+02 0.0e+00  4  0 51 48  0   4  0 51 48  0     0
SFReduceEnd         2936 4.5 1.2516e+0040.3 0.00e+00 0.0 0.0e+00 0.0e+00 0.0e+00  5  0  0  0  0   5  0  0  0  0     0
VecDot                90 0.0 3.8862e-05 0.0 2.07e+03 0.0 0.0e+00 0.0e+00 0.0e+00  0  0  0  0  0   0  0  0  0  0    53
VecTDot               90 0.0 1.1516e-04 0.0 2.07e+03 0.0 0.0e+00 0.0e+00 0.0e+00  0  0  0  0  0   0  0  0  0  0    18
VecNorm               18 2.2 4.8931e-03 5.3 1.67e+05 1.1 0.0e+00 0.0e+00 8.3e+00  0  0  0  0  2   0  0  0  0  4 31708
VecCopy              742 4.1 1.4684e-03 1.4 0.00e+00 0.0 0.0e+00 0.0e+00 0.0e+00  0  0  0  0  0   0  0  0  0  0     0
VecSet              5659 4.1 1.1063e-02 1.8 0.00e+00 0.0 0.0e+00 0.0e+00 0.0e+00  0  0  0  0  0   0  0  0  0  0     0
VecAXPY              720 4.5 2.2969e-03 2.4 1.93e+06 1.3 0.0e+00 0.0e+00 0.0e+00  0  0  0  0  0   0  0  0  0  0 799555
VecAYPX             2619 3.7 9.1569e-03 1.4 7.75e+06 1.3 0.0e+00 0.0e+00 0.0e+00  0  0  0  0  0   0  0  0  0  0 810305
VecAXPBYCZ           720 3.6 4.4143e-03 1.4 8.57e+06 1.3 0.0e+00 0.0e+00 0.0e+00  0  0  0  0  0   0  0  0  0  0 1857874
VecPointwiseMult    1647 4.0 6.4616e-03 1.4 3.62e+06 1.3 0.0e+00 0.0e+00 0.0e+00  0  0  0  0  0   0  0  0  0  0 537189
MatMult             1530 3.8 3.2280e+00 1.4 6.46e+09 1.3 3.7e+06 2.2e+02 0.0e+00 37 64 45 16  0  37 64 45 16  0 1918212
KSPSetUp              27 2.2 2.6691e-03 2.0 0.00e+00 0.0 0.0e+00 0.0e+00 0.0e+00  0  0  0  0  0   0  0  0  0  0     0
KSPSolve             810 4.0 3.2489e+00 1.4 6.48e+09 1.3 3.7e+06 2.2e+02 0.0e+00 37 64 45 16  0  37 64 45 16  0 1911429
PCSetUp               27 2.2 1.3828e-05 0.0 0.00e+00 0.0 0.0e+00 0.0e+00 0.0e+00  0  0  0  0  0   0  0  0  0  0     0
PCApply             1647 4.0 5.2416e-01 1.3 1.46e+09 1.3 2.2e+05 3.8e+02 1.7e+01  6 15  3  2  5   6 15  3  2  8 2701241
------------------------------------------------------------------------------------------------------------------------

Memory usage is given in bytes:

Object Type          Creations   Destructions     Memory  Descendants' Mem.
Reports information only for process 0.

--- Event Stage 0: Main Stage

Star Forest Bipartite Graph   258            258       208656     0
              Vector   416            416     19117744     0
              Matrix    27             27        65880     0
    Distributed Mesh    54             54       242352     0
     Discrete System    54             54        45360     0
       Krylov Solver    27             27        33384     0
      Preconditioner    27             27        22680     0
              Viewer     1              0            0     0
========================================================================================================================
Average time to get PetscTime(): 0
Average time for MPI_Barrier(): 6.59943e-05
Average time for zero size MPI_Send(): 4.62006e-06
#PETSc Option Table entries:
-local 32768,32769
-log_summary
-op_type poisson1
-repeat 8
-smooth 3,1
-sr_levels 2
-sr_max_buf 1
#End of PETSc Option Table entries
Compiled without FORTRAN kernels
Compiled with full precision matrices (default)
sizeof(short) 2 sizeof(int) 4 sizeof(long) 8 sizeof(void*) 8 sizeof(PetscScalar) 8 sizeof(PetscInt) 4
Configure options: --known-mpi-int64_t=0 --known-bits-per-byte=8 --known-sdot-returns-double=0 --known-snrm2-returns-double=0 --known-level1-dcache-assoc=0 --known-level1-dcache-linesize=32 --known-level1-dcache-size=32768 --known-memcmp-ok=1 --known-mpi-c-double-complex=1 --known-mpi-long-double=1 --known-mpi-shared-libraries=0 --known-sizeof-MPI_Comm=4 --known-sizeof-MPI_Fint=4 --known-sizeof-char=1 --known-sizeof-double=8 --known-sizeof-float=4 --known-sizeof-int=4 --known-sizeof-long-long=8 --known-sizeof-long=8 --known-sizeof-short=2 --known-sizeof-size_t=8 --known-sizeof-void-p=8 --with-ar=ar --with-batch=1 --with-cc=cc --with-clib-autodetect=0 --with-cxx=CC --with-cxxlib-autodetect=0 --with-debugging=0 --with-dependencies=0 --with-fc=ftn --with-fortran-datatypes=0 --with-fortran-interfaces=0 --with-fortranlib-autodetect=0 --with-ranlib=ranlib --with-scalar-type=real --with-shared-ld=ar --with-etags=0 --with-dependencies=0 --with-ssl=0 --with-dependencies=0 --with-mpi-dir=/opt/cray/mpt/7.2.5.1/gni/mpich2-intel/14.0 --with-blas-lapack-lib="-L/opt/cray/libsci/13.2.0/INTEL/14.0/x86_64/lib -lsci_intel_mp" --with-superlu=1 --with-superlu-include=/opt/cray/tpsl/1.5.2/INTEL/14.0/sandybridge/include --with-superlu-lib="-L/opt/cray/tpsl/1.5.2/INTEL/14.0/sandybridge/lib -lsuperlu" --with-superlu_dist=1 --with-superlu_dist-include=/opt/cray/tpsl/1.5.2/INTEL/14.0/sandybridge/include --with-superlu_dist-lib="-L/opt/cray/tpsl/1.5.2/INTEL/14.0/sandybridge/lib -lsuperlu_dist" --with-parmetis=1 --with-parmetis-include=/opt/cray/tpsl/1.5.2/INTEL/14.0/sandybridge/include --with-parmetis-lib="-L/opt/cray/tpsl/1.5.2/INTEL/14.0/sandybridge/lib -lparmetis" --with-metis=1 --with-metis-include=/opt/cray/tpsl/1.5.2/INTEL/14.0/sandybridge/include --with-metis-lib="-L/opt/cray/tpsl/1.5.2/INTEL/14.0/sandybridge/lib -lmetis" --with-ptscotch=1 --with-ptscotch-include=/opt/cray/tpsl/1.5.2/INTEL/14.0/sandybridge/include --with-ptscotch-lib="-L/opt/cray/tpsl/1.5.2/INTEL/14.0/sandybridge/lib -lptscotch -lscotch -lptscotcherr -lscotcherr" --with-scalapack=1 --with-scalapack-include=/opt/cray/libsci/13.2.0/INTEL/14.0/x86_64/include --with-scalapack-lib="-L/opt/cray/libsci/13.2.0/INTEL/14.0/x86_64/lib -lsci_intel_mpi_mp -lsci_intel_mp" --with-mumps=1 --with-mumps-include=/opt/cray/tpsl/1.5.2/INTEL/14.0/sandybridge/include --with-mumps-lib="-L/opt/cray/tpsl/1.5.2/INTEL/14.0/sandybridge/lib -lcmumps -ldmumps -lesmumps -lsmumps -lzmumps -lmumps_common -lptesmumps -lpord" --CFLAGS="-xavx -openmp -O3 " --CXXFLAGS="-xavx -openmp -O3  " --FFLAGS="-xavx -openmp -O3  " --LIBS=-lstdc++ --CXX_LINKER_FLAGS= --PETSC_ARCH=sandybridge --prefix=/opt/cray/pe/petsc/3.6.1.0/real/INTEL/14.0/sandybridge --with-hypre=1 --with-hypre-include=/opt/cray/tpsl/1.5.2/INTEL/14.0/sandybridge/include --with-hypre-lib="-L/opt/cray/tpsl/1.5.2/INTEL/14.0/sandybridge/lib -lHYPRE" --with-sundials=1 --with-sundials-include=/opt/cray/tpsl/1.5.2/INTEL/14.0/sandybridge/include --with-sundials-lib="-L/opt/cray/tpsl/1.5.2/INTEL/14.0/sandybridge/lib -lsundials_cvode -lsundials_cvodes -lsundials_ida -lsundials_idas -lsundials_kinsol -lsundials_nvecparallel -lsundials_nvecserial"
