Q1  0 e_max 1.00e+00( 0.0) e_L2 1.00e+00( 0.0) r_2 0.00e+00( 0.0) G[    1    1    1] L[   1   1   1] P[  1  1  1]
Q1  1 e_max 1.00e+00( 0.0) e_L2 1.00e+00( 0.0) r_2 1.29e-21( 0.0) G[    2    2    2] L[   2   2   2] P[  1  1  1]
Q1  2 e_max 4.43e-01( 1.2) e_L2 5.28e-01( 0.9) r_2 5.51e-03( 0.0) G[    4    4    4] L[   4   4   4] P[  1  1  1]
Q1  3 e_max 1.34e-01( 1.7) e_L2 1.38e-01( 1.9) r_2 6.08e-03(-0.1) G[    8    8    8] L[   4   4   4] P[  2  2  2]
Q1  4 e_max 3.59e-02( 1.9) e_L2 3.45e-02( 2.0) r_2 1.15e-02(-0.9) G[   16   16   16] L[   4   4   4] P[  4  4  4]
Q1  5 e_max 9.53e-03( 1.9) e_L2 8.06e-03( 2.1) r_2 3.90e-02(-1.8) G[   32   32   32] L[   4   4   4] P[  8  8  8]
Q1  6 e_max 2.49e-03( 1.9) e_L2 1.81e-03( 2.2) r_2 6.31e-02(-0.7) G[   64   64   64] L[   4   4   4] P[ 16 16 16]
Q1  7 e_max 5.77e-03(-1.2) e_L2 5.78e-03(-1.7) r_2 5.79e-02( 0.1) G[  128  128  128] L[   8   8   8] P[ 16 16 16] [SR], buf=2
Q1  8 e_max 4.57e-03( 0.3) e_L2 4.56e-03( 0.3) r_2 8.07e-02(-0.5) G[  256  256  256] L[  16  16  16] P[ 16 16 16] [SR], buf=4
F(3,1)  0: |e|_2/|u|_2 4.75e-03  |r|_2/|f|_2 8.07e-02
