Finite Element FAS Performance Sampler on process grid [8 8 8] = 512
Max memory per MPI rank: 0.000009 GB
Small Test G[  256  256  256]
Q1 G[  256  256  256] P[  8  8  8] SR[0]  2.926e-01 s  790.851645 GF   57.889112 MEq/s
Large Test G[  256  256  256]
Q1  0 e_max 1.00e+00( 0.0) e_L2 1.00e+00( 0.0) r_2 0.00e+00( 0.0) G[    1    1    1] L[   1   1   1] P[  1  1  1]
Q1  1 e_max 1.00e+00( 0.0) e_L2 1.00e+00( 0.0) r_2 3.52e-03( 0.0) G[    2    2    2] L[   2   2   2] P[  1  1  1]
Q1  2 e_max 4.48e-01( 1.2) e_L2 5.28e-01( 0.9) r_2 5.56e-03(-0.7) G[    4    4    4] L[   4   4   4] P[  1  1  1]
Q1  3 e_max 1.34e-01( 1.7) e_L2 1.38e-01( 1.9) r_2 6.26e-03(-0.2) G[    8    8    8] L[   4   4   4] P[  2  2  2]
Q1  4 e_max 3.60e-02( 1.9) e_L2 3.45e-02( 2.0) r_2 1.55e-02(-1.3) G[   16   16   16] L[   4   4   4] P[  4  4  4]
Q1  5 e_max 9.53e-03( 1.9) e_L2 8.08e-03( 2.1) r_2 4.34e-02(-1.5) G[   32   32   32] L[   4   4   4] P[  8  8  8]
Q1  6 e_max 2.50e-03( 1.9) e_L2 1.82e-03( 2.1) r_2 6.65e-02(-0.6) G[   64   64   64] L[   8   8   8] P[  8  8  8]
Q1  7 e_max 6.36e-04( 2.0) e_L2 4.08e-04( 2.2) r_2 7.90e-02(-0.2) G[  128  128  128] L[  16  16  16] P[  8  8  8]
Q1  8 e_max 1.60e-04( 2.0) e_L2 9.31e-05( 2.1) r_2 8.54e-02(-0.1) G[  256  256  256] L[  32  32  32] P[  8  8  8]
Q1 G[  256  256  256] P[  8  8  8] SR[0]  4.215e-01 s  716.450162 GF   40.274834 MEq/s
Max memory per MPI rank: 0.000020 GB
Starting performance sampling
Q1 G[  256  256  256] P[  8  8  8] SR[0]  2.906e-01 s  796.129923 GF   58.275474 MEq/s
Q1 G[  256  256  256] P[  8  8  8] SR[0]  2.871e-01 s  805.832430 GF   58.985682 MEq/s
Q1 G[  256  256  256] P[  8  8  8] SR[0]  2.848e-01 s  812.603141 GF   59.481288 MEq/s
************************************************************************************************************************
***             WIDEN YOUR WINDOW TO 120 CHARACTERS.  Use 'enscript -r -fCourier9' to print this document            ***
************************************************************************************************************************

---------------------------------------------- PETSc Performance Summary: ----------------------------------------------

/global/u1/s/shenneki/hpgmg-fe-sr/./build/bin/hpgmg-fe on a sandybridge named nid00008 with 512 processors, by shenneki Sun Apr  3 10:01:35 2016
Using Petsc Release Version 3.6.1, Jul, 22, 2015 

                         Max       Max/Min        Avg      Total 
Time (sec):           2.215e+00      1.00011   2.215e+00
Objects:              8.140e+02      2.33238   3.618e+02
Flops:                3.527e+09      1.02310   3.451e+09  1.767e+12
Flops/sec:            1.593e+09      1.02316   1.558e+09  7.977e+11
MPI Messages:         1.083e+04      6.53605   4.635e+03  2.373e+06
MPI Message Lengths:  5.017e+06      1.59026   9.204e+02  2.184e+09
MPI Reductions:       3.300e+02      1.46018

Flop counting convention: 1 flop = 1 real number operation of type (multiply/divide/add/subtract)
                            e.g., VecAXPY() for real vectors of length N --> 2N flops
                            and VecAXPY() for complex vectors of length N --> 8N flops

Summary of Stages:   ----- Time ------  ----- Flops -----  --- Messages ---  -- Message Lengths --  -- Reductions --
                        Avg     %Total     Avg     %Total   counts   %Total     Avg         %Total   counts   %Total 
 0:      Main Stage: 2.2147e+00 100.0%  1.7667e+12 100.0%  2.373e+06 100.0%  9.204e+02      100.0%  2.323e+02  70.4% 

------------------------------------------------------------------------------------------------------------------------
See the 'Profiling' chapter of the users' manual for details on interpreting output.
Phase summary info:
   Count: number of times phase was executed
   Time and Flops: Max - maximum over all processors
                   Ratio - ratio of maximum to minimum over all processors
   Mess: number of messages sent
   Avg. len: average message length (bytes)
   Reduct: number of global reductions
   Global: entire computation
   Stage: stages of a computation. Set stages with PetscLogStagePush() and PetscLogStagePop().
      %T - percent time in this phase         %F - percent flops in this phase
      %M - percent messages in this phase     %L - percent message lengths in this phase
      %R - percent reductions in this phase
   Total Mflop/s: 10e-6 * (sum of flops over all processors)/(max time over all processors)
------------------------------------------------------------------------------------------------------------------------
Event                Count      Time (sec)     Flops                             --- Global ---  --- Stage ---   Total
                   Max Ratio  Max     Ratio   Max  Ratio  Mess   Avg len Reduct  %T %F %M %L %R  %T %F %M %L %R Mflop/s
------------------------------------------------------------------------------------------------------------------------

--- Event Stage 0: Main Stage

                      36 0.0 1.4994e+00 0.0 2.38e+09 0.0 2.0e+06 7.7e+02 3.8e+01 66 68 85 71 11  66 68 85 71 16 797517
OpRestrictState      180 3.6 3.7903e-0221.3 0.00e+00 0.0 3.7e+04 3.8e+03 0.0e+00  1  0  2  7  0   1  0  2  7  0     0
OpRestrictResid      220 3.1 2.6209e-02 1.8 1.63e+06 1.0 2.4e+05 1.2e+03 0.0e+00  1  0 10 14  0   1  0 10 14  0 30856
OpInterpolate        220 3.1 9.8773e-02 6.6 1.63e+06 1.0 1.9e+05 1.4e+03 0.0e+00  4  0  8 12  0   4  0  8 12  0  8188
OpForcing              3 1.0 1.4887e-01 1.1 1.57e+08 1.0 2.1e+04 2.4e+03 0.0e+00  6  5  1  2  0   6  5  1  2  0 541278
OpIntegNorms           9 2.2 5.5708e-02 1.0 5.99e+07 1.0 1.2e+04 1.3e+03 8.3e+00  2  2  0  1  3   2  2  0  1  4 547946
OpGetDiagonal         27 2.2 3.5973e-01 1.0 8.96e+08 1.0 1.4e+05 6.6e+02 0.0e+00 16 26  6  4  0  16 26  6  4  0 1269162
SFSetGraph           150 2.1 3.3629e-03 1.7 0.00e+00 0.0 0.0e+00 0.0e+00 0.0e+00  0  0  0  0  0   0  0  0  0  0     0
SFBcastBegin        1387 3.8 1.3206e-02 5.9 0.00e+00 0.0 1.1e+06 7.8e+02 0.0e+00  0  0 47 40  0   0  0 47 40  0     0
SFBcastEnd          1387 3.8 1.3301e-01 3.8 0.00e+00 0.0 0.0e+00 0.0e+00 0.0e+00  5  0  0  0  0   5  0  0  0  0     0
SFReduceBegin       1588 3.7 6.8728e-02 3.7 0.00e+00 0.0 1.2e+06 1.0e+03 0.0e+00  2  0 53 60  0   2  0 53 60  0     0
SFReduceEnd         1588 3.7 1.0447e-0123.5 0.00e+00 0.0 0.0e+00 0.0e+00 0.0e+00  2  0  0  0  0   2  0  0  0  0     0
VecDot                45 0.0 1.6928e-05 0.0 6.75e+02 0.0 0.0e+00 0.0e+00 0.0e+00  0  0  0  0  0   0  0  0  0  0    40
VecTDot               45 0.0 1.1015e-04 0.0 6.75e+02 0.0 0.0e+00 0.0e+00 0.0e+00  0  0  0  0  0   0  0  0  0  0     6
VecNorm               18 2.2 5.1146e-0310.0 1.67e+05 1.1 0.0e+00 0.0e+00 8.3e+00  0  0  0  0  3   0  0  0  0  4 15202
VecCopy              360 4.5 2.8491e-04 1.7 0.00e+00 0.0 0.0e+00 0.0e+00 0.0e+00  0  0  0  0  0   0  0  0  0  0     0
VecSet              3044 3.8 1.7731e-02 3.5 0.00e+00 0.0 0.0e+00 0.0e+00 0.0e+00  0  0  0  0  0   0  0  0  0  0     0
VecAXPY              360 4.5 1.4808e-03 2.8 5.52e+05 1.1 0.0e+00 0.0e+00 0.0e+00  0  0  0  0  0   0  0  0  0  0 169458
VecAYPX             1314 3.7 3.9039e-03 1.4 2.22e+06 1.1 0.0e+00 0.0e+00 0.0e+00  0  0  0  0  0   0  0  0  0  0 261636
VecAXPBYCZ           360 3.6 1.5769e-03 1.3 2.42e+06 1.1 0.0e+00 0.0e+00 0.0e+00  0  0  0  0  0   0  0  0  0  0 705993
VecPointwiseMult     837 3.9 3.2892e-03 1.6 1.09e+06 1.1 0.0e+00 0.0e+00 0.0e+00  0  0  0  0  0   0  0  0  0  0 153114
MatMult              765 3.8 1.0667e+00 1.1 1.81e+09 1.0 1.2e+06 6.9e+02 0.0e+00 46 51 51 38  0  46 51 51 38  0 845141
KSPSetUp              27 2.2 2.3925e-03 1.6 0.00e+00 0.0 0.0e+00 0.0e+00 0.0e+00  0  0  0  0  0   0  0  0  0  0     0
KSPSolve             405 4.0 1.0784e+00 1.1 1.81e+09 1.0 1.2e+06 6.9e+02 0.0e+00 46 51 51 38  0  46 51 51 38  0 838248
PCSetUp               27 2.2 1.1444e-0512.0 0.00e+00 0.0 0.0e+00 0.0e+00 0.0e+00  0  0  0  0  0   0  0  0  0  0     0
PCApply              837 3.9 3.6567e-01 1.0 8.97e+08 1.0 1.4e+05 6.6e+02 2.5e+01 16 26  6  4  8  16 26  6  4 11 1249924
------------------------------------------------------------------------------------------------------------------------

Memory usage is given in bytes:

Object Type          Creations   Destructions     Memory  Descendants' Mem.
Reports information only for process 0.

--- Event Stage 0: Main Stage

Star Forest Bipartite Graph   258            258       209160     0
              Vector   366            366     15585528     0
              Matrix    27             27        65880     0
    Distributed Mesh    54             54       242352     0
     Discrete System    54             54        45360     0
       Krylov Solver    27             27        33384     0
      Preconditioner    27             27        22680     0
              Viewer     1              0            0     0
========================================================================================================================
Average time to get PetscTime(): 0
Average time for MPI_Barrier(): 0.000118828
Average time for zero size MPI_Send(): 3.06033e-06
#PETSc Option Table entries:
-local 32768,32769
-log_summary
-op_type poisson1
-repeat 3
-smooth 3,1
-sr_levels 0
-sr_max_buf 0
#End of PETSc Option Table entries
Compiled without FORTRAN kernels
Compiled with full precision matrices (default)
sizeof(short) 2 sizeof(int) 4 sizeof(long) 8 sizeof(void*) 8 sizeof(PetscScalar) 8 sizeof(PetscInt) 4
Configure options: --known-mpi-int64_t=0 --known-bits-per-byte=8 --known-sdot-returns-double=0 --known-snrm2-returns-double=0 --known-level1-dcache-assoc=0 --known-level1-dcache-linesize=32 --known-level1-dcache-size=32768 --known-memcmp-ok=1 --known-mpi-c-double-complex=1 --known-mpi-long-double=1 --known-mpi-shared-libraries=0 --known-sizeof-MPI_Comm=4 --known-sizeof-MPI_Fint=4 --known-sizeof-char=1 --known-sizeof-double=8 --known-sizeof-float=4 --known-sizeof-int=4 --known-sizeof-long-long=8 --known-sizeof-long=8 --known-sizeof-short=2 --known-sizeof-size_t=8 --known-sizeof-void-p=8 --with-ar=ar --with-batch=1 --with-cc=cc --with-clib-autodetect=0 --with-cxx=CC --with-cxxlib-autodetect=0 --with-debugging=0 --with-dependencies=0 --with-fc=ftn --with-fortran-datatypes=0 --with-fortran-interfaces=0 --with-fortranlib-autodetect=0 --with-ranlib=ranlib --with-scalar-type=real --with-shared-ld=ar --with-etags=0 --with-dependencies=0 --with-ssl=0 --with-dependencies=0 --with-mpi-dir=/opt/cray/mpt/7.2.5.1/gni/mpich2-intel/14.0 --with-blas-lapack-lib="-L/opt/cray/libsci/13.2.0/INTEL/14.0/x86_64/lib -lsci_intel_mp" --with-superlu=1 --with-superlu-include=/opt/cray/tpsl/1.5.2/INTEL/14.0/sandybridge/include --with-superlu-lib="-L/opt/cray/tpsl/1.5.2/INTEL/14.0/sandybridge/lib -lsuperlu" --with-superlu_dist=1 --with-superlu_dist-include=/opt/cray/tpsl/1.5.2/INTEL/14.0/sandybridge/include --with-superlu_dist-lib="-L/opt/cray/tpsl/1.5.2/INTEL/14.0/sandybridge/lib -lsuperlu_dist" --with-parmetis=1 --with-parmetis-include=/opt/cray/tpsl/1.5.2/INTEL/14.0/sandybridge/include --with-parmetis-lib="-L/opt/cray/tpsl/1.5.2/INTEL/14.0/sandybridge/lib -lparmetis" --with-metis=1 --with-metis-include=/opt/cray/tpsl/1.5.2/INTEL/14.0/sandybridge/include --with-metis-lib="-L/opt/cray/tpsl/1.5.2/INTEL/14.0/sandybridge/lib -lmetis" --with-ptscotch=1 --with-ptscotch-include=/opt/cray/tpsl/1.5.2/INTEL/14.0/sandybridge/include --with-ptscotch-lib="-L/opt/cray/tpsl/1.5.2/INTEL/14.0/sandybridge/lib -lptscotch -lscotch -lptscotcherr -lscotcherr" --with-scalapack=1 --with-scalapack-include=/opt/cray/libsci/13.2.0/INTEL/14.0/x86_64/include --with-scalapack-lib="-L/opt/cray/libsci/13.2.0/INTEL/14.0/x86_64/lib -lsci_intel_mpi_mp -lsci_intel_mp" --with-mumps=1 --with-mumps-include=/opt/cray/tpsl/1.5.2/INTEL/14.0/sandybridge/include --with-mumps-lib="-L/opt/cray/tpsl/1.5.2/INTEL/14.0/sandybridge/lib -lcmumps -ldmumps -lesmumps -lsmumps -lzmumps -lmumps_common -lptesmumps -lpord" --CFLAGS="-xavx -openmp -O3 " --CXXFLAGS="-xavx -openmp -O3  " --FFLAGS="-xavx -openmp -O3  " --LIBS=-lstdc++ --CXX_LINKER_FLAGS= --PETSC_ARCH=sandybridge --prefix=/opt/cray/pe/petsc/3.6.1.0/real/INTEL/14.0/sandybridge --with-hypre=1 --with-hypre-include=/opt/cray/tpsl/1.5.2/INTEL/14.0/sandybridge/include --with-hypre-lib="-L/opt/cray/tpsl/1.5.2/INTEL/14.0/sandybridge/lib -lHYPRE" --with-sundials=1 --with-sundials-include=/opt/cray/tpsl/1.5.2/INTEL/14.0/sandybridge/include --with-sundials-lib="-L/opt/cray/tpsl/1.5.2/INTEL/14.0/sandybridge/lib -lsundials_cvode -lsundials_cvodes -lsundials_ida -lsundials_idas -lsundials_kinsol -lsundials_nvecparallel -lsundials_nvecserial"
